Exponential decay data/tek0031.csv

Model,DPO4054
Firmware Version,2.68

Waveform Type,ANALOG
Point Format,Y
Horizontal Units,s
Horizontal Scale,4e-05
Horizontal Delay,0.0002224
Sample Interval,4e-08
Record Length,10000
Gating,0.0% to 100.0%
Probe Attenuation,10
Vertical Units,V
Vertical Offset,0
Vertical Scale,0.01
Vertical Position,0
,
,
,
Label,
TIME,CH3
2.2400e-05,0.00400156
2.2440e-05,0.00384844
2.2480e-05,0.00408125
2.2520e-05,0.00397344
2.2560e-05,0.00391875
2.2600e-05,0.00393594
2.2640e-05,0.00404062
2.2680e-05,0.00389062
2.2720e-05,0.00390781
2.2760e-05,0.0039625
2.2800e-05,0.00388281
2.2840e-05,0.0039875
2.2880e-05,0.003875
2.2920e-05,0.00406719
2.2960e-05,0.00399531
2.3000e-05,0.00387188
2.3040e-05,0.00406562
2.3080e-05,0.00393125
2.3120e-05,0.00397188
2.3160e-05,0.00395938
2.3200e-05,0.003925
2.3240e-05,0.00400313
2.3280e-05,0.00396094
2.3320e-05,0.00389531
2.3360e-05,0.00387813
2.3400e-05,0.00385625
2.3440e-05,0.00394063
2.3480e-05,0.00395313
2.3520e-05,0.00381719
2.3560e-05,0.00395938
2.3600e-05,0.00397812
2.3640e-05,0.00388281
2.3680e-05,0.0038375
2.3720e-05,0.0040125
2.3760e-05,0.00388594
2.3800e-05,0.00393594
2.3840e-05,0.00402031
2.3880e-05,0.00385
2.3920e-05,0.00394531
2.3960e-05,0.00398438
2.4000e-05,0.00384688
2.4040e-05,0.00398281
2.4080e-05,0.00381875
2.4120e-05,0.00396875
2.4160e-05,0.00392813
2.4200e-05,0.00394844
2.4240e-05,0.00385938
2.4280e-05,0.00405938
2.4320e-05,0.00380781
2.4360e-05,0.00374375
2.4400e-05,0.00391875
2.4440e-05,0.00399531
2.4480e-05,0.00390156
2.4520e-05,0.00388281
2.4560e-05,0.00377656
2.4600e-05,0.00397812
2.4640e-05,0.00387969
2.4680e-05,0.00406875
2.4720e-05,0.0039125
2.4760e-05,0.00396563
2.4800e-05,0.00392969
2.4840e-05,0.00396094
2.4880e-05,0.00403281
2.4920e-05,0.00385156
2.4960e-05,0.00399219
2.5000e-05,0.00405156
2.5040e-05,0.004
2.5080e-05,0.00400781
2.5120e-05,0.00380469
2.5160e-05,0.00396406
2.5200e-05,0.00385
2.5240e-05,0.00380156
2.5280e-05,0.00393125
2.5320e-05,0.00389844
2.5360e-05,0.00375156
2.5400e-05,0.00396875
2.5440e-05,0.0039625
2.5480e-05,0.00399688
2.5520e-05,0.00386094
2.5560e-05,0.00400469
2.5600e-05,0.00405
2.5640e-05,0.00403437
2.5680e-05,0.00393594
2.5720e-05,0.00396406
2.5760e-05,0.00398594
2.5800e-05,0.00394375
2.5840e-05,0.00388438
2.5880e-05,0.00398125
2.5920e-05,0.00396719
2.5960e-05,0.00397031
2.6000e-05,0.00390156
2.6040e-05,0.00395156
2.6080e-05,0.00390938
2.6120e-05,0.00389375
2.6160e-05,0.00395938
2.6200e-05,0.00393594
2.6240e-05,0.0039875
2.6280e-05,0.00400937
2.6320e-05,0.00391562
2.6360e-05,0.00393906
2.6400e-05,0.00378437
2.6440e-05,0.00383906
2.6480e-05,0.00394219
2.6520e-05,0.0039625
2.6560e-05,0.00393281
2.6600e-05,0.00401094
2.6640e-05,0.00390156
2.6680e-05,0.00384844
2.6720e-05,0.00390938
2.6760e-05,0.00394375
2.6800e-05,0.00375
2.6840e-05,0.003975
2.6880e-05,0.00398125
2.6920e-05,0.00383438
2.6960e-05,0.00385625
2.7000e-05,0.00395156
2.7040e-05,0.00387813
2.7080e-05,0.00384531
2.7120e-05,0.0038875
2.7160e-05,0.00393438
2.7200e-05,0.00393906
2.7240e-05,0.00379063
2.7280e-05,0.00396719
2.7320e-05,0.00387813
2.7360e-05,0.00394219
2.7400e-05,0.00390313
2.7440e-05,0.00382813
2.7480e-05,0.00393125
2.7520e-05,0.00388125
2.7560e-05,0.00376875
2.7600e-05,0.00389688
2.7640e-05,0.003875
2.7680e-05,0.00392188
2.7720e-05,0.00385781
2.7760e-05,0.00394687
2.7800e-05,0.0040125
2.7840e-05,0.00379219
2.7880e-05,0.00398125
2.7920e-05,0.00378281
2.7960e-05,0.00392188
2.8000e-05,0.00380156
2.8040e-05,0.00387031
2.8080e-05,0.00385938
2.8120e-05,0.00391562
2.8160e-05,0.00384219
2.8200e-05,0.00384688
2.8240e-05,0.00375938
2.8280e-05,0.00387813
2.8320e-05,0.0038375
2.8360e-05,0.00394375
2.8400e-05,0.00393125
2.8440e-05,0.00376875
2.8480e-05,0.00390469
2.8520e-05,0.00395938
2.8560e-05,0.00382031
2.8600e-05,0.00382188
2.8640e-05,0.00380781
2.8680e-05,0.00392969
2.8720e-05,0.00392656
2.8760e-05,0.00385
2.8800e-05,0.00394687
2.8840e-05,0.00390625
2.8880e-05,0.00387031
2.8920e-05,0.00387031
2.8960e-05,0.00392656
2.9000e-05,0.00380625
2.9040e-05,0.0038
2.9080e-05,0.00385625
2.9120e-05,0.00377813
2.9160e-05,0.00376875
2.9200e-05,0.003875
2.9240e-05,0.00382344
2.9280e-05,0.00383594
2.9320e-05,0.00392031
2.9360e-05,0.00392656
2.9400e-05,0.00393281
2.9440e-05,0.00393438
2.9480e-05,0.00390156
2.9520e-05,0.00383125
2.9560e-05,0.00391094
2.9600e-05,0.00392031
2.9640e-05,0.00390156
2.9680e-05,0.00382031
2.9720e-05,0.00384844
2.9760e-05,0.00376875
2.9800e-05,0.00386406
2.9840e-05,0.00394375
2.9880e-05,0.00394219
2.9920e-05,0.00393438
2.9960e-05,0.00386094
3.0000e-05,0.00391875
3.0040e-05,0.00374219
3.0080e-05,0.00385469
3.0120e-05,0.00388906
3.0160e-05,0.00379844
3.0200e-05,0.00379375
3.0240e-05,0.00385625
3.0280e-05,0.00394844
3.0320e-05,0.00376875
3.0360e-05,0.00384688
3.0400e-05,0.00372813
3.0440e-05,0.00375781
3.0480e-05,0.00391719
3.0520e-05,0.00380469
3.0560e-05,0.00380469
3.0600e-05,0.00392344
3.0640e-05,0.00382969
3.0680e-05,0.00381563
3.0720e-05,0.0038875
3.0760e-05,0.00389844
3.0800e-05,0.00383125
3.0840e-05,0.0039375
3.0880e-05,0.00394219
3.0920e-05,0.00386719
3.0960e-05,0.00395156
3.1000e-05,0.00382188
3.1040e-05,0.00378125
3.1080e-05,0.00383281
3.1120e-05,0.00372031
3.1160e-05,0.0038125
3.1200e-05,0.00393125
3.1240e-05,0.00390625
3.1280e-05,0.00379688
3.1320e-05,0.00398906
3.1360e-05,0.00380469
3.1400e-05,0.00387813
3.1440e-05,0.00375469
3.1480e-05,0.00386406
3.1520e-05,0.00384219
3.1560e-05,0.00375625
3.1600e-05,0.00384844
3.1640e-05,0.00385938
3.1680e-05,0.00385625
3.1720e-05,0.00374219
3.1760e-05,0.00384844
3.1800e-05,0.00387656
3.1840e-05,0.00373594
3.1880e-05,0.003675
3.1920e-05,0.0038
3.1960e-05,0.00377031
3.2000e-05,0.00378594
3.2040e-05,0.00381094
3.2080e-05,0.00382188
3.2120e-05,0.00385625
3.2160e-05,0.00385313
3.2200e-05,0.00377344
3.2240e-05,0.00370469
3.2280e-05,0.00382188
3.2320e-05,0.00393438
3.2360e-05,0.00378281
3.2400e-05,0.00387656
3.2440e-05,0.00367031
3.2480e-05,0.00390781
3.2520e-05,0.00373125
3.2560e-05,0.00393906
3.2600e-05,0.00383906
3.2640e-05,0.00380625
3.2680e-05,0.00384219
3.2720e-05,0.00381094
3.2760e-05,0.00376875
3.2800e-05,0.0038125
3.2840e-05,0.00391875
3.2880e-05,0.00383281
3.2920e-05,0.00377344
3.2960e-05,0.00380469
3.3000e-05,0.00385469
3.3040e-05,0.00372813
3.3080e-05,0.00379219
3.3120e-05,0.00371406
3.3160e-05,0.00375625
3.3200e-05,0.0037625
3.3240e-05,0.00385
3.3280e-05,0.00380156
3.3320e-05,0.0038875
3.3360e-05,0.00384063
3.3400e-05,0.00391875
3.3440e-05,0.00375
3.3480e-05,0.00385781
3.3520e-05,0.00379375
3.3560e-05,0.00374219
3.3600e-05,0.00367344
3.3640e-05,0.0038
3.3680e-05,0.00374375
3.3720e-05,0.0036875
3.3760e-05,0.0036625
3.3800e-05,0.00388281
3.3840e-05,0.00378281
3.3880e-05,0.00377344
3.3920e-05,0.00386719
3.3960e-05,0.00389219
3.4000e-05,0.00380469
3.4040e-05,0.003825
3.4080e-05,0.00376719
3.4120e-05,0.00371875
3.4160e-05,0.00382344
3.4200e-05,0.0037375
3.4240e-05,0.00375938
3.4280e-05,0.00382344
3.4320e-05,0.00380156
3.4360e-05,0.00374375
3.4400e-05,0.00379531
3.4440e-05,0.00372813
3.4480e-05,0.00368906
3.4520e-05,0.00372188
3.4560e-05,0.00377656
3.4600e-05,0.0037875
3.4640e-05,0.003725
3.4680e-05,0.00375469
3.4720e-05,0.00383281
3.4760e-05,0.00378125
3.4800e-05,0.00368125
3.4840e-05,0.00378281
3.4880e-05,0.00380469
3.4920e-05,0.00383594
3.4960e-05,0.00385156
3.5000e-05,0.00366875
3.5040e-05,0.00379531
3.5080e-05,0.00369844
3.5120e-05,0.00377813
3.5160e-05,0.00377031
3.5200e-05,0.00381094
3.5240e-05,0.00381094
3.5280e-05,0.00375313
3.5320e-05,0.00375781
3.5360e-05,0.00369219
3.5400e-05,0.00370937
3.5440e-05,0.00372656
3.5480e-05,0.00379063
3.5520e-05,0.00376406
3.5560e-05,0.00377344
3.5600e-05,0.00385625
3.5640e-05,0.00370625
3.5680e-05,0.00384531
3.5720e-05,0.00390469
3.5760e-05,0.00370156
3.5800e-05,0.00371563
3.5840e-05,0.00370937
3.5880e-05,0.00381094
3.5920e-05,0.00381563
3.5960e-05,0.00377813
3.6000e-05,0.00376406
3.6040e-05,0.00373281
3.6080e-05,0.00369531
3.6120e-05,0.00378125
3.6160e-05,0.00384688
3.6200e-05,0.00370625
3.6240e-05,0.00384375
3.6280e-05,0.00385625
3.6320e-05,0.00378281
3.6360e-05,0.00375469
3.6400e-05,0.00368906
3.6440e-05,0.00373594
3.6480e-05,0.00365781
3.6520e-05,0.00371406
3.6560e-05,0.00378281
3.6600e-05,0.00375469
3.6640e-05,0.00367344
3.6680e-05,0.00372656
3.6720e-05,0.00385
3.6760e-05,0.00359688
3.6800e-05,0.00365625
3.6840e-05,0.00377656
3.6880e-05,0.00383438
3.6920e-05,0.00381875
3.6960e-05,0.00374063
3.7000e-05,0.00375938
3.7040e-05,0.00371563
3.7080e-05,0.00368438
3.7120e-05,0.00373906
3.7160e-05,0.00368438
3.7200e-05,0.00373594
3.7240e-05,0.00384688
3.7280e-05,0.00385625
3.7320e-05,0.00365
3.7360e-05,0.00381563
3.7400e-05,0.00366563
3.7440e-05,0.00371094
3.7480e-05,0.00379688
3.7520e-05,0.00359375
3.7560e-05,0.00365
3.7600e-05,0.00377344
3.7640e-05,0.0037125
3.7680e-05,0.0038
3.7720e-05,0.00371875
3.7760e-05,0.00382344
3.7800e-05,0.00377813
3.7840e-05,0.00376094
3.7880e-05,0.00363906
3.7920e-05,0.0037125
3.7960e-05,0.00378437
3.8000e-05,0.0037
3.8040e-05,0.00366719
3.8080e-05,0.00373281
3.8120e-05,0.00366094
3.8160e-05,0.00375313
3.8200e-05,0.00366094
3.8240e-05,0.0037625
3.8280e-05,0.0037125
3.8320e-05,0.00372188
3.8360e-05,0.00375469
3.8400e-05,0.00375313
3.8440e-05,0.00374063
3.8480e-05,0.00371094
3.8520e-05,0.00373438
3.8560e-05,0.0037125
3.8600e-05,0.00373125
3.8640e-05,0.00376563
3.8680e-05,0.00374844
3.8720e-05,0.00378125
3.8760e-05,0.00384844
3.8800e-05,0.00376563
3.8840e-05,0.00370625
3.8880e-05,0.00374063
3.8920e-05,0.00376719
3.8960e-05,0.00371563
3.9000e-05,0.00370469
3.9040e-05,0.003575
3.9080e-05,0.00372656
3.9120e-05,0.00370156
3.9160e-05,0.00377188
3.9200e-05,0.00381563
3.9240e-05,0.00366094
3.9280e-05,0.003725
3.9320e-05,0.00370313
3.9360e-05,0.00372969
3.9400e-05,0.00376719
3.9440e-05,0.00354844
3.9480e-05,0.00375156
3.9520e-05,0.00375781
3.9560e-05,0.00375
3.9600e-05,0.00373125
3.9640e-05,0.0036
3.9680e-05,0.00377031
3.9720e-05,0.00369219
3.9760e-05,0.0037875
3.9800e-05,0.00375313
3.9840e-05,0.00373438
3.9880e-05,0.00364219
3.9920e-05,0.00380625
3.9960e-05,0.0037375
4.0000e-05,0.00365
4.0040e-05,0.00367188
4.0080e-05,0.00380156
4.0120e-05,0.00370625
4.0160e-05,0.00369844
4.0200e-05,0.00365156
4.0240e-05,0.00375938
4.0280e-05,0.0036625
4.0320e-05,0.00368438
4.0360e-05,0.00373594
4.0400e-05,0.00367344
4.0440e-05,0.00384219
4.0480e-05,0.00374375
4.0520e-05,0.00375156
4.0560e-05,0.00376094
4.0600e-05,0.00374844
4.0640e-05,0.00373281
4.0680e-05,0.00360312
4.0720e-05,0.00369063
4.0760e-05,0.00364063
4.0800e-05,0.00374688
4.0840e-05,0.00365
4.0880e-05,0.00369688
4.0920e-05,0.00381719
4.0960e-05,0.00367344
4.1000e-05,0.00370625
4.1040e-05,0.0036375
4.1080e-05,0.00361563
4.1120e-05,0.00370625
4.1160e-05,0.00374375
4.1200e-05,0.00372188
4.1240e-05,0.00363906
4.1280e-05,0.00368594
4.1320e-05,0.00359531
4.1360e-05,0.00371719
4.1400e-05,0.00374688
4.1440e-05,0.00373281
4.1480e-05,0.0036875
4.1520e-05,0.00374063
4.1560e-05,0.00374531
4.1600e-05,0.00367656
4.1640e-05,0.003725
4.1680e-05,0.00367344
4.1720e-05,0.0037
4.1760e-05,0.00366406
4.1800e-05,0.00371094
4.1840e-05,0.00367344
4.1880e-05,0.00372813
4.1920e-05,0.0037375
4.1960e-05,0.00371563
4.2000e-05,0.00356094
4.2040e-05,0.00368281
4.2080e-05,0.00371406
4.2120e-05,0.00360781
4.2160e-05,0.00359219
4.2200e-05,0.00367031
4.2240e-05,0.00364375
4.2280e-05,0.00377344
4.2320e-05,0.00376563
4.2360e-05,0.00370156
4.2400e-05,0.00370469
4.2440e-05,0.003625
4.2480e-05,0.00365938
4.2520e-05,0.00363125
4.2560e-05,0.00372656
4.2600e-05,0.00373125
4.2640e-05,0.00374688
4.2680e-05,0.00367031
4.2720e-05,0.00373125
4.2760e-05,0.0035875
4.2800e-05,0.00364844
4.2840e-05,0.00371094
4.2880e-05,0.00368906
4.2920e-05,0.00361563
4.2960e-05,0.00366719
4.3000e-05,0.00374375
4.3040e-05,0.00357813
4.3080e-05,0.00370313
4.3120e-05,0.00364063
4.3160e-05,0.00361406
4.3200e-05,0.00369063
4.3240e-05,0.00361094
4.3280e-05,0.00367344
4.3320e-05,0.00365469
4.3360e-05,0.00372188
4.3400e-05,0.0036875
4.3440e-05,0.00366875
4.3480e-05,0.0036
4.3520e-05,0.00365781
4.3560e-05,0.00365625
4.3600e-05,0.00369844
4.3640e-05,0.00380313
4.3680e-05,0.00364375
4.3720e-05,0.00367656
4.3760e-05,0.00358125
4.3800e-05,0.00365938
4.3840e-05,0.00355781
4.3880e-05,0.00368906
4.3920e-05,0.00368438
4.3960e-05,0.00363281
4.4000e-05,0.00369531
4.4040e-05,0.00360938
4.4080e-05,0.00356094
4.4120e-05,0.00364688
4.4160e-05,0.00364375
4.4200e-05,0.00381875
4.4240e-05,0.00367031
4.4280e-05,0.00369063
4.4320e-05,0.00374219
4.4360e-05,0.00368125
4.4400e-05,0.00364063
4.4440e-05,0.00375313
4.4480e-05,0.00371563
4.4520e-05,0.00355469
4.4560e-05,0.00357656
4.4600e-05,0.00366563
4.4640e-05,0.00360781
4.4680e-05,0.003675
4.4720e-05,0.00377188
4.4760e-05,0.00360625
4.4800e-05,0.00368281
4.4840e-05,0.00369063
4.4880e-05,0.00372656
4.4920e-05,0.0034375
4.4960e-05,0.00351563
4.5000e-05,0.00366875
4.5040e-05,0.00367188
4.5080e-05,0.00356875
4.5120e-05,0.0038
4.5160e-05,0.00360469
4.5200e-05,0.00372813
4.5240e-05,0.00363281
4.5280e-05,0.00360625
4.5320e-05,0.00362656
4.5360e-05,0.00369375
4.5400e-05,0.00369219
4.5440e-05,0.00364375
4.5480e-05,0.00362969
4.5520e-05,0.00365938
4.5560e-05,0.00375781
4.5600e-05,0.00354219
4.5640e-05,0.00365
4.5680e-05,0.00363906
4.5720e-05,0.00367969
4.5760e-05,0.00353281
4.5800e-05,0.00362656
4.5840e-05,0.00363438
4.5880e-05,0.00358594
4.5920e-05,0.00370156
4.5960e-05,0.00357344
4.6000e-05,0.00353906
4.6040e-05,0.00355938
4.6080e-05,0.00373281
4.6120e-05,0.00369063
4.6160e-05,0.00358281
4.6200e-05,0.00360469
4.6240e-05,0.00369688
4.6280e-05,0.00370781
4.6320e-05,0.00372031
4.6360e-05,0.00353906
4.6400e-05,0.00351563
4.6440e-05,0.00363594
4.6480e-05,0.003725
4.6520e-05,0.00375156
4.6560e-05,0.00349687
4.6600e-05,0.00372813
4.6640e-05,0.00354531
4.6680e-05,0.00369531
4.6720e-05,0.00372188
4.6760e-05,0.00362188
4.6800e-05,0.00358281
4.6840e-05,0.00368438
4.6880e-05,0.00346562
4.6920e-05,0.00357187
4.6960e-05,0.00365
4.7000e-05,0.00365469
4.7040e-05,0.00364063
4.7080e-05,0.00358438
4.7120e-05,0.00347344
4.7160e-05,0.00370156
4.7200e-05,0.00366094
4.7240e-05,0.00366406
4.7280e-05,0.0035625
4.7320e-05,0.00369688
4.7360e-05,0.00359531
4.7400e-05,0.00369531
4.7440e-05,0.00352813
4.7480e-05,0.00369375
4.7520e-05,0.0036
4.7560e-05,0.003625
4.7600e-05,0.00362031
4.7640e-05,0.00364844
4.7680e-05,0.00361406
4.7720e-05,0.00364844
4.7760e-05,0.00362813
4.7800e-05,0.0036375
4.7840e-05,0.00373281
4.7880e-05,0.00348281
4.7920e-05,0.00366563
4.7960e-05,0.00375938
4.8000e-05,0.00354844
4.8040e-05,0.0036125
4.8080e-05,0.00364844
4.8120e-05,0.00359375
4.8160e-05,0.00354063
4.8200e-05,0.00356563
4.8240e-05,0.00359844
4.8280e-05,0.00355469
4.8320e-05,0.00360469
4.8360e-05,0.0035625
4.8400e-05,0.00354219
4.8440e-05,0.00352969
4.8480e-05,0.00366719
4.8520e-05,0.0036
4.8560e-05,0.00360469
4.8600e-05,0.00350313
4.8640e-05,0.00351406
4.8680e-05,0.00363594
4.8720e-05,0.00359063
4.8760e-05,0.00354844
4.8800e-05,0.00360312
4.8840e-05,0.00367969
4.8880e-05,0.00360469
4.8920e-05,0.00355938
4.8960e-05,0.00355313
4.9000e-05,0.00373125
4.9040e-05,0.00369375
4.9080e-05,0.00352813
4.9120e-05,0.00365
4.9160e-05,0.00366406
4.9200e-05,0.00355
4.9240e-05,0.00352031
4.9280e-05,0.00347188
4.9320e-05,0.00362813
4.9360e-05,0.00359063
4.9400e-05,0.00364531
4.9440e-05,0.00355625
4.9480e-05,0.00370937
4.9520e-05,0.00361406
4.9560e-05,0.00358281
4.9600e-05,0.00368125
4.9640e-05,0.00367812
4.9680e-05,0.00355
4.9720e-05,0.00356719
4.9760e-05,0.0036625
4.9800e-05,0.00371719
4.9840e-05,0.00358594
4.9880e-05,0.00364219
4.9920e-05,0.00347813
4.9960e-05,0.00359844
5.0000e-05,0.00360781
5.0040e-05,0.00359531
5.0080e-05,0.00356719
5.0120e-05,0.00359219
5.0160e-05,0.00344844
5.0200e-05,0.00353281
5.0240e-05,0.00359375
5.0280e-05,0.00354375
5.0320e-05,0.00376875
5.0360e-05,0.00356406
5.0400e-05,0.00360312
5.0440e-05,0.00357187
5.0480e-05,0.00362188
5.0520e-05,0.00356719
5.0560e-05,0.00366094
5.0600e-05,0.00357656
5.0640e-05,0.00359063
5.0680e-05,0.00360156
5.0720e-05,0.00363125
5.0760e-05,0.00359531
5.0800e-05,0.00354063
5.0840e-05,0.00359688
5.0880e-05,0.00356875
5.0920e-05,0.00352188
5.0960e-05,0.00356094
5.1000e-05,0.00353125
5.1040e-05,0.00356563
5.1080e-05,0.00360312
5.1120e-05,0.0036875
5.1160e-05,0.00354688
5.1200e-05,0.00346562
5.1240e-05,0.00366563
5.1280e-05,0.00359688
5.1320e-05,0.0036875
5.1360e-05,0.00361563
5.1400e-05,0.0035375
5.1440e-05,0.00363125
5.1480e-05,0.00359375
5.1520e-05,0.00358125
5.1560e-05,0.00356094
5.1600e-05,0.00368594
5.1640e-05,0.00356406
5.1680e-05,0.00359844
5.1720e-05,0.0034625
5.1760e-05,0.00354375
5.1800e-05,0.00366406
5.1840e-05,0.00350313
5.1880e-05,0.00364219
5.1920e-05,0.00366875
5.1960e-05,0.00366094
5.2000e-05,0.00347656
5.2040e-05,0.00354219
5.2080e-05,0.00358438
5.2120e-05,0.00354531
5.2160e-05,0.00359844
5.2200e-05,0.00357656
5.2240e-05,0.0034
5.2280e-05,0.00353438
5.2320e-05,0.00357969
5.2360e-05,0.00357969
5.2400e-05,0.00351875
5.2440e-05,0.00348594
5.2480e-05,0.00361406
5.2520e-05,0.00353281
5.2560e-05,0.00354688
5.2600e-05,0.00355938
5.2640e-05,0.00353438
5.2680e-05,0.00364531
5.2720e-05,0.00376719
5.2760e-05,0.00354688
5.2800e-05,0.00353281
5.2840e-05,0.0037
5.2880e-05,0.00369531
5.2920e-05,0.00345938
5.2960e-05,0.00357344
5.3000e-05,0.00355313
5.3040e-05,0.00367969
5.3080e-05,0.0036
5.3120e-05,0.00352969
5.3160e-05,0.00355
5.3200e-05,0.00377031
5.3240e-05,0.00356563
5.3280e-05,0.00341094
5.3320e-05,0.00354219
5.3360e-05,0.00367031
5.3400e-05,0.00363594
5.3440e-05,0.00362656
5.3480e-05,0.00355156
5.3520e-05,0.00361875
5.3560e-05,0.00356406
5.3600e-05,0.00368906
5.3640e-05,0.00353906
5.3680e-05,0.00357969
5.3720e-05,0.0035375
5.3760e-05,0.00356563
5.3800e-05,0.00365
5.3840e-05,0.00356563
5.3880e-05,0.00357656
5.3920e-05,0.00356719
5.3960e-05,0.00361094
5.4000e-05,0.00361563
5.4040e-05,0.00361719
5.4080e-05,0.00360312
5.4120e-05,0.00354531
5.4160e-05,0.00360312
5.4200e-05,0.00355156
5.4240e-05,0.00368438
5.4280e-05,0.00350313
5.4320e-05,0.00351719
5.4360e-05,0.00359219
5.4400e-05,0.00352656
5.4440e-05,0.00352344
5.4480e-05,0.00358125
5.4520e-05,0.00362813
5.4560e-05,0.00346562
5.4600e-05,0.00362344
5.4640e-05,0.00353906
5.4680e-05,0.00351406
5.4720e-05,0.0036
5.4760e-05,0.00350781
5.4800e-05,0.00349063
5.4840e-05,0.0036
5.4880e-05,0.003725
5.4920e-05,0.00351719
5.4960e-05,0.00354688
5.5000e-05,0.00350625
5.5040e-05,0.00352188
5.5080e-05,0.00363281
5.5120e-05,0.00350938
5.5160e-05,0.00364219
5.5200e-05,0.00355938
5.5240e-05,0.0035625
5.5280e-05,0.00358438
5.5320e-05,0.0035625
5.5360e-05,0.00355469
5.5400e-05,0.00346875
5.5440e-05,0.00357344
5.5480e-05,0.00349844
5.5520e-05,0.00359219
5.5560e-05,0.00352344
5.5600e-05,0.00349531
5.5640e-05,0.00359531
5.5680e-05,0.00337656
5.5720e-05,0.00346094
5.5760e-05,0.00359688
5.5800e-05,0.00363906
5.5840e-05,0.00349844
5.5880e-05,0.00363906
5.5920e-05,0.00357969
5.5960e-05,0.00357969
5.6000e-05,0.00360156
5.6040e-05,0.00362813
5.6080e-05,0.00340313
5.6120e-05,0.00354688
5.6160e-05,0.00359063
5.6200e-05,0.00357969
5.6240e-05,0.00364375
5.6280e-05,0.00350781
5.6320e-05,0.00355625
5.6360e-05,0.00350625
5.6400e-05,0.00345156
5.6440e-05,0.0035
5.6480e-05,0.00356875
5.6520e-05,0.00360312
5.6560e-05,0.0036125
5.6600e-05,0.00366875
5.6640e-05,0.00350313
5.6680e-05,0.00352656
5.6720e-05,0.00352969
5.6760e-05,0.00347813
5.6800e-05,0.00354219
5.6840e-05,0.00356094
5.6880e-05,0.0036
5.6920e-05,0.00347656
5.6960e-05,0.00349219
5.7000e-05,0.00366875
5.7040e-05,0.00357969
5.7080e-05,0.00348125
5.7120e-05,0.00354219
5.7160e-05,0.0035125
5.7200e-05,0.00350156
5.7240e-05,0.00349219
5.7280e-05,0.00360469
5.7320e-05,0.00354219
5.7360e-05,0.00349375
5.7400e-05,0.00349844
5.7440e-05,0.00351719
5.7480e-05,0.00358281
5.7520e-05,0.00344531
5.7560e-05,0.00353906
5.7600e-05,0.0036625
5.7640e-05,0.00353594
5.7680e-05,0.00357656
5.7720e-05,0.00350625
5.7760e-05,0.00354844
5.7800e-05,0.00363906
5.7840e-05,0.00347031
5.7880e-05,0.00354063
5.7920e-05,0.00345938
5.7960e-05,0.00351094
5.8000e-05,0.00361094
5.8040e-05,0.00350156
5.8080e-05,0.00347969
5.8120e-05,0.00355938
5.8160e-05,0.00355
5.8200e-05,0.003525
5.8240e-05,0.00359375
5.8280e-05,0.00345781
5.8320e-05,0.00345781
5.8360e-05,0.00365781
5.8400e-05,0.00349687
5.8440e-05,0.00361563
5.8480e-05,0.00356563
5.8520e-05,0.00352813
