Exponential decay data/tek0025.csv

Model,DPO4054
Firmware Version,2.68

Waveform Type,ANALOG
Point Format,Y
Horizontal Units,s
Horizontal Scale,0.04
Horizontal Delay,0
Sample Interval,0.0004
Record Length,1000
Gating,0.0% to 100.0%
Probe Attenuation,1
Vertical Units,V
Vertical Offset,0
Vertical Scale,0.02
Vertical Position,-4
,
,
,
Label,
TIME,CH1
-2.000e-01,-0.000253125
-1.996e-01,-0.000196875
-1.992e-01,-0.000415625
-1.988e-01,-0.000590625
-1.984e-01,-0.000246875
-1.980e-01,-0.000115625
-1.976e-01,0.000528125
-1.972e-01,-0.000234375
-1.968e-01,-0.000103125
-1.964e-01,-4.0625e-05
-1.960e-01,8.125e-05
-1.956e-01,9.6875e-05
-1.952e-01,2.5e-05
-1.948e-01,0.000959375
-1.944e-01,0
-1.940e-01,0.00010625
-1.936e-01,9.6875e-05
-1.932e-01,5.9375e-05
-1.928e-01,-0.000109375
-1.924e-01,0.00155938
-1.920e-01,-0.00040625
-1.916e-01,-0.000428125
-1.912e-01,-0.0003875
-1.908e-01,-0.00023125
-1.904e-01,-0.00051875
-1.900e-01,-0.000246875
-1.896e-01,-0.00021875
-1.892e-01,-9.375e-05
-1.888e-01,-0.00039375
-1.884e-01,-0.000184375
-1.880e-01,-0.000353125
-1.876e-01,-0.000221875
-1.872e-01,-0.000309375
-1.868e-01,-0.000203125
-1.864e-01,-4.6875e-05
-1.860e-01,-0.000375
-1.856e-01,-0.00026875
-1.852e-01,-0.00036875
-1.848e-01,-0.000178125
-1.844e-01,-0.00039375
-1.840e-01,7.5e-05
-1.836e-01,-0.000396875
-1.832e-01,0.000134375
-1.828e-01,-0.0002375
-1.824e-01,-0.000725
-1.820e-01,-0.000353125
-1.816e-01,-0.000409375
-1.812e-01,-0.0002125
-1.808e-01,2.5e-05
-1.804e-01,0.00045625
-1.800e-01,0.00740625
-1.796e-01,0.00927187
-1.792e-01,0.01235
-1.788e-01,0.0204125
-1.784e-01,0.0003
-1.780e-01,-0.00028125
-1.776e-01,-0.00020625
-1.772e-01,0.000640625
-1.768e-01,-0.000390625
-1.764e-01,-0.000265625
-1.760e-01,-0.00046875
-1.756e-01,0.000878125
-1.752e-01,-0.000121875
-1.748e-01,-0.00040625
-1.744e-01,0.00101875
-1.740e-01,-8.75e-05
-1.736e-01,-7.1875e-05
-1.732e-01,0.00146875
-1.728e-01,-0.00015
-1.724e-01,-0.000309375
-1.720e-01,-0.000296875
-1.716e-01,-0.0001
-1.712e-01,-0.00015
-1.708e-01,-0.00035
-1.704e-01,-0.000378125
-1.700e-01,-0.0001625
-1.696e-01,-0.00030625
-1.692e-01,-0.0002625
-1.688e-01,-0.000503125
-1.684e-01,-0.000121875
-1.680e-01,-0.0004125
-1.676e-01,-0.000175
-1.672e-01,2.5e-05
-1.668e-01,-0.000175
-1.664e-01,-0.000475
-1.660e-01,-3.125e-05
-1.656e-01,-0.00029375
-1.652e-01,-0.000184375
-1.648e-01,-0.000234375
-1.644e-01,-0.000246875
-1.640e-01,6.25e-05
-1.636e-01,-0.0002125
-1.632e-01,-9.375e-05
-1.628e-01,-0.000296875
-1.624e-01,-0.00048125
-1.620e-01,-0.00023125
-1.616e-01,-0.00030625
-1.612e-01,-0.000459375
-1.608e-01,-0.00036875
-1.604e-01,-0.000359375
-1.600e-01,-0.000221875
-1.596e-01,-0.00011875
-1.592e-01,-0.000446875
-1.588e-01,-7.1875e-05
-1.584e-01,-0.00010625
-1.580e-01,-0.00035
-1.576e-01,0.00073125
-1.572e-01,0.0105094
-1.568e-01,0.0101219
-1.564e-01,0.0104656
-1.560e-01,0.00185
-1.556e-01,0.00018125
-1.552e-01,0.00134687
-1.548e-01,-4.6875e-05
-1.544e-01,-0.00018125
-1.540e-01,0.00102187
-1.536e-01,0.000103125
-1.532e-01,-3.75e-05
-1.528e-01,0.0012125
-1.524e-01,3.75e-05
-1.520e-01,-0.000284375
-1.516e-01,-0.0003625
-1.512e-01,-0.00015
-1.508e-01,-0.00026875
-1.504e-01,-0.000271875
-1.500e-01,-4.375e-05
-1.496e-01,-0.0001375
-1.492e-01,-0.0001625
-1.488e-01,-0.000353125
-1.484e-01,-0.000228125
-1.480e-01,-0.000259375
-1.476e-01,-0.000459375
-1.472e-01,-0.000496875
-1.468e-01,-0.000184375
-1.464e-01,-0.000221875
-1.460e-01,-0.000328125
-1.456e-01,-0.00025
-1.452e-01,-0.000253125
-1.448e-01,-0.00028125
-1.444e-01,-6.25e-06
-1.440e-01,-6.5625e-05
-1.436e-01,-0.000159375
-1.432e-01,-0.000221875
-1.428e-01,-0.0003875
-1.424e-01,-0.0001625
-1.420e-01,-0.00045
-1.416e-01,-0.000225
-1.412e-01,-5.625e-05
-1.408e-01,-0.000315625
-1.404e-01,-0.00041875
-1.400e-01,-0.000340625
-1.396e-01,-0.00045
-1.392e-01,-0.000346875
-1.388e-01,-0.000146875
-1.384e-01,-0.000340625
-1.380e-01,-0.000234375
-1.376e-01,-0.000325
-1.372e-01,-5.9375e-05
-1.368e-01,0.000275
-1.364e-01,-0.00025
-1.360e-01,0.000953125
-1.356e-01,0.00016875
-1.352e-01,0.000171875
-1.348e-01,0.00608125
-1.344e-01,0.00931875
-1.340e-01,0.0186656
-1.336e-01,0.0127812
-1.332e-01,0.00127187
-1.328e-01,0.0001125
-1.324e-01,-7.5e-05
-1.320e-01,-0.0005625
-1.316e-01,-0.00038125
-1.312e-01,-4.6875e-05
-1.308e-01,-0.00015625
-1.304e-01,-0.00025
-1.300e-01,-0.000228125
-1.296e-01,-0.000171875
-1.292e-01,-0.000403125
-1.288e-01,-0.00010625
-1.284e-01,-6.5625e-05
-1.280e-01,9.0625e-05
-1.276e-01,-0.000253125
-1.272e-01,-0.000196875
-1.268e-01,-0.00014375
-1.264e-01,-0.000165625
-1.260e-01,-3.75e-05
-1.256e-01,-0.000121875
-1.252e-01,-0.000340625
-1.248e-01,-0.00020625
-1.244e-01,-0.000484375
-1.240e-01,-0.000353125
-1.236e-01,-0.00038125
-1.232e-01,-0.000234375
-1.228e-01,-0.000171875
-1.224e-01,-2.1875e-05
-1.220e-01,-8.4375e-05
-1.216e-01,-9.6875e-05
-1.212e-01,7.5e-05
-1.208e-01,-0.00011875
-1.204e-01,-0.00029375
-1.200e-01,-6.25e-06
-1.196e-01,-0.000240625
-1.192e-01,-0.000434375
-1.188e-01,-4.0625e-05
-1.184e-01,-0.000153125
-1.180e-01,-0.00025625
-1.176e-01,5.625e-05
-1.172e-01,-6.875e-05
-1.168e-01,-0.000196875
-1.164e-01,-9.375e-06
-1.160e-01,7.5e-05
-1.156e-01,0.00130938
-1.152e-01,-0.000140625
-1.148e-01,-0.00015
-1.144e-01,0.00103438
-1.140e-01,0.00111562
-1.136e-01,3.125e-06
-1.132e-01,0.000121875
-1.128e-01,-0.00016875
-1.124e-01,0.00370313
-1.120e-01,0.00938438
-1.116e-01,0.0189594
-1.112e-01,0.0131187
-1.108e-01,0.000171875
-1.104e-01,-0.000359375
-1.100e-01,-9.6875e-05
-1.096e-01,-0.000253125
-1.092e-01,-0.000246875
-1.088e-01,-0.000278125
-1.084e-01,-9.375e-06
-1.080e-01,-0.000203125
-1.076e-01,-0.000503125
-1.072e-01,-0.000134375
-1.068e-01,-0.000196875
-1.064e-01,-0.00015
-1.060e-01,-0.00045
-1.056e-01,-0.00035
-1.052e-01,-0.000328125
-1.048e-01,-0.000290625
-1.044e-01,-0.00013125
-1.040e-01,-0.000359375
-1.036e-01,-0.000403125
-1.032e-01,-0.000125
-1.028e-01,-0.00015
-1.024e-01,-0.00045
-1.020e-01,-0.000109375
-1.016e-01,-5.9375e-05
-1.012e-01,0.0001
-1.008e-01,-0.000153125
-1.004e-01,-0.000215625
-1.000e-01,-0.0003375
-9.960e-02,0.000171875
-9.920e-02,-0.000396875
-9.880e-02,-0.000103125
-9.840e-02,-5.625e-05
-9.800e-02,-0.000234375
-9.760e-02,-0.0001375
-9.720e-02,0.0002375
-9.680e-02,-2.8125e-05
-9.640e-02,0.000475
-9.600e-02,0.00095625
-9.560e-02,0.000325
-9.520e-02,2.5e-05
-9.480e-02,-0.000359375
-9.440e-02,-0.00031875
-9.400e-02,0.00134062
-9.360e-02,-0.00024375
-9.320e-02,-0.00015625
-9.280e-02,-8.75e-05
-9.240e-02,-0.0002875
-9.200e-02,-0.00051875
-9.160e-02,-0.000115625
-9.120e-02,-8.125e-05
-9.080e-02,-0.000215625
-9.040e-02,0.000675
-9.000e-02,0.00340937
-8.960e-02,0.0091
-8.920e-02,0.0122125
-8.880e-02,0.02045
-8.840e-02,-0.000234375
-8.800e-02,-0.0002625
-8.760e-02,-4.6875e-05
-8.720e-02,-0.000390625
-8.680e-02,-0.00019375
-8.640e-02,-9.0625e-05
-8.600e-02,-0.0002375
-8.560e-02,-0.000234375
-8.520e-02,-0.000453125
-8.480e-02,-3.125e-06
-8.440e-02,-0.000184375
-8.400e-02,-0.0005625
-8.360e-02,-0.000471875
-8.320e-02,8.4375e-05
-8.280e-02,-0.000153125
-8.240e-02,-4.375e-05
-8.200e-02,-3.125e-06
-8.160e-02,-0.0002125
-8.120e-02,1.875e-05
-8.080e-02,-6.5625e-05
-8.040e-02,-0.000225
-8.000e-02,-7.8125e-05
-7.960e-02,-0.000440625
-7.920e-02,-2.8125e-05
-7.880e-02,-0.000246875
-7.840e-02,-8.4375e-05
-7.800e-02,0.00010625
-7.760e-02,0.000125
-7.720e-02,-0.000121875
-7.680e-02,-0.00019375
-7.640e-02,-0.000253125
-7.600e-02,0.00118438
-7.560e-02,0.00108437
-7.520e-02,0.00038125
-7.480e-02,0.0002125
-7.440e-02,3.125e-06
-7.400e-02,-9.375e-05
-7.360e-02,2.8125e-05
-7.320e-02,-5.625e-05
-7.280e-02,0.0013125
-7.240e-02,-0.0002875
-7.200e-02,-3.125e-05
-7.160e-02,-0.000284375
-7.120e-02,-0.000378125
-7.080e-02,-1.5625e-05
-7.040e-02,9.375e-06
-7.000e-02,-0.000475
-6.960e-02,-0.000134375
-6.920e-02,-0.00025
-6.880e-02,-0.000428125
-6.840e-02,-9.0625e-05
-6.800e-02,-0.000121875
-6.760e-02,0.00073125
-6.720e-02,0.0100375
-6.680e-02,0.011575
-6.640e-02,0.010425
-6.600e-02,0.00074375
-6.560e-02,-0.0002
-6.520e-02,-0.00015
-6.480e-02,-0.00034375
-6.440e-02,-0.000159375
-6.400e-02,-0.000271875
-6.360e-02,-0.0003875
-6.320e-02,-0.0005125
-6.280e-02,-0.000359375
-6.240e-02,-0.000540625
-6.200e-02,-0.000125
-6.160e-02,-0.00014375
-6.120e-02,-0.000321875
-6.080e-02,-0.00035625
-6.040e-02,-3.4375e-05
-6.000e-02,-0.00024375
-5.960e-02,-0.00024375
-5.920e-02,-0.000190625
-5.880e-02,-0.000253125
-5.840e-02,-0.0003
-5.800e-02,-5.625e-05
-5.760e-02,0.00159375
-5.720e-02,0.000275
-5.680e-02,0.00115
-5.640e-02,-0.000371875
-5.600e-02,-7.5e-05
-5.560e-02,4.0625e-05
-5.520e-02,-3.125e-05
-5.480e-02,-1.25e-05
-5.440e-02,-0.000209375
-5.400e-02,-0.00011875
-5.360e-02,0.000175
-5.320e-02,7.5e-05
-5.280e-02,0
-5.240e-02,0.0007875
-5.200e-02,-0.000371875
-5.160e-02,-9.0625e-05
-5.120e-02,-0.000165625
-5.080e-02,-0.00045625
-5.040e-02,-0.000425
-5.000e-02,-4.6875e-05
-4.960e-02,-0.000203125
-4.920e-02,-0.000175
-4.880e-02,-0.00035
-4.840e-02,-0.000196875
-4.800e-02,-0.00015
-4.760e-02,-0.000334375
-4.720e-02,-0.0002625
-4.680e-02,-0.0001625
-4.640e-02,-0.00018125
-4.600e-02,-0.0004875
-4.560e-02,-0.0002875
-4.520e-02,-0.00025625
-4.480e-02,0.00934375
-4.440e-02,0.00965312
-4.400e-02,0.0187281
-4.360e-02,0.0117531
-4.320e-02,-0.000378125
-4.280e-02,-0.000246875
-4.240e-02,-0.000196875
-4.200e-02,-3.125e-06
-4.160e-02,-0.00015625
-4.120e-02,-0.000221875
-4.080e-02,-0.0002375
-4.040e-02,-0.000159375
-4.000e-02,-0.00018125
-3.960e-02,-0.000290625
-3.920e-02,-0.00044375
-3.880e-02,-0.0001375
-3.840e-02,-4.375e-05
-3.800e-02,9.375e-05
-3.760e-02,9.0625e-05
-3.720e-02,1.5625e-05
-3.680e-02,-0.00030625
-3.640e-02,0.00118125
-3.600e-02,-0.000134375
-3.560e-02,0.000440625
-3.520e-02,-0.00039375
-3.480e-02,0.00033125
-3.440e-02,-6.875e-05
-3.400e-02,-0.00023125
-3.360e-02,-1.25e-05
-3.320e-02,0.00169063
-3.280e-02,-0.000296875
-3.240e-02,-0.000309375
-3.200e-02,-0.000371875
-3.160e-02,-0.000559375
-3.120e-02,-0.00039375
-3.080e-02,-0.00030625
-3.040e-02,-0.000259375
-3.000e-02,-0.000165625
-2.960e-02,-0.000184375
-2.920e-02,-0.00021875
-2.880e-02,-0.00044375
-2.840e-02,-0.0001625
-2.800e-02,-0.000546875
-2.760e-02,8.125e-05
-2.720e-02,5.9375e-05
-2.680e-02,-5.625e-05
-2.640e-02,-0.00050625
-2.600e-02,-0.000146875
-2.560e-02,-0.000159375
-2.520e-02,-0.0001375
-2.480e-02,0.000190625
-2.440e-02,-0.00028125
-2.400e-02,-0.00019375
-2.360e-02,-0.000128125
-2.320e-02,-0.00019375
-2.280e-02,-0.00014375
-2.240e-02,0.003725
-2.200e-02,0.0092
-2.160e-02,0.0189281
-2.120e-02,0.0123781
-2.080e-02,-0.000459375
-2.040e-02,-0.000259375
-2.000e-02,-0.000165625
-1.960e-02,-0.0002375
-1.920e-02,-0.000225
-1.880e-02,-0.00036875
-1.840e-02,-0.000471875
-1.800e-02,-0.00021875
-1.760e-02,-0.000496875
-1.720e-02,-0.00011875
-1.680e-02,-0.0004
-1.640e-02,-0.0001375
-1.600e-02,0.00030625
-1.560e-02,0.000734375
-1.520e-02,0.000878125
-1.480e-02,0.000140625
-1.440e-02,-0.000259375
-1.400e-02,0.00124687
-1.360e-02,0.0001125
-1.320e-02,-0.00028125
-1.280e-02,0.00146875
-1.240e-02,-0.00051875
-1.200e-02,-0.00025
-1.160e-02,-0.000221875
-1.120e-02,-0.00018125
-1.080e-02,-0.0002
-1.040e-02,-0.00048125
-1.000e-02,-0.00031875
-9.600e-03,-0.000471875
-9.200e-03,-0.000340625
-8.800e-03,0.0001125
-8.400e-03,-0.0001125
-8.000e-03,-0.00044375
-7.600e-03,-0.000475
-7.200e-03,0.00024375
-6.800e-03,-4.6875e-05
-6.400e-03,-0.00035
-6.000e-03,7.1875e-05
-5.600e-03,-0.000209375
-5.200e-03,-0.000209375
-4.800e-03,-0.000340625
-4.400e-03,-0.000103125
-4.000e-03,-0.0002125
-3.600e-03,-0.000371875
-3.200e-03,-0.000409375
-2.800e-03,-0.00010625
-2.400e-03,-0.000471875
-2.000e-03,-0.0001125
-1.600e-03,-0.0001625
-1.200e-03,-0.000334375
-8.000e-04,-0.00039375
-4.000e-04,0.00084375
2.000e-15,0.007375
4.000e-04,0.009225
8.000e-04,0.0119438
1.200e-03,0.0206594
1.600e-03,-0.000271875
2.000e-03,-0.000278125
2.400e-03,0.000775
2.800e-03,0.00014375
3.200e-03,-0.000140625
3.600e-03,-0.00035
4.000e-03,-2.8125e-05
4.400e-03,-0.00045
4.800e-03,-0.000378125
5.200e-03,0.00116563
5.600e-03,3.125e-05
6.000e-03,-6.5625e-05
6.400e-03,-0.0001875
6.800e-03,-6.25e-05
7.200e-03,-0.00030625
7.600e-03,0.00153125
8.000e-03,-0.000378125
8.400e-03,-0.0003375
8.800e-03,-0.000196875
9.200e-03,-0.00011875
9.600e-03,0.000134375
1.000e-02,-0.00030625
1.040e-02,-0.000403125
1.080e-02,-0.00023125
1.120e-02,-7.5e-05
1.160e-02,-0.00044375
1.200e-02,-0.000134375
1.240e-02,-0.000525
1.280e-02,-0.000278125
1.320e-02,-0.00046875
1.360e-02,-6.25e-05
1.400e-02,-0.00028125
1.440e-02,-0.000615625
1.480e-02,-0.000475
1.520e-02,-0.000128125
1.560e-02,-0.00010625
1.600e-02,-0.000353125
1.640e-02,-0.00043125
1.680e-02,-0.000125
1.720e-02,-0.00038125
1.760e-02,-0.000284375
1.800e-02,-0.0003
1.840e-02,-0.000315625
1.880e-02,-0.000296875
1.920e-02,-7.5e-05
1.960e-02,-0.00021875
2.000e-02,-0.0002625
2.040e-02,-0.000271875
2.080e-02,-0.00016875
2.120e-02,-0.000375
2.160e-02,-0.00033125
2.200e-02,-0.000371875
2.240e-02,0.0010625
2.280e-02,0.00944375
2.320e-02,0.0101719
2.360e-02,0.0106969
2.400e-02,0.00155313
2.440e-02,0.00103438
2.480e-02,-0.00011875
2.520e-02,-8.75e-05
2.560e-02,0.00098125
2.600e-02,4.0625e-05
2.640e-02,-0.0002625
2.680e-02,0.00152187
2.720e-02,-1.875e-05
2.760e-02,0.000103125
2.800e-02,-0.000334375
2.840e-02,-0.0003
2.880e-02,-0.00020625
2.920e-02,-0.000246875
2.960e-02,9.0625e-05
3.000e-02,-0.00045
3.040e-02,-0.000375
3.080e-02,-0.000115625
3.120e-02,-0.00011875
3.160e-02,-0.000246875
3.200e-02,-6.25e-05
3.240e-02,-0.00035
3.280e-02,-0.0004375
3.320e-02,-0.000153125
3.360e-02,-0.0001375
3.400e-02,-0.000284375
3.440e-02,9.0625e-05
3.480e-02,-0.000415625
3.520e-02,-0.000140625
3.560e-02,-0.000453125
3.600e-02,-0.0003375
3.640e-02,-0.000334375
3.680e-02,-0.000103125
3.720e-02,-0.000328125
3.760e-02,-0.000340625
3.800e-02,-0.000303125
3.840e-02,-0.000103125
3.880e-02,-0.00053125
3.920e-02,-0.00039375
3.960e-02,-0.000384375
4.000e-02,-6.875e-05
4.040e-02,-0.000334375
4.080e-02,-0.000203125
4.120e-02,-0.000115625
4.160e-02,-0.000190625
4.200e-02,0.000609375
4.240e-02,-7.1875e-05
4.280e-02,-0.000240625
4.320e-02,-0.000325
4.360e-02,-0.0002
4.400e-02,-0.00055625
4.440e-02,-0.000196875
4.480e-02,0.00136875
4.520e-02,0.00571563
4.560e-02,0.00979375
4.600e-02,0.0199656
4.640e-02,0.0117125
4.680e-02,-0.000103125
4.720e-02,-1.5625e-05
4.760e-02,-0.000165625
4.800e-02,-2.5e-05
4.840e-02,-0.00015
4.880e-02,-0.0001625
4.920e-02,-0.000253125
4.960e-02,-0.0002
5.000e-02,-0.00021875
5.040e-02,-0.000296875
5.080e-02,-0.0003125
5.120e-02,-0.000146875
5.160e-02,-0.00011875
5.200e-02,-0.000315625
5.240e-02,-0.000165625
5.280e-02,-8.75e-05
5.320e-02,-0.00024375
5.360e-02,0.000134375
5.400e-02,-0.000334375
5.440e-02,-0.00028125
5.480e-02,-0.00028125
5.520e-02,-0.00011875
5.560e-02,-8.4375e-05
5.600e-02,0.000115625
5.640e-02,-0.000153125
5.680e-02,-2.8125e-05
5.720e-02,-0.0001625
5.760e-02,-0.000365625
5.800e-02,-0.00033125
5.840e-02,-0.000271875
5.880e-02,-9.6875e-05
5.920e-02,-5.9375e-05
5.960e-02,-0.0003875
6.000e-02,-0.00026875
6.040e-02,-0.0001125
6.080e-02,-0.00068125
6.120e-02,-5.9375e-05
6.160e-02,-0.000234375
6.200e-02,3.125e-05
6.240e-02,-9.375e-05
6.280e-02,-0.00021875
6.320e-02,-6.5625e-05
6.360e-02,7.5e-05
6.400e-02,0.000853125
6.440e-02,-0.0001125
6.480e-02,-0.000190625
6.520e-02,0.00094375
6.560e-02,0.000746875
6.600e-02,0.000159375
6.640e-02,-0.0001
6.680e-02,0.00011875
6.720e-02,0.000821875
6.760e-02,0.0040625
6.800e-02,0.0094625
6.840e-02,0.0191
6.880e-02,0.0128844
6.920e-02,6.25e-06
6.960e-02,-5e-05
7.000e-02,-0.00046875
7.040e-02,-0.00020625
7.080e-02,-0.0002875
7.120e-02,0.000146875
7.160e-02,-3.75e-05
7.200e-02,-0.000690625
7.240e-02,-4.375e-05
7.280e-02,5.625e-05
7.320e-02,-0.00015625
7.360e-02,-0.00019375
7.400e-02,-0.000228125
7.440e-02,-0.00035
7.480e-02,-0.00018125
7.520e-02,-0.0002125
7.560e-02,-0.00031875
7.600e-02,-0.000278125
7.640e-02,-0.000303125
7.680e-02,-9.6875e-05
7.720e-02,2.1875e-05
7.760e-02,3.125e-06
7.800e-02,-0.000153125
7.840e-02,3.125e-06
7.880e-02,-0.0003125
7.920e-02,-0.000240625
7.960e-02,-0.000215625
8.000e-02,-0.0001125
8.040e-02,-0.000328125
8.080e-02,0.000146875
8.120e-02,-0.0001375
8.160e-02,-0.00021875
8.200e-02,-0.000125
8.240e-02,0.000871875
8.280e-02,-2.5e-05
8.320e-02,3.125e-05
8.360e-02,1.875e-05
8.400e-02,-6.5625e-05
8.440e-02,0.000875
8.480e-02,0.000228125
8.520e-02,0.00028125
8.560e-02,0.0011875
8.600e-02,-6.875e-05
8.640e-02,-0.00038125
8.680e-02,-0.00025625
8.720e-02,4.375e-05
8.760e-02,8.75e-05
8.800e-02,-0.000440625
8.840e-02,3.75e-05
8.880e-02,-0.000296875
8.920e-02,-0.000309375
8.960e-02,0.000959375
9.000e-02,0.00363437
9.040e-02,0.00930312
9.080e-02,0.0120125
9.120e-02,0.0201969
9.160e-02,-0.00025
9.200e-02,-1.5625e-05
9.240e-02,-0.00023125
9.280e-02,-0.000190625
9.320e-02,-0.000534375
9.360e-02,0.0001125
9.400e-02,-0.00025
9.440e-02,-0.00035
9.480e-02,-0.000225
9.520e-02,-0.000325
9.560e-02,-0.00036875
9.600e-02,-0.000253125
9.640e-02,-0.000215625
9.680e-02,-0.00041875
9.720e-02,-0.000134375
9.760e-02,-0.000471875
9.800e-02,-0.000171875
9.840e-02,-6.25e-06
9.880e-02,-2.1875e-05
9.920e-02,-0.00011875
9.960e-02,-0.000103125
1.000e-01,-0.00028125
1.004e-01,-0.00018125
1.008e-01,-0.00028125
1.012e-01,-0.00024375
1.016e-01,-0.00043125
1.020e-01,-0.00026875
1.024e-01,-2.8125e-05
1.028e-01,-0.0002
1.032e-01,-2.5e-05
1.036e-01,0.0012125
1.040e-01,0.00035
1.044e-01,-7.5e-05
1.048e-01,-0.000184375
1.052e-01,0.0003625
1.056e-01,6.25e-05
1.060e-01,0.00131875
1.064e-01,-0.00024375
1.068e-01,0.00107812
1.072e-01,0.0001
1.076e-01,-0.000278125
1.080e-01,-0.0003125
1.084e-01,-0.00020625
1.088e-01,-0.000175
1.092e-01,-0.000265625
1.096e-01,-9.375e-05
1.100e-01,-0.000271875
1.104e-01,-0.00024375
1.108e-01,5.625e-05
1.112e-01,-0.00045625
1.116e-01,-0.000171875
1.120e-01,-0.0002375
1.124e-01,0.00103438
1.128e-01,0.00972813
1.132e-01,0.0108781
1.136e-01,0.0106656
1.140e-01,0.000828125
1.144e-01,-0.000246875
1.148e-01,-5.9375e-05
1.152e-01,-0.00015
1.156e-01,-0.0001875
1.160e-01,-0.000178125
1.164e-01,-0.000125
1.168e-01,-0.000134375
1.172e-01,-0.0004125
1.176e-01,-0.000271875
1.180e-01,-9.375e-06
1.184e-01,-0.000346875
1.188e-01,-0.000359375
1.192e-01,-3.4375e-05
1.196e-01,-9.6875e-05
1.200e-01,-0.000496875
1.204e-01,-6.25e-06
1.208e-01,-0.0002125
1.212e-01,-0.00050625
1.216e-01,-0.000390625
1.220e-01,-0.0001875
1.224e-01,3.125e-06
1.228e-01,0.00013125
1.232e-01,0.00068125
1.236e-01,-2.1875e-05
1.240e-01,4.0625e-05
1.244e-01,0.000659375
1.248e-01,0.0013625
1.252e-01,9.6875e-05
1.256e-01,3.125e-05
1.260e-01,9.0625e-05
1.264e-01,-7.5e-05
1.268e-01,0.000153125
1.272e-01,0.001475
1.276e-01,-0.000275
1.280e-01,-0.000125
1.284e-01,-0.000290625
1.288e-01,-9.6875e-05
1.292e-01,-0.00025625
1.296e-01,-0.000375
1.300e-01,-0.00043125
1.304e-01,-0.00029375
1.308e-01,-1.25e-05
1.312e-01,-0.0003375
1.316e-01,-0.000128125
1.320e-01,-0.000359375
1.324e-01,-0.000578125
1.328e-01,-0.0002125
1.332e-01,-0.000190625
1.336e-01,-8.4375e-05
1.340e-01,-0.0003
1.344e-01,-0.0003
1.348e-01,-0.00031875
1.352e-01,0.0076
1.356e-01,0.00953437
1.360e-01,0.0188656
1.364e-01,0.0116344
1.368e-01,-0.00034375
1.372e-01,-0.000190625
1.376e-01,-0.0003375
1.380e-01,-5.3125e-05
1.384e-01,-0.00010625
1.388e-01,-0.000353125
1.392e-01,-0.000109375
1.396e-01,-7.8125e-05
1.400e-01,-0.000415625
1.404e-01,-5.625e-05
1.408e-01,-0.00024375
1.412e-01,-0.000303125
1.416e-01,0.000103125
1.420e-01,-0.000140625
1.424e-01,0.000815625
1.428e-01,9.0625e-05
1.432e-01,0.00115
1.436e-01,0.0001125
1.440e-01,-8.125e-05
1.444e-01,-7.8125e-05
1.448e-01,0.00011875
1.452e-01,0.00024375
1.456e-01,-8.75e-05
1.460e-01,-7.8125e-05
1.464e-01,-3.75e-05
1.468e-01,-5e-05
1.472e-01,2.1875e-05
1.476e-01,0.00149687
1.480e-01,-0.0002375
1.484e-01,-0.000240625
1.488e-01,-0.000290625
1.492e-01,-8.125e-05
1.496e-01,4.375e-05
1.500e-01,-8.4375e-05
1.504e-01,-0.000415625
1.508e-01,-3.4375e-05
1.512e-01,-6.5625e-05
1.516e-01,-0.00015
1.520e-01,-0.000303125
1.524e-01,-0.000296875
1.528e-01,-0.000328125
1.532e-01,-0.00028125
1.536e-01,8.75e-05
1.540e-01,-0.00034375
1.544e-01,-0.000196875
1.548e-01,-0.000665625
1.552e-01,-0.0001625
1.556e-01,-0.000165625
1.560e-01,-4.375e-05
1.564e-01,-0.0004125
1.568e-01,-9.0625e-05
1.572e-01,-0.000225
1.576e-01,0.00357813
