Exponential decay data/tek0011.csv

Model,DPO4054
Firmware Version,2.68

Waveform Type,ANALOG
Point Format,Y
Horizontal Units,s
Horizontal Scale,1
Horizontal Delay,0
Sample Interval,0.01
Record Length,1000
Gating,0.0% to 100.0%
Probe Attenuation,1
Vertical Units,V
Vertical Offset,0
Vertical Scale,0.5
Vertical Position,-2.38
,
,
,
Label,
TIME,CH1
-5.000e+00,1.23406
-4.990e+00,1.23344
-4.980e+00,1.23367
-4.970e+00,1.23367
-4.960e+00,1.23398
-4.950e+00,1.23391
-4.940e+00,1.23375
-4.930e+00,1.23406
-4.920e+00,1.23375
-4.910e+00,1.23305
-4.900e+00,1.23391
-4.890e+00,1.23336
-4.880e+00,1.23344
-4.870e+00,1.23336
-4.860e+00,1.23336
-4.850e+00,1.23305
-4.840e+00,1.23336
-4.830e+00,1.23367
-4.820e+00,1.23344
-4.810e+00,1.23398
-4.800e+00,1.23398
-4.790e+00,1.23391
-4.780e+00,1.23406
-4.770e+00,1.23391
-4.760e+00,1.23398
-4.750e+00,1.23398
-4.740e+00,1.23359
-4.730e+00,1.23375
-4.720e+00,1.23391
-4.710e+00,1.23359
-4.700e+00,1.23375
-4.690e+00,1.23398
-4.680e+00,1.23391
-4.670e+00,1.23406
-4.660e+00,1.23398
-4.650e+00,1.23359
-4.640e+00,1.23359
-4.630e+00,1.23344
-4.620e+00,1.23344
-4.610e+00,1.23367
-4.600e+00,1.23344
-4.590e+00,1.23391
-4.580e+00,1.23398
-4.570e+00,1.23336
-4.560e+00,1.23398
-4.550e+00,1.23398
-4.540e+00,1.23398
-4.530e+00,1.23367
-4.520e+00,1.23344
-4.510e+00,1.23375
-4.500e+00,1.23359
-4.490e+00,1.23367
-4.480e+00,1.2343
-4.470e+00,1.2343
-4.460e+00,1.23422
-4.450e+00,1.2343
-4.440e+00,1.23375
-4.430e+00,1.23367
-4.420e+00,1.23344
-4.410e+00,1.23359
-4.400e+00,1.23398
-4.390e+00,1.23359
-4.380e+00,1.23375
-4.370e+00,1.23359
-4.360e+00,1.23398
-4.350e+00,1.23398
-4.340e+00,1.23375
-4.330e+00,1.23375
-4.320e+00,1.23375
-4.310e+00,1.23375
-4.300e+00,1.23398
-4.290e+00,1.23344
-4.280e+00,1.23375
-4.270e+00,1.23375
-4.260e+00,1.23359
-4.250e+00,1.23359
-4.240e+00,1.23391
-4.230e+00,1.23367
-4.220e+00,1.23367
-4.210e+00,1.23391
-4.200e+00,1.23375
-4.190e+00,1.23375
-4.180e+00,1.23375
-4.170e+00,1.23367
-4.160e+00,1.23375
-4.150e+00,1.23391
-4.140e+00,1.23336
-4.130e+00,1.23367
-4.120e+00,1.23367
-4.110e+00,1.23344
-4.100e+00,1.23359
-4.090e+00,1.23375
-4.080e+00,1.23336
-4.070e+00,1.23336
-4.060e+00,1.23297
-4.050e+00,1.2332
-4.040e+00,1.2332
-4.030e+00,1.23297
-4.020e+00,1.23273
-4.010e+00,1.23297
-4.000e+00,1.2332
-3.990e+00,1.23406
-3.980e+00,1.23305
-3.970e+00,1.23391
-3.960e+00,1.23359
-3.950e+00,1.23328
-3.940e+00,1.23289
-3.930e+00,1.23305
-3.920e+00,1.23305
-3.910e+00,1.23305
-3.900e+00,1.2332
-3.890e+00,1.23336
-3.880e+00,1.23367
-3.870e+00,1.23344
-3.860e+00,1.23375
-3.850e+00,1.23344
-3.840e+00,1.23359
-3.830e+00,1.23359
-3.820e+00,1.23328
-3.810e+00,1.23336
-3.800e+00,1.23297
-3.790e+00,1.23375
-3.780e+00,1.23367
-3.770e+00,1.23336
-3.760e+00,1.23406
-3.750e+00,1.23422
-3.740e+00,1.23391
-3.730e+00,1.2332
-3.720e+00,1.23391
-3.710e+00,1.23359
-3.700e+00,1.23344
-3.690e+00,1.2332
-3.680e+00,1.23391
-3.670e+00,1.23328
-3.660e+00,1.23328
-3.650e+00,1.23328
-3.640e+00,1.23359
-3.630e+00,1.23328
-3.620e+00,1.23336
-3.610e+00,1.23359
-3.600e+00,1.23367
-3.590e+00,1.23375
-3.580e+00,1.23391
-3.570e+00,1.23422
-3.560e+00,1.23359
-3.550e+00,1.23391
-3.540e+00,1.23367
-3.530e+00,1.2332
-3.520e+00,1.23398
-3.510e+00,1.2332
-3.500e+00,1.23328
-3.490e+00,1.23336
-3.480e+00,1.2332
-3.470e+00,1.23344
-3.460e+00,1.23344
-3.450e+00,1.23336
-3.440e+00,1.23305
-3.430e+00,1.23344
-3.420e+00,1.23328
-3.410e+00,1.23336
-3.400e+00,1.23336
-3.390e+00,1.23359
-3.380e+00,1.23375
-3.370e+00,1.23328
-3.360e+00,1.23344
-3.350e+00,1.23359
-3.340e+00,1.23328
-3.330e+00,1.23344
-3.320e+00,1.23359
-3.310e+00,1.23336
-3.300e+00,1.23328
-3.290e+00,1.23328
-3.280e+00,1.23344
-3.270e+00,1.23359
-3.260e+00,1.23375
-3.250e+00,1.23391
-3.240e+00,1.23375
-3.230e+00,1.23375
-3.220e+00,1.23422
-3.210e+00,1.23391
-3.200e+00,1.23359
-3.190e+00,1.23391
-3.180e+00,1.2343
-3.170e+00,1.23453
-3.160e+00,1.23406
-3.150e+00,1.23422
-3.140e+00,1.23359
-3.130e+00,1.23336
-3.120e+00,1.23359
-3.110e+00,1.23344
-3.100e+00,1.23375
-3.090e+00,1.23375
-3.080e+00,1.23406
-3.070e+00,1.23375
-3.060e+00,1.23375
-3.050e+00,1.23367
-3.040e+00,1.23375
-3.030e+00,1.23422
-3.020e+00,1.23406
-3.010e+00,1.23359
-3.000e+00,1.23375
-2.990e+00,1.23344
-2.980e+00,1.2332
-2.970e+00,1.23375
-2.960e+00,1.23375
-2.950e+00,1.23328
-2.940e+00,1.23398
-2.930e+00,1.23422
-2.920e+00,1.23328
-2.910e+00,1.23344
-2.900e+00,1.23391
-2.890e+00,1.23375
-2.880e+00,1.23305
-2.870e+00,1.2332
-2.860e+00,1.23367
-2.850e+00,1.23336
-2.840e+00,1.23359
-2.830e+00,1.23375
-2.820e+00,1.23344
-2.810e+00,1.23367
-2.800e+00,1.23406
-2.790e+00,1.23359
-2.780e+00,1.2332
-2.770e+00,1.23359
-2.760e+00,1.23375
-2.750e+00,1.23375
-2.740e+00,1.23344
-2.730e+00,1.23391
-2.720e+00,1.23375
-2.710e+00,1.23375
-2.700e+00,1.23359
-2.690e+00,1.23391
-2.680e+00,1.23336
-2.670e+00,1.23367
-2.660e+00,1.23359
-2.650e+00,1.23375
-2.640e+00,1.23367
-2.630e+00,1.2332
-2.620e+00,1.23367
-2.610e+00,1.23336
-2.600e+00,1.23328
-2.590e+00,1.23398
-2.580e+00,1.23375
-2.570e+00,1.23367
-2.560e+00,1.23328
-2.550e+00,1.23375
-2.540e+00,1.23336
-2.530e+00,1.2332
-2.520e+00,1.23359
-2.510e+00,1.23367
-2.500e+00,1.23375
-2.490e+00,1.23375
-2.480e+00,1.23359
-2.470e+00,1.23336
-2.460e+00,1.23328
-2.450e+00,1.23344
-2.440e+00,1.23422
-2.430e+00,1.23336
-2.420e+00,1.23359
-2.410e+00,1.23391
-2.400e+00,1.23344
-2.390e+00,1.23344
-2.380e+00,1.23367
-2.370e+00,1.23367
-2.360e+00,1.23289
-2.350e+00,1.23375
-2.340e+00,1.23375
-2.330e+00,1.23305
-2.320e+00,1.23398
-2.310e+00,1.23398
-2.300e+00,1.23367
-2.290e+00,1.2332
-2.280e+00,1.23344
-2.270e+00,1.23391
-2.260e+00,1.23305
-2.250e+00,1.23336
-2.240e+00,1.23367
-2.230e+00,1.2332
-2.220e+00,1.23305
-2.210e+00,1.23359
-2.200e+00,1.23375
-2.190e+00,1.2332
-2.180e+00,1.2332
-2.170e+00,1.23344
-2.160e+00,1.2332
-2.150e+00,1.23273
-2.140e+00,1.23367
-2.130e+00,1.23297
-2.120e+00,1.23289
-2.110e+00,1.23273
-2.100e+00,1.23359
-2.090e+00,1.23359
-2.080e+00,1.23344
-2.070e+00,1.23359
-2.060e+00,1.23359
-2.050e+00,1.23359
-2.040e+00,1.23367
-2.030e+00,1.23344
-2.020e+00,1.23367
-2.010e+00,1.23367
-2.000e+00,1.23367
-1.990e+00,1.23398
-1.980e+00,1.23375
-1.970e+00,1.23367
-1.960e+00,1.23391
-1.950e+00,1.23375
-1.940e+00,1.2332
-1.930e+00,1.23328
-1.920e+00,1.2332
-1.910e+00,1.23359
-1.900e+00,1.23344
-1.890e+00,1.23359
-1.880e+00,1.23398
-1.870e+00,1.23328
-1.860e+00,1.23359
-1.850e+00,1.23406
-1.840e+00,1.23367
-1.830e+00,1.23375
-1.820e+00,1.23398
-1.810e+00,1.23359
-1.800e+00,1.23375
-1.790e+00,1.23359
-1.780e+00,1.23391
-1.770e+00,1.23359
-1.760e+00,1.23375
-1.750e+00,1.23438
-1.740e+00,1.23406
-1.730e+00,1.23359
-1.720e+00,1.23406
-1.710e+00,1.23375
-1.700e+00,1.23359
-1.690e+00,1.23344
-1.680e+00,1.23398
-1.670e+00,1.23375
-1.660e+00,1.23375
-1.650e+00,1.23406
-1.640e+00,1.23344
-1.630e+00,1.23367
-1.620e+00,1.23422
-1.610e+00,1.23375
-1.600e+00,1.23375
-1.590e+00,1.23391
-1.580e+00,1.23422
-1.570e+00,1.23438
-1.560e+00,1.23398
-1.550e+00,1.23367
-1.540e+00,1.23375
-1.530e+00,1.23344
-1.520e+00,1.23344
-1.510e+00,1.23391
-1.500e+00,1.23367
-1.490e+00,1.23375
-1.480e+00,1.23375
-1.470e+00,1.23398
-1.460e+00,1.23391
-1.450e+00,1.2343
-1.440e+00,1.23359
-1.430e+00,1.23375
-1.420e+00,1.23406
-1.410e+00,1.2343
-1.400e+00,1.23398
-1.390e+00,1.23422
-1.380e+00,1.23422
-1.370e+00,1.23438
-1.360e+00,1.23422
-1.350e+00,1.23375
-1.340e+00,1.23398
-1.330e+00,1.23359
-1.320e+00,1.23359
-1.310e+00,1.23453
-1.300e+00,1.23391
-1.290e+00,1.23375
-1.280e+00,1.23391
-1.270e+00,1.23375
-1.260e+00,1.23398
-1.250e+00,1.23406
-1.240e+00,1.23391
-1.230e+00,1.23398
-1.220e+00,1.23422
-1.210e+00,1.2343
-1.200e+00,1.23406
-1.190e+00,1.23398
-1.180e+00,1.23391
-1.170e+00,1.23391
-1.160e+00,1.23398
-1.150e+00,1.23398
-1.140e+00,1.2343
-1.130e+00,1.23406
-1.120e+00,1.23375
-1.110e+00,1.2343
-1.100e+00,1.23367
-1.090e+00,1.23406
-1.080e+00,1.2343
-1.070e+00,1.2343
-1.060e+00,1.23406
-1.050e+00,1.23453
-1.040e+00,1.23438
-1.030e+00,1.23422
-1.020e+00,1.23422
-1.010e+00,1.2343
-1.000e+00,1.23422
-9.900e-01,1.2343
-9.800e-01,1.23375
-9.700e-01,1.23406
-9.600e-01,1.23398
-9.500e-01,1.23367
-9.400e-01,1.23391
-9.300e-01,1.23398
-9.200e-01,1.23422
-9.100e-01,1.23367
-9.000e-01,1.23398
-8.900e-01,1.23391
-8.800e-01,1.23367
-8.700e-01,1.23359
-8.600e-01,1.23422
-8.500e-01,1.23375
-8.400e-01,1.23406
-8.300e-01,1.23398
-8.200e-01,1.23398
-8.100e-01,1.23398
-8.000e-01,1.23375
-7.900e-01,1.23438
-7.800e-01,1.23453
-7.700e-01,1.23336
-7.600e-01,1.23422
-7.500e-01,1.23391
-7.400e-01,1.23375
-7.300e-01,1.23398
-7.200e-01,1.23375
-7.100e-01,1.23422
-7.000e-01,1.23406
-6.900e-01,1.23398
-6.800e-01,1.23391
-6.700e-01,1.23422
-6.600e-01,1.23406
-6.500e-01,1.23406
-6.400e-01,1.23453
-6.300e-01,1.23422
-6.200e-01,1.23367
-6.100e-01,1.23406
-6.000e-01,1.23438
-5.900e-01,1.23398
-5.800e-01,1.23391
-5.700e-01,1.23375
-5.600e-01,1.23391
-5.500e-01,1.23344
-5.400e-01,1.23375
-5.300e-01,1.23391
-5.200e-01,1.23375
-5.100e-01,1.23406
-5.000e-01,1.23375
-4.900e-01,1.23391
-4.800e-01,1.23422
-4.700e-01,1.23375
-4.600e-01,1.23406
-4.500e-01,1.23391
-4.400e-01,1.23391
-4.300e-01,1.23438
-4.200e-01,1.23438
-4.100e-01,1.23453
-4.000e-01,1.23438
-3.900e-01,1.2343
-3.800e-01,1.2343
-3.700e-01,1.23398
-3.600e-01,1.2343
-3.500e-01,1.23438
-3.400e-01,1.23398
-3.300e-01,1.23391
-3.200e-01,1.23375
-3.100e-01,1.23391
-3.000e-01,1.23391
-2.900e-01,1.23398
-2.800e-01,1.23398
-2.700e-01,1.23391
-2.600e-01,1.23398
-2.500e-01,1.23406
-2.400e-01,1.2343
-2.300e-01,1.23484
-2.200e-01,1.2343
-2.100e-01,1.23453
-2.000e-01,1.23438
-1.900e-01,1.23438
-1.800e-01,1.23469
-1.700e-01,1.23406
-1.600e-01,1.2343
-1.500e-01,1.23406
-1.400e-01,1.2343
-1.300e-01,1.23406
-1.200e-01,1.23422
-1.100e-01,1.23391
-1.000e-01,1.23398
-9.000e-02,1.23375
-8.000e-02,1.23406
-7.000e-02,1.23422
-6.000e-02,1.23438
-5.000e-02,1.23406
-4.000e-02,1.23406
-3.000e-02,1.23398
-2.000e-02,1.23406
-1.000e-02,1.23406
-6.200e-14,1.23391
1.000e-02,1.23375
2.000e-02,1.23398
3.000e-02,1.23398
4.000e-02,1.23422
5.000e-02,1.23359
6.000e-02,1.23391
7.000e-02,1.23391
8.000e-02,1.23375
9.000e-02,1.23422
1.000e-01,1.23453
1.100e-01,1.23391
1.200e-01,1.23391
1.300e-01,1.23359
1.400e-01,1.23422
1.500e-01,1.23375
1.600e-01,1.23391
1.700e-01,1.23398
1.800e-01,1.23406
1.900e-01,1.23391
2.000e-01,1.23398
2.100e-01,1.23391
2.200e-01,1.23375
2.300e-01,1.23367
2.400e-01,1.23422
2.500e-01,1.23406
2.600e-01,1.23367
2.700e-01,1.23359
2.800e-01,1.23438
2.900e-01,1.2343
3.000e-01,1.23453
3.100e-01,1.23438
3.200e-01,1.23398
3.300e-01,1.23375
3.400e-01,1.23406
3.500e-01,1.23406
3.600e-01,1.23422
3.700e-01,1.23422
3.800e-01,1.23461
3.900e-01,1.23422
4.000e-01,1.2343
4.100e-01,1.23438
4.200e-01,1.23406
4.300e-01,1.2343
4.400e-01,1.23398
4.500e-01,1.2343
4.600e-01,1.23453
4.700e-01,1.23398
4.800e-01,1.23422
4.900e-01,1.23406
5.000e-01,1.23406
5.100e-01,1.2343
5.200e-01,1.23438
5.300e-01,1.23453
5.400e-01,1.23406
5.500e-01,1.23422
5.600e-01,1.23438
5.700e-01,1.23453
5.800e-01,1.23367
5.900e-01,1.2343
6.000e-01,1.2343
6.100e-01,1.23438
6.200e-01,1.23453
6.300e-01,1.23406
6.400e-01,1.23422
6.500e-01,1.23422
6.600e-01,1.23398
6.700e-01,1.23461
6.800e-01,1.23359
6.900e-01,1.23422
7.000e-01,1.23422
7.100e-01,1.23398
7.200e-01,1.23422
7.300e-01,1.23438
7.400e-01,1.23422
7.500e-01,1.23328
7.600e-01,1.23375
7.700e-01,1.23406
7.800e-01,1.23391
7.900e-01,1.23398
8.000e-01,1.23398
8.100e-01,1.23422
8.200e-01,1.23406
8.300e-01,1.23398
8.400e-01,1.23438
8.500e-01,1.2343
8.600e-01,1.23406
8.700e-01,1.23516
8.800e-01,1.23484
8.900e-01,1.23484
9.000e-01,1.23461
9.100e-01,1.23516
9.200e-01,1.23453
9.300e-01,1.23422
9.400e-01,1.23484
9.500e-01,1.23484
9.600e-01,1.23492
9.700e-01,1.235
9.800e-01,1.23492
9.900e-01,1.23438
1.000e-00,1.23461
1.010e+00,1.23516
1.020e+00,1.23461
1.030e+00,1.23438
1.040e+00,1.23484
1.050e+00,1.23469
1.060e+00,1.23438
1.070e+00,1.23461
1.080e+00,1.2343
1.090e+00,1.2343
1.100e+00,1.23469
1.110e+00,1.23453
1.120e+00,1.23453
1.130e+00,1.23453
1.140e+00,1.23469
1.150e+00,1.23484
1.160e+00,1.23422
1.170e+00,1.23453
1.180e+00,1.23484
1.190e+00,1.2343
1.200e+00,1.23469
1.210e+00,1.23492
1.220e+00,1.23422
1.230e+00,1.23469
1.240e+00,1.2343
1.250e+00,1.23484
1.260e+00,1.23438
1.270e+00,1.23438
1.280e+00,1.23406
1.290e+00,1.23391
1.300e+00,1.23406
1.310e+00,1.23422
1.320e+00,1.23406
1.330e+00,1.23391
1.340e+00,1.23422
1.350e+00,1.23391
1.360e+00,1.23359
1.370e+00,1.23438
1.380e+00,1.23406
1.390e+00,1.23375
1.400e+00,1.23359
1.410e+00,1.23422
1.420e+00,1.23453
1.430e+00,1.2343
1.440e+00,1.23422
1.450e+00,1.23438
1.460e+00,1.23461
1.470e+00,1.2343
1.480e+00,1.2343
1.490e+00,1.23438
1.500e+00,1.23453
1.510e+00,1.23375
1.520e+00,1.23406
1.530e+00,1.23391
1.540e+00,1.23461
1.550e+00,1.23422
1.560e+00,1.23391
1.570e+00,1.23406
1.580e+00,1.23453
1.590e+00,1.23453
1.600e+00,1.23453
1.610e+00,1.2343
1.620e+00,1.23375
1.630e+00,1.23453
1.640e+00,1.2343
1.650e+00,1.23453
1.660e+00,1.23398
1.670e+00,1.2343
1.680e+00,1.23422
1.690e+00,1.23422
1.700e+00,1.23398
1.710e+00,1.23406
1.720e+00,1.23406
1.730e+00,1.23438
1.740e+00,1.23422
1.750e+00,1.23422
1.760e+00,1.23438
1.770e+00,1.23453
1.780e+00,1.23398
1.790e+00,1.23438
1.800e+00,1.23391
1.810e+00,1.23461
1.820e+00,1.23453
1.830e+00,1.23469
1.840e+00,1.23398
1.850e+00,1.2343
1.860e+00,1.23438
1.870e+00,1.23422
1.880e+00,1.23461
1.890e+00,1.2343
1.900e+00,1.23422
1.910e+00,1.2343
1.920e+00,1.23422
1.930e+00,1.23453
1.940e+00,1.23422
1.950e+00,1.23375
1.960e+00,1.23469
1.970e+00,1.2343
1.980e+00,1.23453
1.990e+00,1.23422
2.000e+00,1.23344
2.010e+00,1.23406
2.020e+00,1.23406
2.030e+00,1.23438
2.040e+00,1.23398
2.050e+00,1.23344
2.060e+00,1.23422
2.070e+00,1.23453
2.080e+00,1.23406
2.090e+00,1.23398
2.100e+00,1.2343
2.110e+00,1.23406
2.120e+00,1.23391
2.130e+00,1.23406
2.140e+00,1.23422
2.150e+00,1.23422
2.160e+00,1.23367
2.170e+00,1.23359
2.180e+00,1.23398
2.190e+00,1.23391
2.200e+00,1.23406
2.210e+00,1.23422
2.220e+00,1.23391
2.230e+00,1.23398
2.240e+00,1.23375
2.250e+00,1.23406
2.260e+00,1.23367
2.270e+00,1.23391
2.280e+00,1.23375
2.290e+00,1.23344
2.300e+00,1.23367
2.310e+00,1.23305
2.320e+00,1.23336
2.330e+00,1.23344
2.340e+00,1.2332
2.350e+00,1.23344
2.360e+00,1.23344
2.370e+00,1.23344
2.380e+00,1.23344
2.390e+00,1.23375
2.400e+00,1.23406
2.410e+00,1.23359
2.420e+00,1.23344
2.430e+00,1.23406
2.440e+00,1.23398
2.450e+00,1.23359
2.460e+00,1.23367
2.470e+00,1.23344
2.480e+00,1.23359
2.490e+00,1.23344
2.500e+00,1.23375
2.510e+00,1.23398
2.520e+00,1.23367
2.530e+00,1.23375
2.540e+00,1.23367
2.550e+00,1.23406
2.560e+00,1.23375
2.570e+00,1.23367
2.580e+00,1.23391
2.590e+00,1.23391
2.600e+00,1.23375
2.610e+00,1.23391
2.620e+00,1.23406
2.630e+00,1.23359
2.640e+00,1.23359
2.650e+00,1.23391
2.660e+00,1.23391
2.670e+00,1.23398
2.680e+00,1.23359
2.690e+00,1.23406
2.700e+00,1.23398
2.710e+00,1.23367
2.720e+00,1.23375
2.730e+00,1.23359
2.740e+00,1.23398
2.750e+00,1.23391
2.760e+00,1.23398
2.770e+00,1.23398
2.780e+00,1.23367
2.790e+00,1.23359
2.800e+00,1.23406
2.810e+00,1.2343
2.820e+00,1.23336
2.830e+00,1.23344
2.840e+00,1.23367
2.850e+00,1.23344
2.860e+00,1.23344
2.870e+00,1.23359
2.880e+00,1.23359
2.890e+00,1.23375
2.900e+00,1.23375
2.910e+00,1.23367
2.920e+00,1.23359
2.930e+00,1.23391
2.940e+00,1.2332
2.950e+00,1.23398
2.960e+00,1.23391
2.970e+00,1.23359
2.980e+00,1.23398
2.990e+00,1.23367
3.000e+00,1.23359
3.010e+00,1.23336
3.020e+00,1.2332
3.030e+00,1.23336
3.040e+00,1.23328
3.050e+00,1.23289
3.060e+00,1.23266
3.070e+00,1.23273
3.080e+00,1.23289
3.090e+00,1.23359
3.100e+00,1.2332
3.110e+00,1.23297
3.120e+00,1.2332
3.130e+00,1.2332
3.140e+00,1.2332
3.150e+00,1.23336
3.160e+00,1.23344
3.170e+00,1.23344
3.180e+00,1.23336
3.190e+00,1.23328
3.200e+00,1.2332
3.210e+00,1.23336
3.220e+00,1.2332
3.230e+00,1.23359
3.240e+00,1.2332
3.250e+00,1.2332
3.260e+00,1.23336
3.270e+00,1.23328
3.280e+00,1.2332
3.290e+00,1.23359
3.300e+00,1.23391
3.310e+00,1.23344
3.320e+00,1.23367
3.330e+00,1.23297
3.340e+00,1.23344
3.350e+00,1.23375
3.360e+00,1.23367
3.370e+00,1.23328
3.380e+00,1.23359
3.390e+00,1.23297
3.400e+00,1.23328
3.410e+00,1.23336
3.420e+00,1.23328
3.430e+00,1.23391
3.440e+00,1.23367
3.450e+00,1.23367
3.460e+00,1.23344
3.470e+00,1.2332
3.480e+00,1.23297
3.490e+00,1.23367
3.500e+00,1.23336
3.510e+00,1.23336
3.520e+00,1.23336
3.530e+00,1.23367
3.540e+00,1.23359
3.550e+00,1.23305
3.560e+00,1.23336
3.570e+00,1.23367
3.580e+00,1.23359
3.590e+00,1.23367
3.600e+00,1.23398
3.610e+00,1.23336
3.620e+00,1.23328
3.630e+00,1.23328
3.640e+00,1.23305
3.650e+00,1.23336
3.660e+00,1.23344
3.670e+00,1.23359
3.680e+00,1.2332
3.690e+00,1.23344
3.700e+00,1.23375
3.710e+00,1.2332
3.720e+00,1.23297
3.730e+00,1.23328
3.740e+00,1.23336
3.750e+00,1.23336
3.760e+00,1.23367
3.770e+00,1.23359
3.780e+00,1.23344
3.790e+00,1.23367
3.800e+00,1.23359
3.810e+00,1.23367
3.820e+00,1.23336
3.830e+00,1.23367
3.840e+00,1.23359
3.850e+00,1.23391
3.860e+00,1.23344
3.870e+00,1.23344
3.880e+00,1.23359
3.890e+00,1.23344
3.900e+00,1.23359
3.910e+00,1.23344
3.920e+00,1.23367
3.930e+00,1.23375
3.940e+00,1.23359
3.950e+00,1.23344
3.960e+00,1.23344
3.970e+00,1.2332
3.980e+00,1.23359
3.990e+00,1.23391
4.000e+00,1.23375
4.010e+00,1.23391
4.020e+00,1.23328
4.030e+00,1.23367
4.040e+00,1.23336
4.050e+00,1.2332
4.060e+00,1.23367
4.070e+00,1.23359
4.080e+00,1.2332
4.090e+00,1.23328
4.100e+00,1.23336
4.110e+00,1.23344
4.120e+00,1.23344
4.130e+00,1.23359
4.140e+00,1.23336
4.150e+00,1.23344
4.160e+00,1.23344
4.170e+00,1.23336
4.180e+00,1.23367
4.190e+00,1.23344
4.200e+00,1.23328
4.210e+00,1.23367
4.220e+00,1.23359
4.230e+00,1.23344
4.240e+00,1.2332
4.250e+00,1.23359
4.260e+00,1.23367
4.270e+00,1.23344
4.280e+00,1.23289
4.290e+00,1.23305
4.300e+00,1.23273
4.310e+00,1.23305
4.320e+00,1.23344
4.330e+00,1.2332
4.340e+00,1.23336
4.350e+00,1.23359
4.360e+00,1.23367
4.370e+00,1.23375
4.380e+00,1.23367
4.390e+00,1.23375
4.400e+00,1.23359
4.410e+00,1.23367
4.420e+00,1.2332
4.430e+00,1.23359
4.440e+00,1.23344
4.450e+00,1.23297
4.460e+00,1.23391
4.470e+00,1.23367
4.480e+00,1.23328
4.490e+00,1.23305
4.500e+00,1.23305
4.510e+00,1.23328
4.520e+00,1.2332
4.530e+00,1.23328
4.540e+00,1.23344
4.550e+00,1.23344
4.560e+00,1.23336
4.570e+00,1.23367
4.580e+00,1.23359
4.590e+00,1.23328
4.600e+00,1.23336
4.610e+00,1.23328
4.620e+00,1.23367
4.630e+00,1.23305
4.640e+00,1.2332
4.650e+00,1.23328
4.660e+00,1.23344
4.670e+00,1.23398
4.680e+00,1.23375
4.690e+00,1.2332
4.700e+00,1.2332
4.710e+00,1.2332
4.720e+00,1.23367
4.730e+00,1.23344
4.740e+00,1.23328
4.750e+00,1.23367
4.760e+00,1.23336
4.770e+00,1.23258
4.780e+00,1.23328
4.790e+00,1.23344
4.800e+00,1.23336
4.810e+00,1.2332
4.820e+00,1.2332
4.830e+00,1.2332
4.840e+00,1.23344
4.850e+00,1.2332
4.860e+00,1.23344
4.870e+00,1.23336
4.880e+00,1.23305
4.890e+00,1.23336
4.900e+00,1.23359
4.910e+00,1.2332
4.920e+00,1.23359
4.930e+00,1.23336
4.940e+00,1.23266
4.950e+00,1.23289
4.960e+00,1.2332
4.970e+00,1.23328
4.980e+00,1.23289
4.990e+00,1.23297

