Exponential decay data/tek0062.csv

Model,DPO4054
Firmware Version,2.68

Waveform Type,ANALOG,,,,Waveform Type,ANALOG
Point Format,Y,,,,Point Format,Y
Horizontal Units,s,,,,Horizontal Units,s
Horizontal Scale,0.0002,,,,Horizontal Scale,0.0002
Horizontal Delay,0.0002,,,,Horizontal Delay,0.0002
Sample Interval,2e-06,,,,Sample Interval,2e-06
Record Length,1000,,,,Record Length,1000
Gating,0.0% to 100.0%,,,,Gating,0.0% to 100.0%
Probe Attenuation,1,,,,Probe Attenuation,1
Vertical Units,V,,,,Vertical Units,V/s
Vertical Offset,0,,,,Vertical Offset,0
Vertical Scale,0.01,,,,Vertical Scale,100
Vertical Position,0,,,,Vertical Position,0
,,,,,,
,,,,,,
,,,,,,
Label,,,,,Label,
TIME,CH2,CH3,CH4,,TIME,"MATH<DIFF(CH3)-DIFF(CH2)>"
-8.000e-04,0.0101719,0.013125,-0.00025625,,-8.000e-04,-8.57812
-7.980e-04,0.0101188,0.0130656,-0.000267188,,-7.980e-04,-3.125
-7.960e-04,0.0100516,0.0130109,-0.000271875,,-7.960e-04,6.25
-7.940e-04,0.00996563,0.0131594,-0.000260937,,-7.940e-04,117.188
-7.920e-04,0.00990781,0.0131547,-0.00025625,,-7.920e-04,26.5469
-7.900e-04,0.00986719,0.0131656,-0.000267188,,-7.900e-04,25.7812
-7.880e-04,0.00980156,0.0129563,-0.000259375,,-7.880e-04,-71.875
-7.860e-04,0.0097125,0.0129313,-0.000289063,,-7.860e-04,32.0312
-7.840e-04,0.00968594,0.0129234,-0.000309375,,-7.840e-04,9.35938
-7.820e-04,0.00961875,0.0130313,-0.000295313,,-7.820e-04,87.4844
-7.800e-04,0.00956406,0.0130031,-0.000289063,,-7.800e-04,13.2812
-7.780e-04,0.00949375,0.0129641,-0.000267188,,-7.780e-04,15.6094
-7.760e-04,0.00944531,0.0128984,-0.000275,,-7.760e-04,-8.57812
-7.740e-04,0.00938125,0.0128828,-0.000292188,,-7.740e-04,24.2031
-7.720e-04,0.00932344,0.0127109,-0.000295313,,-7.720e-04,-57.0156
-7.700e-04,0.0092625,0.0125969,-0.000309375,,-7.700e-04,-26.5625
-7.680e-04,0.00921719,0.0124953,-0.000295313,,-7.680e-04,-28.125
-7.660e-04,0.00916875,0.0124344,-0.000276563,,-7.660e-04,-6.25
-7.640e-04,0.00911563,0.0123406,-0.000279687,,-7.640e-04,-20.2969
-7.620e-04,0.00907188,0.0124313,-0.000264063,,-7.620e-04,67.1875
-7.600e-04,0.00902656,0.0123547,-0.000292188,,-7.600e-04,-15.625
-7.580e-04,0.00898125,0.0121984,-0.0002875,,-7.580e-04,-55.4688
-7.560e-04,0.0089375,0.0120781,-0.000279687,,-7.560e-04,-38.2812
-7.540e-04,0.00885312,0.0118828,-0.000296875,,-7.540e-04,-55.4688
-7.520e-04,0.00882031,0.0118016,-0.000309375,,-7.520e-04,-24.2031
-7.500e-04,0.00877813,0.0119484,-0.000284375,,-7.500e-04,94.5312
-7.480e-04,0.0087375,0.0119469,-0.000309375,,-7.480e-04,19.5156
-7.460e-04,0.00867344,0.0119,-0.000301563,,-7.460e-04,8.57812
-7.440e-04,0.00864063,0.0119031,-0.00028125,,-7.440e-04,17.9688
-7.420e-04,0.00859688,0.0118781,-0.000296875,,-7.420e-04,9.35938
-7.400e-04,0.00854688,0.0117734,-0.000304687,,-7.400e-04,-27.3281
-7.380e-04,0.00851094,0.0117375,-0.000279687,,-7.380e-04,0
-7.360e-04,0.00845,0.0116797,-0.00028125,,-7.360e-04,1.54688
-7.340e-04,0.00842031,0.0117156,-0.000279687,,-7.340e-04,32.7969
-7.320e-04,0.00836094,0.0116188,-0.0002875,,-7.320e-04,-18.7344
-7.300e-04,0.00831094,0.0116391,-0.0003,,-7.300e-04,35.1406
-7.280e-04,0.00827187,0.0116109,-0.000275,,-7.280e-04,5.46875
-7.260e-04,0.00822969,0.0114531,-0.000275,,-7.260e-04,-57.8125
-7.240e-04,0.00816094,0.0113547,-0.000292188,,-7.240e-04,-14.8438
-7.220e-04,0.00812188,0.0113266,-0.000289063,,-7.220e-04,5.46875
-7.200e-04,0.0081,0.0112172,-0.000320313,,-7.200e-04,-43.7344
-7.180e-04,0.00805625,0.0110625,-0.000304687,,-7.180e-04,-55.4688
-7.160e-04,0.00803906,0.011075,-0.000328125,,-7.160e-04,14.8438
-7.140e-04,0.007975,0.0110047,-0.000289063,,-7.140e-04,-3.10938
-7.120e-04,0.00794531,0.0110672,-0.000267188,,-7.120e-04,46.0781
-7.100e-04,0.00789688,0.0110266,-0.000275,,-7.100e-04,3.90625
-7.080e-04,0.00785781,0.0108266,-0.000295313,,-7.080e-04,-80.4688
-7.060e-04,0.0078125,0.0108641,-0.000292188,,-7.060e-04,41.3906
-7.040e-04,0.007775,0.0108922,-0.0003125,,-7.040e-04,32.8125
-7.020e-04,0.00773906,0.0108797,-0.000289063,,-7.020e-04,11.7031
-7.000e-04,0.00771406,0.0109281,-0.000260937,,-7.000e-04,36.7188
-6.980e-04,0.00766094,0.0109859,-0.000246875,,-6.980e-04,55.4688
-6.960e-04,0.00762031,0.0111078,-0.000254688,,-6.960e-04,81.25
-6.940e-04,0.00758437,0.0110453,-0.000246875,,-6.940e-04,-13.2812
-6.920e-04,0.00751563,0.0109078,-0.000267188,,-6.920e-04,-34.3594
-6.900e-04,0.00747813,0.0108594,-0.000301563,,-6.900e-04,-5.45312
-6.880e-04,0.00745938,0.0107734,-0.000315625,,-6.880e-04,-33.5938
-6.860e-04,0.007425,0.0105625,-0.0003,,-6.860e-04,-88.2812
-6.840e-04,0.00738906,0.0105578,-0.000296875,,-6.840e-04,15.625
-6.820e-04,0.00736406,0.0105266,-0.000292188,,-6.820e-04,-3.125
-6.800e-04,0.00732813,0.0105984,-0.000284375,,-6.800e-04,53.9062
-6.780e-04,0.0072625,0.0103297,-0.0003,,-6.780e-04,-101.562
-6.760e-04,0.00725469,0.0102422,-0.0003,,-6.760e-04,-39.8281
-6.740e-04,0.00722813,0.0100703,-0.0002875,,-6.740e-04,-72.6406
-6.720e-04,0.00719531,0.0101266,-0.000279687,,-6.720e-04,44.5156
-6.700e-04,0.0071625,0.00991563,-0.000271875,,-6.700e-04,-89.0469
-6.680e-04,0.00712188,0.00999688,-0.0002875,,-6.680e-04,60.9375
-6.660e-04,0.00708438,0.0100313,-0.000284375,,-6.660e-04,35.9219
-6.640e-04,0.00705938,0.0100922,-0.000279687,,-6.640e-04,42.9688
-6.620e-04,0.00703594,0.010025,-0.000264063,,-6.620e-04,-21.875
-6.600e-04,0.00701094,0.00997344,-0.000264063,,-6.600e-04,-13.2656
-6.580e-04,0.00694219,0.00993281,-0.000275,,-6.580e-04,14.0625
-6.560e-04,0.00692656,0.00990313,-0.000276563,,-6.560e-04,-7.01562
-6.540e-04,0.00690313,0.0099,-0.000296875,,-6.540e-04,10.1406
-6.520e-04,0.00687656,0.00977813,-0.000309375,,-6.520e-04,-47.6406
-6.500e-04,0.0068375,0.00992969,-0.000284375,,-6.500e-04,95.3125
-6.480e-04,0.00680938,0.00983125,-0.000275,,-6.480e-04,-35.1562
-6.460e-04,0.00677188,0.00982656,-0.00028125,,-6.460e-04,16.3906
-6.440e-04,0.00674688,0.00967969,-0.000292188,,-6.440e-04,-60.9219
-6.420e-04,0.00671563,0.00949375,-0.0002875,,-6.420e-04,-77.3438
-6.400e-04,0.00669063,0.00948125,-0.000275,,-6.400e-04,6.25
-6.380e-04,0.00665313,0.00944531,-0.000271875,,-6.380e-04,0.78125
-6.360e-04,0.0066375,0.00939688,-0.0002875,,-6.360e-04,-16.4062
-6.340e-04,0.00659844,0.00947344,-0.00028125,,-6.340e-04,57.8125
-6.320e-04,0.00657813,0.0094,-0.000260937,,-6.320e-04,-26.5625
-6.300e-04,0.00655781,0.00919844,-0.00025625,,-6.300e-04,-90.6094
-6.280e-04,0.00652344,0.00913281,-0.000276563,,-6.280e-04,-15.625
-6.260e-04,0.00649531,0.00915312,-0.000289063,,-6.260e-04,24.2031
-6.240e-04,0.00646719,0.00915781,-0.000309375,,-6.240e-04,16.3906
-6.220e-04,0.00645156,0.00910469,-0.000301563,,-6.220e-04,-18.7344
-6.200e-04,0.00643125,0.00925781,-0.00028125,,-6.200e-04,86.7031
-6.180e-04,0.00640156,0.00929531,-0.000289063,,-6.180e-04,33.5781
-6.160e-04,0.00638125,0.00934688,-0.000275,,-6.160e-04,35.9375
-6.140e-04,0.00634844,0.00945312,-0.000296875,,-6.140e-04,69.5156
-6.120e-04,0.00631719,0.00909219,-0.000276563,,-6.120e-04,-164.828
-6.100e-04,0.00628125,0.00909531,-0.000289063,,-6.100e-04,19.5312
-6.080e-04,0.00626875,0.00916094,-0.000271875,,-6.080e-04,39.0625
-6.060e-04,0.00622344,0.00909531,-0.000276563,,-6.060e-04,-10.1406
-6.040e-04,0.00621875,0.00898906,-0.000264063,,-6.040e-04,-50.7812
-6.020e-04,0.0061875,0.00903594,-0.000275,,-6.020e-04,39.0625
-6.000e-04,0.0061625,0.00900938,-0.000276563,,-6.000e-04,-0.765625
-5.980e-04,0.00615,0.00892813,-0.00025625,,-5.980e-04,-34.375
-5.960e-04,0.00610156,0.00883281,-0.000264063,,-5.960e-04,-23.4375
-5.940e-04,0.00609844,0.00869844,-0.000267188,,-5.940e-04,-65.6094
-5.920e-04,0.00607656,0.00867344,-0.000276563,,-5.920e-04,-1.5625
-5.900e-04,0.00604844,0.00856406,-0.0003,,-5.900e-04,-40.6094
-5.880e-04,0.00602969,0.00860781,-0.000307813,,-5.880e-04,31.25
-5.860e-04,0.00602031,0.00858281,-0.000317188,,-5.860e-04,-7.8125
-5.840e-04,0.00598281,0.00855156,-0.000309375,,-5.840e-04,3.125
-5.820e-04,0.00594219,0.00849531,-0.000301563,,-5.820e-04,-7.79688
-5.800e-04,0.00594375,0.00852187,-0.000284375,,-5.800e-04,12.4844
-5.780e-04,0.00592344,0.00824688,-0.000275,,-5.780e-04,-127.328
-5.760e-04,0.00589063,0.00840156,-0.00028125,,-5.760e-04,93.75
-5.740e-04,0.00587813,0.00822656,-0.000307813,,-5.740e-04,-81.25
-5.720e-04,0.00585781,0.00838594,-0.000301563,,-5.720e-04,89.8438
-5.700e-04,0.00580625,0.00839375,-0.000296875,,-5.700e-04,29.6719
-5.680e-04,0.0058,0.00849062,-0.000267188,,-5.680e-04,51.5625
-5.660e-04,0.00577344,0.00837188,-0.000239063,,-5.660e-04,-46.0938
-5.640e-04,0.00574531,0.00834063,-0.000234375,,-5.640e-04,-1.54688
-5.620e-04,0.00571875,0.00818594,-0.00025625,,-5.620e-04,-64.0625
-5.600e-04,0.00566719,0.00793281,-0.000295313,,-5.600e-04,-100.766
-5.580e-04,0.00565938,0.00788594,-0.000320313,,-5.580e-04,-19.5312
-5.560e-04,0.00564375,0.00793906,-0.000307813,,-5.560e-04,34.375
-5.540e-04,0.0056375,0.007825,-0.000295313,,-5.540e-04,-53.9062
-5.520e-04,0.00559688,0.00787344,-0.000289063,,-5.520e-04,44.5156
-5.500e-04,0.00556875,0.00787656,-0.0003,,-5.500e-04,15.625
-5.480e-04,0.00556875,0.00775,-0.0002875,,-5.480e-04,-63.2656
-5.460e-04,0.0055375,0.00763281,-0.0003,,-5.460e-04,-42.9688
-5.440e-04,0.00551563,0.00743906,-0.0003125,,-5.440e-04,-85.9375
-5.420e-04,0.00549531,0.00745469,-0.000301563,,-5.420e-04,17.9688
-5.400e-04,0.0055,0.00749531,-0.0002875,,-5.400e-04,17.9531
-5.380e-04,0.005475,0.00744688,-0.000276563,,-5.380e-04,-11.7031
-5.360e-04,0.00545156,0.00752813,-0.000275,,-5.360e-04,52.3281
-5.340e-04,0.00541563,0.00745938,-0.00026875,,-5.340e-04,-16.3906
-5.320e-04,0.00541406,0.00740469,-0.000275,,-5.320e-04,-26.5625
-5.300e-04,0.00535469,0.00733281,-0.000301563,,-5.300e-04,-6.25
-5.280e-04,0.00534531,0.00727656,-0.000315625,,-5.280e-04,-23.4219
-5.260e-04,0.00533438,0.00724219,-0.000279687,,-5.260e-04,-11.7188
-5.240e-04,0.00530937,0.00735625,-0.000276563,,-5.240e-04,69.5156
-5.220e-04,0.00528594,0.00739063,-0.000271875,,-5.220e-04,28.9062
-5.200e-04,0.00527656,0.00729219,-0.0003,,-5.200e-04,-44.5312
-5.180e-04,0.00522813,0.00727656,-0.0003,,-5.180e-04,16.4062
-5.160e-04,0.00520781,0.00710938,-0.000307813,,-5.160e-04,-73.4219
-5.140e-04,0.00519219,0.00710625,-0.000279687,,-5.140e-04,6.23438
-5.120e-04,0.00517656,0.00700781,-0.000284375,,-5.120e-04,-41.4062
-5.100e-04,0.0051625,0.0069375,-0.000271875,,-5.100e-04,-28.1094
-5.080e-04,0.00515,0.00693438,-0.000304687,,-5.080e-04,4.67188
-5.060e-04,0.00511563,0.00692188,-0.000292188,,-5.060e-04,10.9375
-5.040e-04,0.00508594,0.0069875,-0.000304687,,-5.040e-04,47.6406
-5.020e-04,0.00508594,0.00678438,-0.000276563,,-5.020e-04,-101.547
-5.000e-04,0.00656094,0.00710938,-0.000279687,,-5.000e-04, -inf
-4.980e-04,0.00697031,0.00694219,-0.00025625,,-4.980e-04,-288.266
-4.960e-04,0.007275,0.00692656,-0.0002875,,-4.960e-04,-160.156
-4.940e-04,0.00758906,0.0070125,-0.000317188,,-4.940e-04,-114.047
-4.920e-04,0.00788906,0.0069875,-0.000289063,,-4.920e-04,-162.5
-4.900e-04,0.0081625,0.00719844,-0.000295313,,-4.900e-04,-31.2344
-4.880e-04,0.00843281,0.00719531,-0.000259375,,-4.880e-04,-136.703
-4.860e-04,0.008725,0.00715313,-0.000276563,,-4.860e-04,-167.188
-4.840e-04,0.00897812,0.00716094,-0.00026875,,-4.840e-04,-122.656
-4.820e-04,0.00921719,0.00707188,-0.000259375,,-4.820e-04,-164.047
-4.800e-04,0.00945,0.00705625,-0.000275,,-4.800e-04,-124.203
-4.780e-04,0.00971406,0.00690625,-0.000296875,,-4.780e-04,-207.031
-4.760e-04,0.00996875,0.00697188,-0.000289063,,-4.760e-04,-94.5312
-4.740e-04,0.0101844,0.00688125,-0.000264063,,-4.740e-04,-153.125
-4.720e-04,0.0104313,0.0068125,-0.000276563,,-4.720e-04,-157.812
-4.700e-04,0.010675,0.00688125,-0.000259375,,-4.700e-04,-87.5
-4.680e-04,0.0108922,0.00682812,-0.000275,,-4.680e-04,-135.141
-4.660e-04,0.0111422,0.00665469,-0.000301563,,-4.660e-04,-211.719
-4.640e-04,0.0113625,0.00672344,-0.000284375,,-4.640e-04,-75.7656
-4.620e-04,0.0115656,0.0066625,-0.000271875,,-4.620e-04,-132.031
-4.600e-04,0.0117719,0.00674688,-0.000276563,,-4.600e-04,-60.9375
-4.580e-04,0.0119594,0.00674375,-0.0002875,,-4.580e-04,-95.2969
-4.560e-04,0.0121641,0.00685313,-0.000275,,-4.560e-04,-47.6562
-4.540e-04,0.0123703,0.00690938,-0.000329688,,-4.540e-04,-74.9844
-4.520e-04,0.0125375,0.00686563,-0.000315625,,-4.520e-04,-105.453
-4.500e-04,0.0127031,0.00685781,-0.000307813,,-4.500e-04,-86.7031
-4.480e-04,0.0128984,0.00691406,-0.000289063,,-4.480e-04,-69.5312
-4.460e-04,0.0130719,0.007,-0.00028125,,-4.460e-04,-43.7344
-4.440e-04,0.0132547,0.00703125,-0.00026875,,-4.440e-04,-75.7812
-4.420e-04,0.01345,0.00705156,-0.00025625,,-4.420e-04,-87.4844
-4.400e-04,0.0135937,0.00706563,-0.000275,,-4.400e-04,-64.8438
-4.380e-04,0.0137922,0.0071625,-0.000259375,,-4.380e-04,-50.7656
-4.360e-04,0.0139547,0.00702813,-0.00028125,,-4.360e-04,-148.438
-4.340e-04,0.0141328,0.00697812,-0.00025625,,-4.340e-04,-114.062
-4.320e-04,0.0142969,0.00703125,-0.000259375,,-4.320e-04,-55.4531
-4.300e-04,0.0144656,0.00712031,-0.000276563,,-4.300e-04,-39.8281
-4.280e-04,0.0146484,0.00711406,-0.00026875,,-4.280e-04,-94.5312
-4.260e-04,0.0147922,0.00705156,-0.000292188,,-4.260e-04,-103.109
-4.240e-04,0.0149734,0.0071,-0.000307813,,-4.240e-04,-66.4062
-4.220e-04,0.015125,0.00714688,-0.0003,,-4.220e-04,-52.3281
-4.200e-04,0.0152797,0.00712188,-0.000289063,,-4.200e-04,-89.8438
-4.180e-04,0.0154344,0.007175,-0.00026875,,-4.180e-04,-50.7656
-4.160e-04,0.0155953,0.0071375,-0.000275,,-4.160e-04,-99.2188
-4.140e-04,0.0157328,0.00719531,-0.000275,,-4.140e-04,-39.8281
-4.120e-04,0.0158844,0.00723594,-0.000296875,,-4.120e-04,-55.4688
-4.100e-04,0.0160422,0.00737031,-0.000309375,,-4.100e-04,-11.7188
-4.080e-04,0.0161766,0.00760938,-0.000301563,,-4.080e-04,52.3281
-4.060e-04,0.0163156,0.00759688,-0.000264063,,-4.060e-04,-75.7656
-4.040e-04,0.0164688,0.00751875,-0.000234375,,-4.040e-04,-115.625
-4.020e-04,0.0165906,0.00757656,-0.000228125,,-4.020e-04,-32.0312
-4.000e-04,0.0167328,0.00765313,-0.000246875,,-4.000e-04,-32.7969
-3.980e-04,0.0168547,0.00771406,-0.000292188,,-3.980e-04,-30.4688
-3.960e-04,0.0169922,0.00764844,-0.00028125,,-3.960e-04,-101.562
-3.940e-04,0.0171062,0.00767344,-0.000289063,,-3.940e-04,-44.5156
-3.920e-04,0.0172422,0.00775156,-0.000276563,,-3.920e-04,-28.9062
-3.900e-04,0.0173719,0.00785313,-0.000284375,,-3.900e-04,-14.0625
-3.880e-04,0.0175016,0.007775,-0.000279687,,-3.880e-04,-103.891
-3.860e-04,0.0176344,0.00777188,-0.000292188,,-3.860e-04,-67.9531
-3.840e-04,0.0177438,0.00769375,-0.000307813,,-3.840e-04,-93.7344
-3.820e-04,0.0178875,0.00777969,-0.000315625,,-3.820e-04,-28.9062
-3.800e-04,0.0179922,0.00782813,-0.000304687,,-3.800e-04,-28.125
-3.780e-04,0.0181141,0.00793281,-0.00028125,,-3.780e-04,-8.57812
-3.760e-04,0.0182156,0.00800625,-0.000275,,-3.760e-04,-14.0469
-3.740e-04,0.0183266,0.00806719,-0.0002875,,-3.740e-04,-25
-3.720e-04,0.0184312,0.00804063,-0.000307813,,-3.720e-04,-65.625
-3.700e-04,0.0185297,0.00810469,-0.000307813,,-3.700e-04,-17.1719
-3.680e-04,0.01865,0.00815,-0.000289063,,-3.680e-04,-37.5
-3.660e-04,0.0187391,0.00827813,-0.00026875,,-3.660e-04,19.5156
-3.640e-04,0.0188672,0.00836406,-0.000267188,,-3.640e-04,-21.0938
-3.620e-04,0.0189719,0.00840625,-0.000279687,,-3.620e-04,-31.2344
-3.600e-04,0.0190375,0.00842969,-0.0002875,,-3.600e-04,-21.0938
-3.580e-04,0.0191266,0.00852656,-0.000301563,,-3.580e-04,3.90625
-3.560e-04,0.0192187,0.0084625,-0.000317188,,-3.560e-04,-78.1094
-3.540e-04,0.0193203,0.00853594,-0.000309375,,-3.540e-04,-14.0625
-3.520e-04,0.0194109,0.00852813,-0.0003,,-3.520e-04,-49.2031
-3.500e-04,0.0194969,0.00855625,-0.000292188,,-3.500e-04,-28.9062
-3.480e-04,0.0195813,0.00860469,-0.000301563,,-3.480e-04,-17.9688
-3.460e-04,0.0196859,0.00867031,-0.000315625,,-3.460e-04,-19.5156
-3.440e-04,0.0197875,0.00877969,-0.000295313,,-3.440e-04,3.89062
-3.420e-04,0.0198656,0.00872969,-0.000289063,,-3.420e-04,-64.0469
-3.400e-04,0.0199469,0.00870938,-0.00028125,,-3.400e-04,-50.7656
-3.380e-04,0.0200359,0.00866094,-0.00026875,,-3.380e-04,-68.75
-3.360e-04,0.0201406,0.00868125,-0.00028125,,-3.360e-04,-42.1875
-3.340e-04,0.0202078,0.00892813,-0.000259375,,-3.340e-04,89.8438
-3.320e-04,0.0203125,0.00886406,-0.000254688,,-3.320e-04,-84.3594
-3.300e-04,0.0203938,0.00900313,-0.00026875,,-3.300e-04,28.8906
-3.280e-04,0.0204703,0.00916563,-0.000276563,,-3.280e-04,42.9688
-3.260e-04,0.0205641,0.00915625,-0.000275,,-3.260e-04,-51.5625
-3.240e-04,0.02065,0.009275,-0.000275,,-3.240e-04,16.4062
-3.220e-04,0.0207109,0.00927031,-0.000284375,,-3.220e-04,-32.8125
-3.200e-04,0.0207953,0.00936406,-0.000267188,,-3.200e-04,4.6875
-3.180e-04,0.0208453,0.00938125,-0.000301563,,-3.180e-04,-16.4062
-3.160e-04,0.0209094,0.0094375,-0.000309375,,-3.160e-04,-3.90625
-3.140e-04,0.0209984,0.00953906,-0.000309375,,-3.140e-04,6.25
-3.120e-04,0.0210797,0.00973281,-0.000295313,,-3.120e-04,56.25
-3.100e-04,0.0211656,0.0097625,-0.000271875,,-3.100e-04,-28.125
-3.080e-04,0.0212266,0.00980313,-0.00025625,,-3.080e-04,-10.1406
-3.060e-04,0.0212984,0.00967656,-0.000275,,-3.060e-04,-99.2188
-3.040e-04,0.0213859,0.00965938,-0.0002875,,-3.040e-04,-52.3438
-3.020e-04,0.0214531,0.0097375,-0.00028125,,-3.020e-04,5.45312
-3.000e-04,0.0215187,0.00980625,-0.00028125,,-3.000e-04,1.5625
-2.980e-04,0.0215828,0.00992813,-0.000264063,,-2.980e-04,28.8906
-2.960e-04,0.0216453,0.0098625,-0.0002875,,-2.960e-04,-64.0469
-2.940e-04,0.02175,0.00995313,-0.000296875,,-2.940e-04,-7.03125
-2.920e-04,0.0217828,0.00992813,-0.000317188,,-2.920e-04,-28.8906
-2.900e-04,0.0218531,0.0100094,-0.000309375,,-2.900e-04,5.45312
-2.880e-04,0.0219094,0.0100859,-0.000307813,,-2.880e-04,10.1406
-2.860e-04,0.021975,0.0100375,-0.000275,,-2.860e-04,-57.0156
-2.840e-04,0.0220391,0.0103094,-0.000271875,,-2.840e-04,103.906
-2.820e-04,0.0221031,0.0104,-0.000259375,,-2.820e-04,13.2812
-2.800e-04,0.0221516,0.0104781,-0.000254688,,-2.800e-04,14.8281
-2.780e-04,0.0222344,0.0105547,-0.000289063,,-2.780e-04,-3.10938
-2.760e-04,0.0222781,0.0105734,-0.000284375,,-2.760e-04,-12.5
-2.740e-04,0.0223203,0.0106078,-0.000292188,,-2.740e-04,-3.89062
-2.720e-04,0.0223969,0.0105953,-0.000284375,,-2.720e-04,-44.5312
-2.700e-04,0.0224734,0.0105875,-0.000267188,,-2.700e-04,-42.1875
-2.680e-04,0.0224984,0.0106344,-0.000267188,,-2.680e-04,10.9219
-2.660e-04,0.0225578,0.010725,-0.00026875,,-2.660e-04,15.625
-2.640e-04,0.0226234,0.0108594,-0.0003125,,-2.640e-04,34.375
-2.620e-04,0.0226719,0.0107219,-0.000309375,,-2.620e-04,-92.9688
-2.600e-04,0.0227328,0.0107172,-0.000320313,,-2.600e-04,-32.7969
-2.580e-04,0.0227703,0.0106484,-0.000296875,,-2.580e-04,-53.1094
-2.560e-04,0.0228625,0.0106844,-0.000289063,,-2.560e-04,-28.125
-2.540e-04,0.0228891,0.0107,-0.0002875,,-2.540e-04,-5.45312
-2.520e-04,0.0229656,0.0108172,-0.000284375,,-2.520e-04,20.3125
-2.500e-04,0.0230219,0.010925,-0.000279687,,-2.500e-04,25.7656
-2.480e-04,0.0230594,0.0111797,-0.000276563,,-2.480e-04,108.578
-2.460e-04,0.0231125,0.0111875,-0.000289063,,-2.460e-04,-22.6562
-2.440e-04,0.0231469,0.0112125,-0.000279687,,-2.440e-04,-4.6875
-2.420e-04,0.0232141,0.0112406,-0.000264063,,-2.420e-04,-19.5156
-2.400e-04,0.0232703,0.0115,-0.00026875,,-2.400e-04,101.562
-2.380e-04,0.0233109,0.0114203,-0.000251562,,-2.380e-04,-60.1562
-2.360e-04,0.023375,0.0116547,-0.000276563,,-2.360e-04,85.1562
-2.340e-04,0.0234313,0.0117406,-0.000301563,,-2.340e-04,14.8438
-2.320e-04,0.0234328,0.0118875,-0.000307813,,-2.320e-04,72.6406
-2.300e-04,0.0235016,0.0118453,-0.000275,,-2.300e-04,-55.4531
-2.280e-04,0.0235172,0.0118016,-0.000275,,-2.280e-04,-29.6719
-2.260e-04,0.023575,0.0117766,-0.00026875,,-2.260e-04,-41.4062
-2.240e-04,0.0236484,0.0119141,-0.00028125,,-2.240e-04,32.0156
-2.220e-04,0.023675,0.0119313,-0.000289063,,-2.220e-04,-4.6875
-2.200e-04,0.0237219,0.0121031,-0.000295313,,-2.200e-04,62.5
-2.180e-04,0.0237891,0.01205,-0.000309375,,-2.180e-04,-60.1406
-2.160e-04,0.0238141,0.0121516,-0.000279687,,-2.160e-04,38.2656
-2.140e-04,0.0238547,0.0122719,-0.000264063,,-2.140e-04,39.8281
-2.120e-04,0.0239109,0.0122641,-0.000260937,,-2.120e-04,-32.0156
-2.100e-04,0.0239609,0.0122313,-0.000275,,-2.100e-04,-41.3906
-2.080e-04,0.0239859,0.0123344,-0.000295313,,-2.080e-04,39.0625
-2.060e-04,0.02405,0.0124766,-0.000292188,,-2.060e-04,39.0469
-2.040e-04,0.0240938,0.0125234,-0.000271875,,-2.040e-04,1.54688
