Exponential decay data/tek0045.csv

Model,DPO4054
Firmware Version,2.68

Waveform Type,ANALOG
Point Format,Y
Horizontal Units,s
Horizontal Scale,4e-05
Horizontal Delay,0.0007572
Sample Interval,4e-07
Record Length,1000
Gating,0.0% to 100.0%
Probe Attenuation,10
Vertical Units,V
Vertical Offset,0
Vertical Scale,0.01
Vertical Position,0.36
,
,
,
Label,
TIME,CH3
5.572e-04,0.0181438
5.576e-04,0.0180781
5.580e-04,0.0181406
5.584e-04,0.0180016
5.588e-04,0.0180484
5.592e-04,0.0179953
5.596e-04,0.0178734
5.600e-04,0.0179688
5.604e-04,0.0177781
5.608e-04,0.0177625
5.612e-04,0.0177125
5.616e-04,0.0176766
5.620e-04,0.0177688
5.624e-04,0.0178406
5.628e-04,0.0175531
5.632e-04,0.0174688
5.636e-04,0.0174672
5.640e-04,0.0175922
5.644e-04,0.0173563
5.648e-04,0.01745
5.652e-04,0.0174078
5.656e-04,0.0173125
5.660e-04,0.0172969
5.664e-04,0.0172266
5.668e-04,0.0170953
5.672e-04,0.0172125
5.676e-04,0.0170453
5.680e-04,0.0170891
5.684e-04,0.01705
5.688e-04,0.0168844
5.692e-04,0.0171344
5.696e-04,0.0169219
5.700e-04,0.0168813
5.704e-04,0.0168375
5.708e-04,0.0167156
5.712e-04,0.0168078
5.716e-04,0.0168625
5.720e-04,0.0167438
5.724e-04,0.0166297
5.728e-04,0.0165734
5.732e-04,0.0166625
5.736e-04,0.0164234
5.740e-04,0.0163859
5.744e-04,0.0164391
5.748e-04,0.0164172
5.752e-04,0.0165156
5.756e-04,0.0164734
5.760e-04,0.0164438
5.764e-04,0.0162688
5.768e-04,0.016125
5.772e-04,0.0164156
5.776e-04,0.0160797
5.780e-04,0.0162188
5.784e-04,0.0161625
5.788e-04,0.0160672
5.792e-04,0.0160234
5.796e-04,0.0159484
5.800e-04,0.0159234
5.804e-04,0.0159453
5.808e-04,0.0159516
5.812e-04,0.0160234
5.816e-04,0.0158625
5.820e-04,0.0157141
5.824e-04,0.0157203
5.828e-04,0.0157344
5.832e-04,0.0156672
5.836e-04,0.0155438
5.840e-04,0.0157719
5.844e-04,0.0153969
5.848e-04,0.0156203
5.852e-04,0.0156281
5.856e-04,0.0154406
5.860e-04,0.0153266
5.864e-04,0.0155078
5.868e-04,0.0153531
5.872e-04,0.0153859
5.876e-04,0.0153656
5.880e-04,0.0154094
5.884e-04,0.0151047
5.888e-04,0.0151469
5.892e-04,0.0151781
5.896e-04,0.0150547
5.900e-04,0.0150375
5.904e-04,0.0150938
5.908e-04,0.0149984
5.912e-04,0.0150344
5.916e-04,0.0148359
5.920e-04,0.0149203
5.924e-04,0.0147406
5.928e-04,0.0149422
5.932e-04,0.0148031
5.936e-04,0.0147438
5.940e-04,0.0147937
5.944e-04,0.014675
5.948e-04,0.0146672
5.952e-04,0.0149844
5.956e-04,0.0146906
5.960e-04,0.0144516
5.964e-04,0.0145281
5.968e-04,0.0143953
5.972e-04,0.0146203
5.976e-04,0.0145109
5.980e-04,0.0144531
5.984e-04,0.0143875
5.988e-04,0.0142922
5.992e-04,0.0143063
5.996e-04,0.0142594
6.000e-04,0.0142516
6.004e-04,0.0142562
6.008e-04,0.0140406
6.012e-04,0.0142031
6.016e-04,0.0140422
6.020e-04,0.0141656
6.024e-04,0.0140734
6.028e-04,0.0139859
6.032e-04,0.0139281
6.036e-04,0.0138547
6.040e-04,0.0139563
6.044e-04,0.0138406
6.048e-04,0.0138063
6.052e-04,0.0138531
6.056e-04,0.0136891
6.060e-04,0.0139281
6.064e-04,0.0136484
6.068e-04,0.0135828
6.072e-04,0.01375
6.076e-04,0.0135734
6.080e-04,0.0137516
6.084e-04,0.0135937
6.088e-04,0.0135172
6.092e-04,0.0134313
6.096e-04,0.0134422
6.100e-04,0.0134484
6.104e-04,0.0133562
6.108e-04,0.0133797
6.112e-04,0.0132812
6.116e-04,0.0132234
6.120e-04,0.0132766
6.124e-04,0.0132578
6.128e-04,0.0131984
6.132e-04,0.0133578
6.136e-04,0.0130625
6.140e-04,0.0131641
6.144e-04,0.0131
6.148e-04,0.0129031
6.152e-04,0.0131281
6.156e-04,0.0128672
6.160e-04,0.0129984
6.164e-04,0.0129625
6.168e-04,0.0128359
6.172e-04,0.0127891
6.176e-04,0.0129719
6.180e-04,0.012925
6.184e-04,0.0128016
6.188e-04,0.0128266
6.192e-04,0.0126766
6.196e-04,0.0127609
6.200e-04,0.0127031
6.204e-04,0.0126766
6.208e-04,0.0126453
6.212e-04,0.0126156
6.216e-04,0.0124641
6.220e-04,0.0126078
6.224e-04,0.0125578
6.228e-04,0.0125031
6.232e-04,0.0125172
6.236e-04,0.0123391
6.240e-04,0.0123625
6.244e-04,0.0123781
6.248e-04,0.0122734
6.252e-04,0.0123922
6.256e-04,0.0122437
6.260e-04,0.0123969
6.264e-04,0.0123766
6.268e-04,0.0122187
6.272e-04,0.0120094
6.276e-04,0.0118578
6.280e-04,0.0121656
6.284e-04,0.0120156
6.288e-04,0.0119391
6.292e-04,0.0119859
6.296e-04,0.011925
6.300e-04,0.0118984
6.304e-04,0.0119
6.308e-04,0.0119016
6.312e-04,0.0119437
6.316e-04,0.0118516
6.320e-04,0.0118875
6.324e-04,0.0118656
6.328e-04,0.0116578
6.332e-04,0.0115625
6.336e-04,0.0117031
6.340e-04,0.0118172
6.344e-04,0.0117547
6.348e-04,0.0115187
6.352e-04,0.0117406
6.356e-04,0.0115203
6.360e-04,0.0115625
6.364e-04,0.0116656
6.368e-04,0.0115312
6.372e-04,0.0115438
6.376e-04,0.0113344
6.380e-04,0.0114344
6.384e-04,0.0114734
6.388e-04,0.0114828
6.392e-04,0.0115484
6.396e-04,0.0113875
6.400e-04,0.0113859
6.404e-04,0.011225
6.408e-04,0.0112984
6.412e-04,0.0113469
6.416e-04,0.01125
6.420e-04,0.0113922
6.424e-04,0.0110672
6.428e-04,0.0111531
6.432e-04,0.0111703
6.436e-04,0.0110516
6.440e-04,0.0110641
6.444e-04,0.0110766
6.448e-04,0.010975
6.452e-04,0.0110703
6.456e-04,0.0108781
6.460e-04,0.0108781
6.464e-04,0.010875
6.468e-04,0.0108594
6.472e-04,0.0108266
6.476e-04,0.0110203
6.480e-04,0.0108375
6.484e-04,0.0106969
6.488e-04,0.0107219
6.492e-04,0.0107531
6.496e-04,0.0106969
6.500e-04,0.0108875
6.504e-04,0.0105734
6.508e-04,0.0106625
6.512e-04,0.0105906
6.516e-04,0.0105469
6.520e-04,0.0104641
6.524e-04,0.0105172
6.528e-04,0.0103234
6.532e-04,0.0104047
6.536e-04,0.0104406
6.540e-04,0.0103297
6.544e-04,0.0104344
6.548e-04,0.0103875
6.552e-04,0.0102922
6.556e-04,0.0103109
6.560e-04,0.0102937
6.564e-04,0.0102047
6.568e-04,0.0102125
6.572e-04,0.0102188
6.576e-04,0.0102234
6.580e-04,0.0102141
6.584e-04,0.0101672
6.588e-04,0.0101141
6.592e-04,0.0100391
6.596e-04,0.0100844
6.600e-04,0.0101953
6.604e-04,0.0101484
6.608e-04,0.00998906
6.612e-04,0.00991094
6.616e-04,0.0099125
6.620e-04,0.0100781
6.624e-04,0.00989375
6.628e-04,0.00979219
6.632e-04,0.0098125
6.636e-04,0.00978281
6.640e-04,0.00991875
6.644e-04,0.00980469
6.648e-04,0.00964844
6.652e-04,0.00966875
6.656e-04,0.00962656
6.660e-04,0.00967344
6.664e-04,0.00982344
6.668e-04,0.00954219
6.672e-04,0.009625
6.676e-04,0.00967187
6.680e-04,0.00945937
6.684e-04,0.00960625
6.688e-04,0.00953281
6.692e-04,0.00962969
6.696e-04,0.00947969
6.700e-04,0.00965469
6.704e-04,0.00933594
6.708e-04,0.00922031
6.712e-04,0.00932344
6.716e-04,0.0093875
6.720e-04,0.00937812
6.724e-04,0.00935625
6.728e-04,0.00924531
6.732e-04,0.00925156
6.736e-04,0.0092375
6.740e-04,0.00949844
6.744e-04,0.00921562
6.748e-04,0.00922031
6.752e-04,0.00925
6.756e-04,0.00906562
6.760e-04,0.00906094
6.764e-04,0.0092125
6.768e-04,0.00919688
6.772e-04,0.00917813
6.776e-04,0.0091
6.780e-04,0.00920312
6.784e-04,0.00905937
6.788e-04,0.00902656
6.792e-04,0.00910937
6.796e-04,0.00897969
6.800e-04,0.00893281
6.804e-04,0.00892031
6.808e-04,0.00889062
6.812e-04,0.00900469
6.816e-04,0.00877188
6.820e-04,0.00875156
6.824e-04,0.00887656
6.828e-04,0.00877656
6.832e-04,0.00860625
6.836e-04,0.00866562
6.840e-04,0.00870938
6.844e-04,0.00860781
6.848e-04,0.00869844
6.852e-04,0.00867344
6.856e-04,0.00863906
6.860e-04,0.00863906
6.864e-04,0.00862969
6.868e-04,0.00848594
6.872e-04,0.00874063
6.876e-04,0.00840312
6.880e-04,0.00848125
6.884e-04,0.00843437
6.888e-04,0.008425
6.892e-04,0.00839687
6.896e-04,0.00824844
6.900e-04,0.00853281
6.904e-04,0.00850156
6.908e-04,0.00830937
6.912e-04,0.00835469
6.916e-04,0.00820625
6.920e-04,0.00843437
6.924e-04,0.00822344
6.928e-04,0.00820625
6.932e-04,0.00829688
6.936e-04,0.0082625
6.940e-04,0.00822344
6.944e-04,0.00830781
6.948e-04,0.0080625
6.952e-04,0.00824844
6.956e-04,0.00810625
6.960e-04,0.00807813
6.964e-04,0.00812031
6.968e-04,0.00809531
6.972e-04,0.0082625
6.976e-04,0.00802187
6.980e-04,0.00795937
6.984e-04,0.00794375
6.988e-04,0.00776406
6.992e-04,0.00811406
6.996e-04,0.00784531
7.000e-04,0.0078625
7.004e-04,0.00794687
7.008e-04,0.00789687
7.012e-04,0.00800312
7.016e-04,0.00779531
7.020e-04,0.00769688
7.024e-04,0.00777813
7.028e-04,0.00777656
7.032e-04,0.00784375
7.036e-04,0.00770937
7.040e-04,0.00765781
7.044e-04,0.00766719
7.048e-04,0.00775469
7.052e-04,0.00787969
7.056e-04,0.00759219
7.060e-04,0.00765156
7.064e-04,0.00758281
7.068e-04,0.00748125
7.072e-04,0.00754844
7.076e-04,0.00762969
7.080e-04,0.00760937
7.084e-04,0.00758281
7.088e-04,0.00734687
7.092e-04,0.007475
7.096e-04,0.00736719
7.100e-04,0.00752344
7.104e-04,0.00745469
7.108e-04,0.00727656
7.112e-04,0.0074125
7.116e-04,0.00726562
7.120e-04,0.00748125
7.124e-04,0.00733438
7.128e-04,0.00739375
7.132e-04,0.00745469
7.136e-04,0.00729375
7.140e-04,0.00730781
7.144e-04,0.00737969
7.148e-04,0.00718437
7.152e-04,0.00717031
7.156e-04,0.00708125
7.160e-04,0.00713594
7.164e-04,0.00722656
7.168e-04,0.00710937
7.172e-04,0.00722031
7.176e-04,0.00695
7.180e-04,0.00705156
7.184e-04,0.00708125
7.188e-04,0.00708594
7.192e-04,0.0069875
7.196e-04,0.00704375
7.200e-04,0.00692969
7.204e-04,0.00700469
7.208e-04,0.00693125
7.212e-04,0.00707656
7.216e-04,0.00678125
7.220e-04,0.00685156
7.224e-04,0.00692031
7.228e-04,0.00690625
7.232e-04,0.0069125
7.236e-04,0.00665156
7.240e-04,0.00689062
7.244e-04,0.00674844
7.248e-04,0.00666406
7.252e-04,0.00679687
7.256e-04,0.00682187
7.260e-04,0.00681563
7.264e-04,0.00670625
7.268e-04,0.00665469
7.272e-04,0.00670312
7.276e-04,0.00664062
7.280e-04,0.00674531
7.284e-04,0.006575
7.288e-04,0.00658281
7.292e-04,0.00654531
7.296e-04,0.00662656
7.300e-04,0.00647344
7.304e-04,0.00661562
7.308e-04,0.00642969
7.312e-04,0.00646875
7.316e-04,0.00648438
7.320e-04,0.00661875
7.324e-04,0.00645937
7.328e-04,0.00647969
7.332e-04,0.00640469
7.336e-04,0.00627187
7.340e-04,0.00627812
7.344e-04,0.00645
7.348e-04,0.0064125
7.352e-04,0.00637656
7.356e-04,0.00660156
7.360e-04,0.00630156
7.364e-04,0.00639687
7.368e-04,0.00604688
7.372e-04,0.00654687
7.376e-04,0.0063375
7.380e-04,0.00629219
7.384e-04,0.00621094
7.388e-04,0.00625625
7.392e-04,0.00610781
7.396e-04,0.00621719
7.400e-04,0.00612344
7.404e-04,0.006025
7.408e-04,0.00611719
7.412e-04,0.00617344
7.416e-04,0.00608594
7.420e-04,0.00614687
7.424e-04,0.00605469
7.428e-04,0.00605469
7.432e-04,0.00609687
7.436e-04,0.00599531
7.440e-04,0.00589687
7.444e-04,0.00599844
7.448e-04,0.00591094
7.452e-04,0.00597344
7.456e-04,0.00594844
7.460e-04,0.00595937
7.464e-04,0.00601406
7.468e-04,0.00589844
7.472e-04,0.00586562
7.476e-04,0.00591875
7.480e-04,0.00596094
7.484e-04,0.00588437
7.488e-04,0.00575781
7.492e-04,0.00577031
7.496e-04,0.00584219
7.500e-04,0.00573437
7.504e-04,0.00587812
7.508e-04,0.00584687
7.512e-04,0.00585781
7.516e-04,0.00580469
7.520e-04,0.00588281
7.524e-04,0.00571406
7.528e-04,0.00564219
7.532e-04,0.00585781
7.536e-04,0.00569844
7.540e-04,0.00571094
7.544e-04,0.00576719
7.548e-04,0.00560469
7.552e-04,0.00557969
7.556e-04,0.00572344
7.560e-04,0.00545781
7.564e-04,0.00566719
7.568e-04,0.005475
7.572e-04,0.00554687
7.576e-04,0.00549375
7.580e-04,0.00539062
7.584e-04,0.00536094
7.588e-04,0.0054375
7.592e-04,0.00549219
7.596e-04,0.00544531
7.600e-04,0.00524219
7.604e-04,0.00538438
7.608e-04,0.00528906
7.612e-04,0.00549062
7.616e-04,0.00532969
7.620e-04,0.00529687
7.624e-04,0.00545
7.628e-04,0.00524844
7.632e-04,0.00540312
7.636e-04,0.0053125
7.640e-04,0.00540937
7.644e-04,0.00525625
7.648e-04,0.00510937
7.652e-04,0.00535
7.656e-04,0.00520156
7.660e-04,0.00522656
7.664e-04,0.005275
7.668e-04,0.00509531
7.672e-04,0.0052125
7.676e-04,0.00514062
7.680e-04,0.00501406
7.684e-04,0.00508594
7.688e-04,0.00533594
7.692e-04,0.00510937
7.696e-04,0.00495938
7.700e-04,0.00507187
7.704e-04,0.00496875
7.708e-04,0.00499219
7.712e-04,0.00511875
7.716e-04,0.00494375
7.720e-04,0.00491719
7.724e-04,0.0049
7.728e-04,0.00486094
7.732e-04,0.00488125
7.736e-04,0.00485937
7.740e-04,0.00494062
7.744e-04,0.00494531
7.748e-04,0.00487031
7.752e-04,0.00484688
7.756e-04,0.00472656
7.760e-04,0.00492344
7.764e-04,0.004675
7.768e-04,0.00488906
7.772e-04,0.00484531
7.776e-04,0.00481094
7.780e-04,0.00483594
7.784e-04,0.00480156
7.788e-04,0.00465
7.792e-04,0.0049625
7.796e-04,0.00487969
7.800e-04,0.00488281
7.804e-04,0.00467812
7.808e-04,0.00470938
7.812e-04,0.00454687
7.816e-04,0.00459219
7.820e-04,0.00464375
7.824e-04,0.00475313
7.828e-04,0.00450313
7.832e-04,0.00455781
7.836e-04,0.00449219
7.840e-04,0.00464844
7.844e-04,0.00442969
7.848e-04,0.00464062
7.852e-04,0.004575
7.856e-04,0.0044125
7.860e-04,0.00456563
7.864e-04,0.00449375
7.868e-04,0.00439063
7.872e-04,0.00451094
7.876e-04,0.00457031
7.880e-04,0.00454531
7.884e-04,0.00446562
7.888e-04,0.0043625
7.892e-04,0.00440312
7.896e-04,0.00432813
7.900e-04,0.00439063
7.904e-04,0.00434688
7.908e-04,0.00441875
7.912e-04,0.00432656
7.916e-04,0.00426563
7.920e-04,0.00432344
7.924e-04,0.00439844
7.928e-04,0.00437031
7.932e-04,0.00435469
7.936e-04,0.00428125
7.940e-04,0.004175
7.944e-04,0.00434062
7.948e-04,0.00429375
7.952e-04,0.00415625
7.956e-04,0.00422656
7.960e-04,0.00420937
7.964e-04,0.00410469
7.968e-04,0.00404219
7.972e-04,0.0042375
7.976e-04,0.00405312
7.980e-04,0.00419062
7.984e-04,0.00392188
7.988e-04,0.0040375
7.992e-04,0.00405781
7.996e-04,0.00414844
8.000e-04,0.004125
8.004e-04,0.0041125
8.008e-04,0.00405625
8.012e-04,0.0040625
8.016e-04,0.00394531
8.020e-04,0.00389375
8.024e-04,0.00407188
8.028e-04,0.00408125
8.032e-04,0.004175
8.036e-04,0.00401406
8.040e-04,0.00392188
8.044e-04,0.00385313
8.048e-04,0.00391719
8.052e-04,0.00416562
8.056e-04,0.00391875
8.060e-04,0.00405
8.064e-04,0.00383906
8.068e-04,0.00382969
8.072e-04,0.0039
8.076e-04,0.00380312
8.080e-04,0.00387187
8.084e-04,0.00386406
8.088e-04,0.00377656
8.092e-04,0.00384531
8.096e-04,0.00364531
8.100e-04,0.00400156
8.104e-04,0.00370313
8.108e-04,0.00375156
8.112e-04,0.00375
8.116e-04,0.0038
8.120e-04,0.00389219
8.124e-04,0.00391719
8.128e-04,0.00371406
8.132e-04,0.00372656
8.136e-04,0.00376094
8.140e-04,0.00379219
8.144e-04,0.00374062
8.148e-04,0.0038875
8.152e-04,0.00363125
8.156e-04,0.00358281
8.160e-04,0.003625
8.164e-04,0.0034375
8.168e-04,0.00360938
8.172e-04,0.00367969
8.176e-04,0.0035625
8.180e-04,0.00385625
8.184e-04,0.00347656
8.188e-04,0.003575
8.192e-04,0.00357344
8.196e-04,0.00333594
8.200e-04,0.00343438
8.204e-04,0.00353281
8.208e-04,0.00349844
8.212e-04,0.00352812
8.216e-04,0.00367969
8.220e-04,0.00355781
8.224e-04,0.0034625
8.228e-04,0.00349375
8.232e-04,0.00354219
8.236e-04,0.00338906
8.240e-04,0.00322344
8.244e-04,0.00348594
8.248e-04,0.00340625
8.252e-04,0.00342969
8.256e-04,0.00322812
8.260e-04,0.00332812
8.264e-04,0.00348125
8.268e-04,0.0034375
8.272e-04,0.0035125
8.276e-04,0.00324219
8.280e-04,0.003175
8.284e-04,0.0031625
8.288e-04,0.00330781
8.292e-04,0.00337812
8.296e-04,0.00331094
8.300e-04,0.0034625
8.304e-04,0.00312813
8.308e-04,0.00330313
8.312e-04,0.00330625
8.316e-04,0.00321719
8.320e-04,0.00328125
8.324e-04,0.00335781
8.328e-04,0.00316719
8.332e-04,0.00313281
8.336e-04,0.00314844
8.340e-04,0.00320156
8.344e-04,0.00327656
8.348e-04,0.00319375
8.352e-04,0.00309531
8.356e-04,0.00313125
8.360e-04,0.003225
8.364e-04,0.00312969
8.368e-04,0.00301406
8.372e-04,0.00298906
8.376e-04,0.0031375
8.380e-04,0.00318281
8.384e-04,0.00312813
8.388e-04,0.00310469
8.392e-04,0.00300781
8.396e-04,0.00285
8.400e-04,0.00309063
8.404e-04,0.00292656
8.408e-04,0.00289219
8.412e-04,0.00307656
8.416e-04,0.00287813
8.420e-04,0.002875
8.424e-04,0.00287344
8.428e-04,0.00295781
8.432e-04,0.0029875
8.436e-04,0.00274844
8.440e-04,0.00296719
8.444e-04,0.00281406
8.448e-04,0.00277656
8.452e-04,0.003025
8.456e-04,0.00284375
8.460e-04,0.00283437
8.464e-04,0.00286562
8.468e-04,0.00280469
8.472e-04,0.00286562
8.476e-04,0.0027
8.480e-04,0.00287813
8.484e-04,0.00276406
8.488e-04,0.00275312
8.492e-04,0.00287969
8.496e-04,0.002625
8.500e-04,0.00275
8.504e-04,0.00265781
8.508e-04,0.00264844
8.512e-04,0.00272187
8.516e-04,0.0027625
8.520e-04,0.00281094
8.524e-04,0.00251719
8.528e-04,0.00278125
8.532e-04,0.0028625
8.536e-04,0.00265625
8.540e-04,0.00279844
8.544e-04,0.00258438
8.548e-04,0.00276563
8.552e-04,0.00263906
8.556e-04,0.00251406
8.560e-04,0.00260938
8.564e-04,0.00277344
8.568e-04,0.0024125
8.572e-04,0.00274844
8.576e-04,0.00256094
8.580e-04,0.00259844
8.584e-04,0.00260469
8.588e-04,0.00245625
8.592e-04,0.00262812
8.596e-04,0.00261094
8.600e-04,0.00270937
8.604e-04,0.00266406
8.608e-04,0.00254219
8.612e-04,0.00253281
8.616e-04,0.00257031
8.620e-04,0.00249687
8.624e-04,0.00249063
8.628e-04,0.00254844
8.632e-04,0.00249844
8.636e-04,0.00236875
8.640e-04,0.00247656
8.644e-04,0.00241094
8.648e-04,0.0024625
8.652e-04,0.00255313
8.656e-04,0.00233281
8.660e-04,0.00247969
8.664e-04,0.00235469
8.668e-04,0.00246406
8.672e-04,0.00258125
8.676e-04,0.00235469
8.680e-04,0.00231875
8.684e-04,0.00238906
8.688e-04,0.00223281
8.692e-04,0.00250625
8.696e-04,0.00222031
8.700e-04,0.00239688
8.704e-04,0.00218281
8.708e-04,0.00233438
8.712e-04,0.00225781
8.716e-04,0.00221719
8.720e-04,0.00231719
8.724e-04,0.00237969
8.728e-04,0.00226562
8.732e-04,0.00236406
8.736e-04,0.00227656
8.740e-04,0.00240625
8.744e-04,0.00218594
8.748e-04,0.00217812
8.752e-04,0.00233594
8.756e-04,0.00219063
8.760e-04,0.00220625
8.764e-04,0.00221875
8.768e-04,0.00214375
8.772e-04,0.00246094
8.776e-04,0.00215313
8.780e-04,0.00225625
8.784e-04,0.00217656
8.788e-04,0.00226875
8.792e-04,0.00222812
8.796e-04,0.00215625
8.800e-04,0.002175
8.804e-04,0.00215625
8.808e-04,0.00209219
8.812e-04,0.002075
8.816e-04,0.00198281
8.820e-04,0.0021125
8.824e-04,0.00200938
8.828e-04,0.00200781
8.832e-04,0.00201406
8.836e-04,0.00207188
8.840e-04,0.00215469
8.844e-04,0.0020125
8.848e-04,0.00206719
8.852e-04,0.00201094
8.856e-04,0.00201562
8.860e-04,0.00203125
8.864e-04,0.00205938
8.868e-04,0.00202969
8.872e-04,0.00196719
8.876e-04,0.0019125
8.880e-04,0.00204063
8.884e-04,0.00203125
8.888e-04,0.00190312
8.892e-04,0.00195937
8.896e-04,0.00192969
8.900e-04,0.00196406
8.904e-04,0.00185313
8.908e-04,0.00195156
8.912e-04,0.00198594
8.916e-04,0.00200469
8.920e-04,0.00201406
8.924e-04,0.002
8.928e-04,0.00194844
8.932e-04,0.00200313
8.936e-04,0.00190625
8.940e-04,0.001925
8.944e-04,0.00186875
8.948e-04,0.00199844
8.952e-04,0.00191563
8.956e-04,0.00179219
8.960e-04,0.0018375
8.964e-04,0.00188906
8.968e-04,0.00180781
8.972e-04,0.0019
8.976e-04,0.00156094
8.980e-04,0.00179844
8.984e-04,0.00169844
8.988e-04,0.00173125
8.992e-04,0.00184687
8.996e-04,0.00175781
9.000e-04,0.00169375
9.004e-04,0.00160938
9.008e-04,0.00190312
9.012e-04,0.00197813
9.016e-04,0.00169062
9.020e-04,0.00170156
9.024e-04,0.0017375
9.028e-04,0.00167969
9.032e-04,0.00167969
9.036e-04,0.00164688
9.040e-04,0.00180625
9.044e-04,0.00170781
9.048e-04,0.0016375
9.052e-04,0.00168906
9.056e-04,0.00163594
9.060e-04,0.00167188
9.064e-04,0.00167812
9.068e-04,0.00153125
9.072e-04,0.00163906
9.076e-04,0.00168281
9.080e-04,0.00164844
9.084e-04,0.00143125
9.088e-04,0.00167031
9.092e-04,0.00171562
9.096e-04,0.00147812
9.100e-04,0.00153437
9.104e-04,0.00160156
9.108e-04,0.00152188
9.112e-04,0.00168125
9.116e-04,0.00162969
9.120e-04,0.00154062
9.124e-04,0.00150625
9.128e-04,0.00148281
9.132e-04,0.0016125
9.136e-04,0.00160625
9.140e-04,0.00158594
9.144e-04,0.00151094
9.148e-04,0.00139688
9.152e-04,0.00168437
9.156e-04,0.00147031
9.160e-04,0.0016625
9.164e-04,0.00163125
9.168e-04,0.00152969
9.172e-04,0.00150937
9.176e-04,0.00139531
9.180e-04,0.00152031
9.184e-04,0.00144531
9.188e-04,0.00141719
9.192e-04,0.00148594
9.196e-04,0.00138125
9.200e-04,0.00141719
9.204e-04,0.0013
9.208e-04,0.00128906
9.212e-04,0.00142969
9.216e-04,0.00136094
9.220e-04,0.00149063
9.224e-04,0.00133125
9.228e-04,0.00131875
9.232e-04,0.00137812
9.236e-04,0.00135156
9.240e-04,0.00143438
9.244e-04,0.00141875
9.248e-04,0.0013875
9.252e-04,0.00137188
9.256e-04,0.00131875
9.260e-04,0.00135312
9.264e-04,0.00130313
9.268e-04,0.001125
9.272e-04,0.00119844
9.276e-04,0.00129844
9.280e-04,0.00149375
9.284e-04,0.00123906
9.288e-04,0.0012375
9.292e-04,0.00131875
9.296e-04,0.00128281
9.300e-04,0.00124688
9.304e-04,0.00124062
9.308e-04,0.00130938
9.312e-04,0.0013
9.316e-04,0.00127656
9.320e-04,0.00124844
9.324e-04,0.00140937
9.328e-04,0.00108125
9.332e-04,0.00125781
9.336e-04,0.00121563
9.340e-04,0.00127969
9.344e-04,0.00110625
9.348e-04,0.00111562
9.352e-04,0.00123281
9.356e-04,0.00122188
9.360e-04,0.00117031
9.364e-04,0.001125
9.368e-04,0.00109844
9.372e-04,0.00120937
9.376e-04,0.00107344
9.380e-04,0.00123594
9.384e-04,0.00127813
9.388e-04,0.00127813
9.392e-04,0.00113281
9.396e-04,0.00120781
9.400e-04,0.00113594
