Exponential decay data/tek0043.csv

Model,DPO4054
Firmware Version,2.68

Waveform Type,ANALOG,,
Point Format,Y,,
Horizontal Units,s,,
Horizontal Scale,4e-05,,
Horizontal Delay,0.0007572,,
Sample Interval,4e-07,,
Record Length,1000,,
Gating,0.0% to 100.0%,,
Probe Attenuation,1,,
Vertical Units,V,,
Vertical Offset,0,,
Vertical Scale,0.2,,
Vertical Position,0,,
,,,
,,,
,,,
Label,,,
TIME,CH2,CH3,CH4
5.572e-04,-0.00684375,0.0181703,-0.00445313
5.576e-04,-0.0078125,0.0180484,-0.00476562
5.580e-04,-0.00771875,0.0179937,-0.00473437
5.584e-04,-0.0075,0.0180531,-0.004875
5.588e-04,-0.0075625,0.0180094,-0.0045625
5.592e-04,-0.008625,0.0180234,-0.00440625
5.596e-04,-0.0080625,0.0178937,-0.00442188
5.600e-04,-0.0076875,0.0179141,-0.00426563
5.604e-04,-0.00790625,0.0179375,-0.00485937
5.608e-04,-0.00803125,0.0178641,-0.00489063
5.612e-04,-0.00921875,0.0178078,-0.0048125
5.616e-04,-0.0085625,0.0176953,-0.0045625
5.620e-04,-0.00596875,0.0177578,-0.00398438
5.624e-04,-0.00746875,0.0176563,-0.00414063
5.628e-04,-0.00771875,0.0175281,-0.00473437
5.632e-04,-0.00828125,0.0176125,-0.004375
5.636e-04,-0.00846875,0.0176078,-0.00439063
5.640e-04,-0.00809375,0.0176328,-0.00482812
5.644e-04,-0.008,0.0174469,-0.00479687
5.648e-04,-0.00865625,0.0174234,-0.0044375
5.652e-04,-0.0078125,0.0174562,-0.00421875
5.656e-04,-0.0078125,0.0173188,-0.00460937
5.660e-04,-0.00784375,0.0173813,-0.0050625
5.664e-04,-0.00778125,0.0172891,-0.00428125
5.668e-04,-0.00809375,0.0171,-0.004875
5.672e-04,-0.00803125,0.0171109,-0.00490625
5.676e-04,-0.006875,0.0173484,-0.00434375
5.680e-04,-0.0084375,0.0171406,-0.00459375
5.684e-04,-0.0085625,0.0170859,-0.004875
5.688e-04,-0.0083125,0.0170437,-0.00445313
5.692e-04,-0.00796875,0.0170078,-0.00465625
5.696e-04,-0.00753125,0.0168172,-0.00445313
5.700e-04,-0.0076875,0.01695,-0.00446875
5.704e-04,-0.00765625,0.016925,-0.00464062
5.708e-04,-0.00803125,0.0166719,-0.00470312
5.712e-04,-0.00765625,0.0167797,-0.00484375
5.716e-04,-0.00828125,0.0169359,-0.00475
5.720e-04,-0.00840625,0.0167891,-0.0044375
5.724e-04,-0.00790625,0.0167156,-0.00420313
5.728e-04,-0.00815625,0.0166422,-0.00417188
5.732e-04,-0.0085,0.0165766,-0.00471875
5.736e-04,-0.0085625,0.0167031,-0.00467187
5.740e-04,-0.0089375,0.0165922,-0.00492188
5.744e-04,-0.00840625,0.0164422,-0.00446875
5.748e-04,-0.0065625,0.01645,-0.00389062
5.752e-04,-0.00759375,0.0164266,-0.0045625
5.756e-04,-0.0089375,0.0163328,-0.00464062
5.760e-04,-0.00809375,0.0162656,-0.00442188
5.764e-04,-0.00871875,0.0162141,-0.00448438
5.768e-04,-0.00840625,0.0162578,-0.00490625
5.772e-04,-0.0089375,0.0161375,-0.0046875
5.776e-04,-0.0081875,0.0162516,-0.0045625
5.780e-04,-0.00784375,0.0162719,-0.00420313
5.784e-04,-0.00753125,0.0161484,-0.00448438
5.788e-04,-0.0079375,0.0161,-0.00479687
5.792e-04,-0.00703125,0.0160359,-0.00432813
5.796e-04,-0.00865625,0.0159625,-0.0045625
5.800e-04,-0.00846875,0.0158875,-0.00454687
5.804e-04,-0.0073125,0.0160531,-0.004
5.808e-04,-0.00828125,0.015825,-0.00471875
5.812e-04,-0.0085625,0.0157078,-0.00451562
5.816e-04,-0.0085,0.0157906,-0.00445313
5.820e-04,-0.00853125,0.0157625,-0.00473437
5.824e-04,-0.0075625,0.0158531,-0.00445313
5.828e-04,-0.0083125,0.0156594,-0.0045625
5.832e-04,-0.00753125,0.0154828,-0.004875
5.836e-04,-0.00740625,0.0156438,-0.00446875
5.840e-04,-0.00771875,0.0157063,-0.00421875
5.844e-04,-0.00821875,0.0155797,-0.00467187
5.848e-04,-0.007875,0.0153156,-0.00432813
5.852e-04,-0.0080625,0.0155859,-0.004375
5.856e-04,-0.00828125,0.0155234,-0.00426563
5.860e-04,-0.00896875,0.0155156,-0.00478125
5.864e-04,-0.008625,0.0154016,-0.00471875
5.868e-04,-0.00909375,0.0152266,-0.00478125
5.872e-04,-0.00859375,0.0154281,-0.00440625
5.876e-04,-0.00690625,0.0153234,-0.004375
5.880e-04,-0.007625,0.0153375,-0.00392188
5.884e-04,-0.00903125,0.0151266,-0.00471875
5.888e-04,-0.008375,0.0152453,-0.004625
5.892e-04,-0.0079375,0.0151859,-0.00435938
5.896e-04,-0.0088125,0.0152016,-0.00490625
5.900e-04,-0.00834375,0.0151359,-0.00467187
5.904e-04,-0.008125,0.0150641,-0.00489063
5.908e-04,-0.008125,0.0148203,-0.0043125
5.912e-04,-0.00815625,0.0149578,-0.00442188
5.916e-04,-0.007625,0.0149125,-0.00465625
5.920e-04,-0.0076875,0.0148734,-0.00434375
5.924e-04,-0.00871875,0.0148734,-0.00510938
5.928e-04,-0.008,0.0148859,-0.00471875
5.932e-04,-0.00696875,0.0148953,-0.0043125
5.936e-04,-0.0088125,0.0147734,-0.00504688
5.940e-04,-0.0085,0.0147547,-0.00465625
5.944e-04,-0.0089375,0.0148109,-0.00482812
5.948e-04,-0.00846875,0.01465,-0.00442188
5.952e-04,-0.00775,0.01465,-0.00442188
5.956e-04,-0.008125,0.0146703,-0.00426563
5.960e-04,-0.00915625,0.0145688,-0.00476562
5.964e-04,-0.0080625,0.0146313,-0.00454687
5.968e-04,-0.00815625,0.0145359,-0.00490625
5.972e-04,-0.00778125,0.0144437,-0.00457812
5.976e-04,-0.008375,0.0144891,-0.0045
5.980e-04,-0.00778125,0.0144391,-0.004125
5.984e-04,-0.00809375,0.0142969,-0.0046875
5.988e-04,-0.008125,0.0143797,-0.00465625
5.992e-04,-0.008125,0.0143203,-0.00460937
5.996e-04,-0.0083125,0.0141406,-0.00475
6.000e-04,-0.00809375,0.0142313,-0.00465625
6.004e-04,-0.00721875,0.0140484,-0.0040625
6.008e-04,-0.00775,0.0141203,-0.004625
6.012e-04,-0.00821875,0.0142609,-0.00465625
6.016e-04,-0.00815625,0.0141891,-0.00454687
6.020e-04,-0.0086875,0.0140406,-0.004625
6.024e-04,-0.00775,0.0141516,-0.0049375
6.028e-04,-0.00909375,0.0140906,-0.00482812
6.032e-04,-0.00846875,0.0139578,-0.00476562
6.036e-04,-0.00740625,0.0140703,-0.00429688
6.040e-04,-0.00746875,0.0140078,-0.00482812
6.044e-04,-0.0084375,0.0139516,-0.0048125
6.048e-04,-0.0075625,0.0138531,-0.00459375
6.052e-04,-0.0090625,0.0138734,-0.00485937
6.056e-04,-0.00871875,0.0139438,-0.00475
6.060e-04,-0.0073125,0.0139688,-0.00429688
6.064e-04,-0.0086875,0.0137188,-0.00496875
6.068e-04,-0.00909375,0.0138094,-0.0048125
6.072e-04,-0.008875,0.0136984,-0.00509375
6.076e-04,-0.0085,0.0137578,-0.0045
6.080e-04,-0.0071875,0.0136375,-0.0043125
6.084e-04,-0.008375,0.0137063,-0.00451562
6.088e-04,-0.00771875,0.0135594,-0.00454687
6.092e-04,-0.00790625,0.0134828,-0.00490625
6.096e-04,-0.0081875,0.0133938,-0.004625
6.100e-04,-0.0088125,0.013525,-0.00470312
6.104e-04,-0.00853125,0.0134813,-0.00428125
6.108e-04,-0.00821875,0.0135281,-0.00426563
6.112e-04,-0.00840625,0.0133484,-0.00485937
6.116e-04,-0.007875,0.0132734,-0.00465625
6.120e-04,-0.00775,0.013275,-0.0046875
6.124e-04,-0.0091875,0.0133531,-0.00495313
6.128e-04,-0.00846875,0.013225,-0.00445313
6.132e-04,-0.00675,0.0132719,-0.00454687
6.136e-04,-0.00803125,0.0132609,-0.00442188
6.140e-04,-0.00828125,0.0131313,-0.00475
6.144e-04,-0.00771875,0.0131766,-0.00454687
6.148e-04,-0.00871875,0.0131078,-0.00457812
6.152e-04,-0.0079375,0.01305,-0.00464062
6.156e-04,-0.00959375,0.0129953,-0.00509375
6.160e-04,-0.008625,0.0131062,-0.00434375
6.164e-04,-0.0075625,0.0128547,-0.0045
6.168e-04,-0.007625,0.0129094,-0.00448438
6.172e-04,-0.00890625,0.0130672,-0.0048125
6.176e-04,-0.008,0.0129281,-0.0045
6.180e-04,-0.00859375,0.0128313,-0.00479687
6.184e-04,-0.0084375,0.0129641,-0.00484375
6.188e-04,-0.00746875,0.0128172,-0.00396875
6.192e-04,-0.0085625,0.0127906,-0.0050625
6.196e-04,-0.00896875,0.0128281,-0.00467187
6.200e-04,-0.00884375,0.0126844,-0.00460937
6.204e-04,-0.008625,0.0127797,-0.00451562
6.208e-04,-0.00809375,0.0127094,-0.00442188
6.212e-04,-0.008125,0.0127516,-0.00442188
6.216e-04,-0.0085625,0.0126328,-0.00479687
6.220e-04,-0.008375,0.0125328,-0.00476562
6.224e-04,-0.00790625,0.0125703,-0.00471875
6.228e-04,-0.0091875,0.0126219,-0.00460937
6.232e-04,-0.0089375,0.0124594,-0.00435938
6.236e-04,-0.00840625,0.0125156,-0.00425
6.240e-04,-0.0078125,0.0125141,-0.00429688
6.244e-04,-0.00784375,0.012575,-0.00464062
6.248e-04,-0.00865625,0.0124875,-0.00471875
6.252e-04,-0.00878125,0.0123438,-0.00479687
6.256e-04,-0.0081875,0.0122031,-0.00467187
6.260e-04,-0.00740625,0.0123516,-0.00426563
6.264e-04,-0.00771875,0.0122516,-0.00454687
6.268e-04,-0.0088125,0.0121828,-0.00459375
6.272e-04,-0.00828125,0.0123078,-0.00457812
6.276e-04,-0.008375,0.0122766,-0.00459375
6.280e-04,-0.00840625,0.0121203,-0.00482812
6.284e-04,-0.00921875,0.0121516,-0.0046875
6.288e-04,-0.0083125,0.0120734,-0.00490625
6.292e-04,-0.00790625,0.0121453,-0.00442188
6.296e-04,-0.007875,0.0120375,-0.00421875
6.300e-04,-0.00825,0.0119688,-0.0048125
6.304e-04,-0.00765625,0.0119438,-0.00440625
6.308e-04,-0.0088125,0.0119844,-0.00504688
6.312e-04,-0.00828125,0.0119109,-0.00454687
6.316e-04,-0.007125,0.0118531,-0.00420313
6.320e-04,-0.009125,0.0118406,-0.00498438
6.324e-04,-0.00896875,0.0119219,-0.004375
6.328e-04,-0.00903125,0.0117969,-0.00478125
6.332e-04,-0.00884375,0.0118344,-0.00464062
6.336e-04,-0.0076875,0.0118422,-0.00464062
6.340e-04,-0.0084375,0.0118047,-0.004375
6.344e-04,-0.00825,0.0117922,-0.00457812
6.348e-04,-0.00884375,0.0116266,-0.00475
6.352e-04,-0.00825,0.0117563,-0.00484375
6.356e-04,-0.0089375,0.0116641,-0.00457812
6.360e-04,-0.00875,0.0116813,-0.0041875
6.364e-04,-0.008125,0.0116719,-0.00421875
6.368e-04,-0.00815625,0.0115875,-0.004375
6.372e-04,-0.008625,0.0115547,-0.00467187
6.376e-04,-0.00934375,0.0116266,-0.00470312
6.380e-04,-0.0089375,0.0114375,-0.00492188
6.384e-04,-0.008625,0.0114891,-0.00467187
6.388e-04,-0.007375,0.0114766,-0.00401563
6.392e-04,-0.0084375,0.0114563,-0.00448438
6.396e-04,-0.009,0.0113906,-0.00489063
6.400e-04,-0.00890625,0.0114266,-0.00478125
6.404e-04,-0.00875,0.0112297,-0.00453125
6.408e-04,-0.008,0.0112641,-0.00464062
6.412e-04,-0.00865625,0.0112891,-0.00478125
6.416e-04,-0.00846875,0.0112844,-0.0048125
6.420e-04,-0.008125,0.0112609,-0.00434375
6.424e-04,-0.00765625,0.0112922,-0.00470312
6.428e-04,-0.00875,0.0112672,-0.00467187
6.432e-04,-0.0085,0.0111781,-0.0045
6.436e-04,-0.00903125,0.0111141,-0.00498438
6.440e-04,-0.00884375,0.0110172,-0.00492188
6.444e-04,-0.007375,0.0109844,-0.00382812
6.448e-04,-0.008875,0.0109859,-0.0051875
6.452e-04,-0.00896875,0.0109469,-0.00470312
6.456e-04,-0.0090625,0.011025,-0.00473437
6.460e-04,-0.00909375,0.0109594,-0.00457812
6.464e-04,-0.00878125,0.0109641,-0.00442188
6.468e-04,-0.008875,0.0108687,-0.00439063
6.472e-04,-0.0085625,0.0108953,-0.0044375
6.476e-04,-0.0086875,0.0109516,-0.00453125
6.480e-04,-0.00775,0.0108797,-0.00457812
6.484e-04,-0.00871875,0.0108328,-0.00490625
6.488e-04,-0.0089375,0.010825,-0.00440625
6.492e-04,-0.00865625,0.0108109,-0.00434375
6.496e-04,-0.00840625,0.0107875,-0.00489063
6.500e-04,-0.008125,0.0106828,-0.00425
6.504e-04,-0.00921875,0.0105891,-0.004875
6.508e-04,-0.008875,0.0106,-0.00489063
6.512e-04,-0.00871875,0.0106469,-0.00440625
6.516e-04,-0.007,0.0107094,-0.00417188
6.520e-04,-0.007625,0.0106063,-0.0048125
6.524e-04,-0.00871875,0.0105594,-0.0046875
6.528e-04,-0.00865625,0.0104281,-0.004625
6.532e-04,-0.0084375,0.0104938,-0.00448438
6.536e-04,-0.0084375,0.0105438,-0.00465625
6.540e-04,-0.0095,0.0104609,-0.00476562
6.544e-04,-0.0085,0.0105234,-0.00501563
6.548e-04,-0.0079375,0.0105891,-0.00451562
6.552e-04,-0.00840625,0.0103703,-0.00482812
6.556e-04,-0.00815625,0.0103375,-0.00514063
6.560e-04,-0.0086875,0.0104297,-0.00467187
6.564e-04,-0.00853125,0.0103547,-0.00470312
6.568e-04,-0.0084375,0.0104781,-0.00445313
6.572e-04,-0.0073125,0.0101813,-0.004125
6.576e-04,-0.00909375,0.010225,-0.00498438
6.580e-04,-0.00875,0.0103156,-0.004625
6.584e-04,-0.0086875,0.0102234,-0.00490625
6.588e-04,-0.00890625,0.0102672,-0.0044375
6.592e-04,-0.00803125,0.0102063,-0.00426563
6.596e-04,-0.00828125,0.00990781,-0.00421875
6.600e-04,-0.00915625,0.0100547,-0.0045
6.604e-04,-0.00909375,0.0100578,-0.0045625
6.608e-04,-0.007875,0.0101047,-0.00421875
6.612e-04,-0.00846875,0.0100125,-0.00470312
6.616e-04,-0.00803125,0.00999063,-0.00429688
6.620e-04,-0.007625,0.0100859,-0.00421875
6.624e-04,-0.00821875,0.00978594,-0.00453125
6.628e-04,-0.00771875,0.00986875,-0.00471875
6.632e-04,-0.00975,0.00998594,-0.005
6.636e-04,-0.00853125,0.00996094,-0.004625
6.640e-04,-0.00859375,0.0098375,-0.00465625
6.644e-04,-0.00771875,0.0100016,-0.00442188
6.648e-04,-0.008625,0.00983281,-0.00451562
6.652e-04,-0.00925,0.00982188,-0.00453125
6.656e-04,-0.00846875,0.00970312,-0.00459375
6.660e-04,-0.00875,0.0096875,-0.00459375
6.664e-04,-0.0075625,0.00971563,-0.00484375
6.668e-04,-0.01,0.00970156,-0.0049375
6.672e-04,-0.0084375,0.00964219,-0.00495313
6.676e-04,-0.007875,0.00965156,-0.00425
6.680e-04,-0.00778125,0.00959375,-0.00476562
6.684e-04,-0.0079375,0.00960781,-0.0046875
6.688e-04,-0.00915625,0.00955469,-0.00454687
6.692e-04,-0.00890625,0.009625,-0.00478125
6.696e-04,-0.0084375,0.00954687,-0.00470312
6.700e-04,-0.00709375,0.00962344,-0.00364063
6.704e-04,-0.00909375,0.00950781,-0.0050625
6.708e-04,-0.00871875,0.00950313,-0.00465625
6.712e-04,-0.00865625,0.00938125,-0.00478125
6.716e-04,-0.00909375,0.00941875,-0.00445313
6.720e-04,-0.00821875,0.00934219,-0.00432813
6.724e-04,-0.00834375,0.00942344,-0.0045
6.728e-04,-0.0080625,0.00945781,-0.00479687
6.732e-04,-0.008875,0.00933594,-0.00453125
6.736e-04,-0.00790625,0.00925,-0.00432813
6.740e-04,-0.00875,0.00941719,-0.00467187
6.744e-04,-0.00859375,0.00935156,-0.00429688
6.748e-04,-0.00828125,0.0093,-0.0041875
6.752e-04,-0.00828125,0.00931563,-0.00390625
6.756e-04,-0.0085625,0.00927969,-0.0045
6.760e-04,-0.00865625,0.00928594,-0.00470312
6.764e-04,-0.00915625,0.00917188,-0.00514063
6.768e-04,-0.00853125,0.00902656,-0.0046875
6.772e-04,-0.0069375,0.0091875,-0.00403125
6.776e-04,-0.0086875,0.00911563,-0.00479687
6.780e-04,-0.00846875,0.00909531,-0.00442188
6.784e-04,-0.00809375,0.00923906,-0.00440625
6.788e-04,-0.00871875,0.00900313,-0.00439063
6.792e-04,-0.00840625,0.00907344,-0.00473437
6.796e-04,-0.009875,0.00910781,-0.00517188
6.800e-04,-0.00971875,0.00891406,-0.00473437
6.804e-04,-0.00840625,0.00900469,-0.00420313
6.808e-04,-0.008375,0.00893594,-0.00510938
6.812e-04,-0.00871875,0.00901719,-0.0045625
6.816e-04,-0.009,0.00879531,-0.00471875
6.820e-04,-0.00834375,0.00879219,-0.00448438
6.824e-04,-0.008875,0.00880469,-0.00490625
6.828e-04,-0.0071875,0.00875781,-0.00385937
6.832e-04,-0.00996875,0.00870625,-0.005125
6.836e-04,-0.00859375,0.00875156,-0.00467187
6.840e-04,-0.00884375,0.00879375,-0.00471875
6.844e-04,-0.0088125,0.00872656,-0.00465625
6.848e-04,-0.0080625,0.00870625,-0.00425
6.852e-04,-0.00834375,0.00866094,-0.00476562
6.856e-04,-0.0090625,0.00874063,-0.0045
6.860e-04,-0.00915625,0.00889063,-0.00467187
6.864e-04,-0.00809375,0.00866406,-0.0044375
6.868e-04,-0.0095625,0.00859531,-0.00473437
6.872e-04,-0.0081875,0.00865,-0.004375
6.876e-04,-0.0079375,0.00848125,-0.0041875
6.880e-04,-0.008625,0.00859688,-0.00478125
6.884e-04,-0.00803125,0.00852813,-0.00448438
6.888e-04,-0.00890625,0.0084875,-0.00485937
6.892e-04,-0.0089375,0.00851875,-0.0046875
6.896e-04,-0.00859375,0.00850469,-0.00484375
6.900e-04,-0.00703125,0.00856719,-0.00415625
6.904e-04,-0.0083125,0.0086,-0.0043125
6.908e-04,-0.008375,0.00849844,-0.00465625
6.912e-04,-0.008625,0.00843125,-0.00464062
6.916e-04,-0.00796875,0.0084625,-0.00453125
6.920e-04,-0.007875,0.00838906,-0.00471875
6.924e-04,-0.00971875,0.00829844,-0.00498438
6.928e-04,-0.0086875,0.00835781,-0.00498438
6.932e-04,-0.00853125,0.00826719,-0.004125
6.936e-04,-0.00821875,0.00840938,-0.00426563
6.940e-04,-0.009375,0.00825469,-0.00470312
6.944e-04,-0.00875,0.00825,-0.00460937
6.948e-04,-0.0090625,0.00820156,-0.00479687
6.952e-04,-0.0085,0.00815313,-0.00503125
6.956e-04,-0.00759375,0.0083125,-0.00371875
6.960e-04,-0.0093125,0.00822969,-0.005125
6.964e-04,-0.00871875,0.00812344,-0.0046875
6.968e-04,-0.00928125,0.00803125,-0.0045625
6.972e-04,-0.0089375,0.00804375,-0.00473437
6.976e-04,-0.0085,0.00815469,-0.00453125
6.980e-04,-0.00828125,0.00797344,-0.00479687
6.984e-04,-0.00796875,0.00799688,-0.00460937
6.988e-04,-0.0085625,0.00810938,-0.00482812
6.992e-04,-0.00778125,0.00796875,-0.00403125
6.996e-04,-0.0084375,0.00805625,-0.00465625
7.000e-04,-0.00878125,0.00804375,-0.00426563
7.004e-04,-0.00790625,0.00800312,-0.0043125
7.008e-04,-0.0085625,0.00791563,-0.00423438
7.012e-04,-0.00846875,0.00789219,-0.00439063
7.016e-04,-0.0088125,0.00794375,-0.00475
7.020e-04,-0.009,0.00796406,-0.00460937
7.024e-04,-0.0089375,0.00790313,-0.0046875
7.028e-04,-0.00734375,0.00790781,-0.00365625
7.032e-04,-0.0080625,0.00798125,-0.00434375
7.036e-04,-0.008125,0.00765938,-0.00475
7.040e-04,-0.0088125,0.00769688,-0.00445313
7.044e-04,-0.00828125,0.00780938,-0.00439063
7.048e-04,-0.00840625,0.00774844,-0.0046875
7.052e-04,-0.00925,0.0077375,-0.00479687
7.056e-04,-0.00921875,0.00762656,-0.00465625
7.060e-04,-0.00825,0.00761875,-0.00442188
7.064e-04,-0.00775,0.00768438,-0.00451562
7.068e-04,-0.0088125,0.00757344,-0.004625
7.072e-04,-0.00859375,0.00755938,-0.00446875
7.076e-04,-0.00871875,0.00763594,-0.00471875
7.080e-04,-0.0089375,0.00760469,-0.00467187
7.084e-04,-0.007,0.00772344,-0.00421875
7.088e-04,-0.00896875,0.00743281,-0.00517188
7.092e-04,-0.009,0.0074875,-0.00459375
7.096e-04,-0.00934375,0.00749531,-0.0049375
7.100e-04,-0.00803125,0.00747031,-0.0046875
7.104e-04,-0.00734375,0.00749375,-0.00420313
7.108e-04,-0.00890625,0.00744219,-0.00470312
7.112e-04,-0.007625,0.00752344,-0.00448438
7.116e-04,-0.00878125,0.00735938,-0.00496875
7.120e-04,-0.00771875,0.00739531,-0.00428125
7.124e-04,-0.0090625,0.00737344,-0.00485937
7.128e-04,-0.00790625,0.00756563,-0.0044375
7.132e-04,-0.008625,0.00739844,-0.00446875
7.136e-04,-0.00825,0.00743906,-0.00414063
7.140e-04,-0.00775,0.00733281,-0.0044375
7.144e-04,-0.0085,0.00725469,-0.00459375
7.148e-04,-0.0091875,0.00726875,-0.00492188
7.152e-04,-0.00909375,0.00743906,-0.00467187
7.156e-04,-0.0068125,0.00735625,-0.00414063
7.160e-04,-0.00815625,0.00715156,-0.0048125
7.164e-04,-0.00796875,0.00727344,-0.00460937
7.168e-04,-0.0085,0.00721406,-0.00446875
7.172e-04,-0.00825,0.00710469,-0.0044375
7.176e-04,-0.00765625,0.00717344,-0.00460937
7.180e-04,-0.009125,0.00713594,-0.0050625
7.184e-04,-0.00896875,0.0071125,-0.00485937
7.188e-04,-0.0080625,0.00713438,-0.00426563
7.192e-04,-0.0083125,0.00707344,-0.00445313
7.196e-04,-0.0085625,0.00713594,-0.00471875
7.200e-04,-0.0081875,0.00709375,-0.0044375
7.204e-04,-0.0085,0.00704844,-0.00484375
7.208e-04,-0.00834375,0.00685781,-0.00457812
7.212e-04,-0.0063125,0.00702031,-0.00420313
7.216e-04,-0.00878125,0.00694531,-0.00509375
7.220e-04,-0.0083125,0.00701406,-0.00459375
7.224e-04,-0.0091875,0.00697344,-0.0049375
7.228e-04,-0.0090625,0.00695,-0.00457812
7.232e-04,-0.00784375,0.00697188,-0.00432813
7.236e-04,-0.00828125,0.00687344,-0.00475
7.240e-04,-0.00778125,0.00683125,-0.00457812
7.244e-04,-0.0085625,0.00685313,-0.00473437
7.248e-04,-0.007875,0.00673906,-0.00440625
7.252e-04,-0.008375,0.00690469,-0.00498438
7.256e-04,-0.00859375,0.00689844,-0.00434375
7.260e-04,-0.0081875,0.00677031,-0.00415625
7.264e-04,-0.0085,0.00679844,-0.00465625
7.268e-04,-0.0081875,0.00676094,-0.00428125
7.272e-04,-0.00878125,0.00671875,-0.00478125
7.276e-04,-0.009125,0.00667969,-0.00484375
7.280e-04,-0.00896875,0.0066,-0.00473437
7.284e-04,-0.00696875,0.00664375,-0.00359375
7.288e-04,-0.00840625,0.00658437,-0.0045
7.292e-04,-0.00821875,0.00664375,-0.004625
7.296e-04,-0.00896875,0.00668281,-0.00464062
7.300e-04,-0.0090625,0.00673906,-0.00448438
7.304e-04,-0.008125,0.00650313,-0.00459375
7.308e-04,-0.00915625,0.00664375,-0.00525
7.312e-04,-0.00934375,0.00666406,-0.004875
7.316e-04,-0.00821875,0.00655156,-0.0045625
7.320e-04,-0.00853125,0.0066375,-0.0048125
7.324e-04,-0.008875,0.00678281,-0.00489063
7.328e-04,-0.008875,0.00644844,-0.00445313
7.332e-04,-0.00846875,0.00631719,-0.005
7.336e-04,-0.0084375,0.00649688,-0.004875
7.340e-04,-0.008,0.00654688,-0.00442188
7.344e-04,-0.0099375,0.00634688,-0.00517188
7.348e-04,-0.009,0.00645469,-0.00470312
7.352e-04,-0.00896875,0.00624375,-0.0045
7.356e-04,-0.0089375,0.00625625,-0.004625
7.360e-04,-0.00859375,0.00627656,-0.00420313
7.364e-04,-0.0083125,0.00622656,-0.00501563
7.368e-04,-0.00903125,0.00640312,-0.00460937
7.372e-04,-0.008875,0.0063375,-0.00464062
7.376e-04,-0.0075625,0.0063875,-0.00404688
7.380e-04,-0.0094375,0.00622656,-0.00475
7.384e-04,-0.0086875,0.00632656,-0.00442188
7.388e-04,-0.00821875,0.00620781,-0.00439063
7.392e-04,-0.00840625,0.00618281,-0.00473437
7.396e-04,-0.00834375,0.00611563,-0.004375
7.400e-04,-0.0080625,0.00622969,-0.0046875
