Exponential decay data/tek0024.csv

Model,DPO4054
Firmware Version,2.68

Waveform Type,ANALOG
Point Format,Y
Horizontal Units,s
Horizontal Scale,0.04
Horizontal Delay,0
Sample Interval,0.0004
Record Length,1000
Gating,0.0% to 100.0%
Probe Attenuation,1
Vertical Units,V
Vertical Offset,0
Vertical Scale,0.02
Vertical Position,-4
,
,
,
Label,
TIME,CH1
-2.000e-01,0.0039375
-1.996e-01,0.00960625
-1.992e-01,0.018175
-1.988e-01,0.01245
-1.984e-01,-0.000240625
-1.980e-01,-0.000578125
-1.976e-01,-0.000175
-1.972e-01,-0.00034375
-1.968e-01,-0.00026875
-1.964e-01,-0.000325
-1.960e-01,-8.4375e-05
-1.956e-01,-0.000190625
-1.952e-01,-0.000296875
-1.948e-01,-0.0002625
-1.944e-01,-0.0002875
-1.940e-01,-0.000221875
-1.936e-01,-0.00059375
-1.932e-01,3.4375e-05
-1.928e-01,-9.0625e-05
-1.924e-01,-0.000171875
-1.920e-01,7.5e-05
-1.916e-01,0.00040625
-1.912e-01,0.000215625
-1.908e-01,-0.0002
-1.904e-01,-0.00025625
-1.900e-01,-0.000234375
-1.896e-01,0.0002625
-1.892e-01,-9.6875e-05
-1.888e-01,-0.00020625
-1.884e-01,-0.000390625
-1.880e-01,-0.0001125
-1.876e-01,-0.000409375
-1.872e-01,-9.6875e-05
-1.868e-01,-0.000271875
-1.864e-01,-0.000759375
-1.860e-01,-0.00015625
-1.856e-01,-0.000228125
-1.852e-01,-0.000221875
-1.848e-01,-0.000653125
-1.844e-01,-0.00018125
-1.840e-01,-0.0001375
-1.836e-01,-0.00023125
-1.832e-01,-0.0003625
-1.828e-01,-0.0002375
-1.824e-01,-8.4375e-05
-1.820e-01,-9.6875e-05
-1.816e-01,0.00014375
-1.812e-01,-0.0001125
-1.808e-01,-0.000128125
-1.804e-01,-9.375e-05
-1.800e-01,0.000278125
-1.796e-01,-0.000275
-1.792e-01,-0.000253125
-1.788e-01,0.00135
-1.784e-01,-0.000253125
-1.780e-01,-0.000125
-1.776e-01,-8.75e-05
-1.772e-01,-0.00060625
-1.768e-01,-2.5e-05
-1.764e-01,-0.000125
-1.760e-01,-0.000253125
-1.756e-01,0.00165938
-1.752e-01,0.0622406
-1.748e-01,0.009075
-1.744e-01,0.00950938
-1.740e-01,0.0169594
-1.736e-01,0.000290625
-1.732e-01,0.000128125
-1.728e-01,-8.75e-05
-1.724e-01,-0.000153125
-1.720e-01,-0.00015
-1.716e-01,-0.0001875
-1.712e-01,0.000271875
-1.708e-01,-0.000378125
-1.704e-01,-9.6875e-05
-1.700e-01,-0.000315625
-1.696e-01,0.00127812
-1.692e-01,6.5625e-05
-1.688e-01,-0.000475
-1.684e-01,-0.000203125
-1.680e-01,-0.000153125
-1.676e-01,0.00120625
-1.672e-01,3.75e-05
-1.668e-01,8.75e-05
-1.664e-01,9.0625e-05
-1.660e-01,0.0001375
-1.656e-01,-0.000153125
-1.652e-01,-0.000309375
-1.648e-01,-0.00011875
-1.644e-01,-0.000253125
-1.640e-01,-3.75e-05
-1.636e-01,-0.00054375
-1.632e-01,-0.000584375
-1.628e-01,-0.000403125
-1.624e-01,9.375e-05
-1.620e-01,-0.0001625
-1.616e-01,-0.0003125
-1.612e-01,1.875e-05
-1.608e-01,-0.000115625
-1.604e-01,-0.0002375
-1.600e-01,-0.0003625
-1.596e-01,-0.000103125
-1.592e-01,-0.0005125
-1.588e-01,-0.000321875
-1.584e-01,-0.000375
-1.580e-01,-0.000203125
-1.576e-01,0.00130313
-1.572e-01,0.000153125
-1.568e-01,0.000196875
-1.564e-01,-6.875e-05
-1.560e-01,-0.000221875
-1.556e-01,-5e-05
-1.552e-01,-0.00013125
-1.548e-01,-0.000328125
-1.544e-01,-9.0625e-05
-1.540e-01,7.8125e-05
-1.536e-01,3.75e-05
-1.532e-01,-0.000115625
-1.528e-01,-0.000284375
-1.524e-01,-0.000621875
-1.520e-01,0.00019375
-1.516e-01,-0.000221875
-1.512e-01,-0.000203125
-1.508e-01,-0.000115625
-1.504e-01,-6.25e-06
-1.500e-01,0.00415937
-1.496e-01,0.0091
-1.492e-01,0.0184719
-1.488e-01,0.0110062
-1.484e-01,-0.000190625
-1.480e-01,-0.000171875
-1.476e-01,-0.000259375
-1.472e-01,-0.00015
-1.468e-01,-0.00043125
-1.464e-01,-0.000290625
-1.460e-01,0.000175
-1.456e-01,-2.8125e-05
-1.452e-01,-0.000125
-1.448e-01,-0.00028125
-1.444e-01,-0.0002
-1.440e-01,-4.375e-05
-1.436e-01,-0.000503125
-1.432e-01,-9.375e-05
-1.428e-01,-0.000253125
-1.424e-01,0.00130938
-1.420e-01,0.000296875
-1.416e-01,0.00040625
-1.412e-01,0.00120937
-1.408e-01,0.000175
-1.404e-01,0.00025625
-1.400e-01,-0.000240625
-1.396e-01,-0.00023125
-1.392e-01,-0.000296875
-1.388e-01,-0.000478125
-1.384e-01,-0.000246875
-1.380e-01,-0.000321875
-1.376e-01,-0.00010625
-1.372e-01,5.3125e-05
-1.368e-01,-0.000146875
-1.364e-01,-0.000446875
-1.360e-01,-0.000315625
-1.356e-01,-0.00011875
-1.352e-01,-0.000228125
-1.348e-01,-0.000390625
-1.344e-01,-2.5e-05
-1.340e-01,-0.0002875
-1.336e-01,0.000215625
-1.332e-01,-0.000346875
-1.328e-01,0.0011875
-1.324e-01,-9.375e-06
-1.320e-01,-9.375e-06
-1.316e-01,0.00026875
-1.312e-01,9.375e-06
-1.308e-01,-0.000128125
-1.304e-01,-0.00014375
-1.300e-01,-0.0004
-1.296e-01,0.00154688
-1.292e-01,-0.00018125
-1.288e-01,0.00033125
-1.284e-01,-2.1875e-05
-1.280e-01,4.0625e-05
-1.276e-01,5.625e-05
-1.272e-01,-0.000421875
-1.268e-01,-2.8125e-05
-1.264e-01,0.00165625
-1.260e-01,3.125e-05
-1.256e-01,0.000115625
-1.252e-01,0.0523281
-1.248e-01,0.00914375
-1.244e-01,0.0095375
-1.240e-01,0.0189437
-1.236e-01,-7.1875e-05
-1.232e-01,6.25e-06
-1.228e-01,0.000328125
-1.224e-01,-3.125e-05
-1.220e-01,-6.25e-06
-1.216e-01,-0.000178125
-1.212e-01,-0.0001
-1.208e-01,1.25e-05
-1.204e-01,-0.000290625
-1.200e-01,3.125e-05
-1.196e-01,-1.5625e-05
-1.192e-01,0.0002625
-1.188e-01,0.00011875
-1.184e-01,-0.0002125
-1.180e-01,-0.000365625
-1.176e-01,0.00071875
-1.172e-01,5e-05
-1.168e-01,-2.8125e-05
-1.164e-01,0.00033125
-1.160e-01,-0.000290625
-1.156e-01,-0.0005125
-1.152e-01,-0.000215625
-1.148e-01,9.375e-06
-1.144e-01,5.625e-05
-1.140e-01,-0.00034375
-1.136e-01,-0.000153125
-1.132e-01,-0.000521875
-1.128e-01,-0.0001
-1.124e-01,-3.125e-06
-1.120e-01,-0.000365625
-1.116e-01,-0.00014375
-1.112e-01,-0.00031875
-1.108e-01,-0.000296875
-1.104e-01,-9.6875e-05
-1.100e-01,-0.00043125
-1.096e-01,-0.00015
-1.092e-01,8.75e-05
-1.088e-01,9.6875e-05
-1.084e-01,-0.00015
-1.080e-01,0.000134375
-1.076e-01,0.00100625
-1.072e-01,0.00018125
-1.068e-01,-3.125e-05
-1.064e-01,0.000103125
-1.060e-01,-5.3125e-05
-1.056e-01,-0.00046875
-1.052e-01,-0.000375
-1.048e-01,-0.00036875
-1.044e-01,-0.000128125
-1.040e-01,-8.4375e-05
-1.036e-01,-0.000315625
-1.032e-01,-0.00036875
-1.028e-01,-0.00031875
-1.024e-01,-0.000340625
-1.020e-01,-9.375e-06
-1.016e-01,-0.000234375
-1.012e-01,-0.000146875
-1.008e-01,-0.000128125
-1.004e-01,0.00122187
-1.000e-01,0.0103063
-9.960e-02,0.00908125
-9.920e-02,0.017975
-9.880e-02,0.010975
-9.840e-02,0.000103125
-9.800e-02,-0.00028125
-9.760e-02,-0.0003375
-9.720e-02,-0.000228125
-9.680e-02,-0.00050625
-9.640e-02,-0.000275
-9.600e-02,5e-05
-9.560e-02,-0.000259375
-9.520e-02,-0.0007
-9.480e-02,-0.0003
-9.440e-02,-0.0003125
-9.400e-02,-0.00031875
-9.360e-02,3.125e-05
-9.320e-02,0.000384375
-9.280e-02,-6.5625e-05
-9.240e-02,7.8125e-05
-9.200e-02,-7.5e-05
-9.160e-02,0.000259375
-9.120e-02,0.00177187
-9.080e-02,-0.000378125
-9.040e-02,3.75e-05
-9.000e-02,0.0013125
-8.960e-02,-0.00034375
-8.920e-02,-0.00015625
-8.880e-02,-4.0625e-05
-8.840e-02,-0.00055
-8.800e-02,-0.00051875
-8.760e-02,-0.000325
-8.720e-02,-0.000184375
-8.680e-02,-0.000609375
-8.640e-02,-0.000271875
-8.600e-02,-8.125e-05
-8.560e-02,-0.00033125
-8.520e-02,-0.00025625
-8.480e-02,-0.0005625
-8.440e-02,-0.0003
-8.400e-02,-0.000290625
-8.360e-02,-0.000234375
-8.320e-02,-0.00021875
-8.280e-02,-5e-05
-8.240e-02,0.000153125
-8.200e-02,0.00024375
-8.160e-02,0.0001875
-8.120e-02,0.000109375
-8.080e-02,5.9375e-05
-8.040e-02,0.0017125
-8.000e-02,0.00021875
-7.960e-02,-0.000134375
-7.920e-02,-0.000309375
-7.880e-02,2.5e-05
-7.840e-02,-0.000134375
-7.800e-02,-0.000296875
-7.760e-02,-5.625e-05
-7.720e-02,0.00195
-7.680e-02,-0.000378125
-7.640e-02,0.000190625
-7.600e-02,8.75e-05
-7.560e-02,-0.00045
-7.520e-02,0.0133188
-7.480e-02,0.00895625
-7.440e-02,0.0109281
-7.400e-02,0.0193687
-7.360e-02,-0.0004
-7.320e-02,-0.000203125
-7.280e-02,0.0019375
-7.240e-02,-0.00029375
-7.200e-02,0.000125
-7.160e-02,0.00186562
-7.120e-02,-0.000246875
-7.080e-02,-9.375e-06
-7.040e-02,9.375e-05
-7.000e-02,0.00109062
-6.960e-02,-0.00016875
-6.920e-02,-0.000134375
-6.880e-02,0.000115625
-6.840e-02,-0.000134375
-6.800e-02,0.00103125
-6.760e-02,-0.00013125
-6.720e-02,-0.0001625
-6.680e-02,-5.625e-05
-6.640e-02,-9.375e-06
-6.600e-02,-0.0001125
-6.560e-02,-0.000365625
-6.520e-02,-0.0001875
-6.480e-02,-0.000190625
-6.440e-02,-0.000378125
-6.400e-02,-0.00018125
-6.360e-02,-0.0004
-6.320e-02,-0.000403125
-6.280e-02,-6.25e-05
-6.240e-02,-0.000346875
-6.200e-02,-0.000265625
-6.160e-02,3.75e-05
-6.120e-02,-0.000496875
-6.080e-02,-0.000225
-6.040e-02,-0.000221875
-6.000e-02,-0.000321875
-5.960e-02,-0.00019375
-5.920e-02,-0.000246875
-5.880e-02,-0.00019375
-5.840e-02,-0.0001625
-5.800e-02,-0.000390625
-5.760e-02,9.375e-05
-5.720e-02,0.000128125
-5.680e-02,5e-05
-5.640e-02,-0.00011875
-5.600e-02,-0.000146875
-5.560e-02,-0.000140625
-5.520e-02,-0.000453125
-5.480e-02,-3.125e-06
-5.440e-02,2.1875e-05
-5.400e-02,-0.00030625
-5.360e-02,-0.00016875
-5.320e-02,-0.000521875
-5.280e-02,-0.0003375
-5.240e-02,-0.000396875
-5.200e-02,-0.00023125
-5.160e-02,2.8125e-05
-5.120e-02,-0.000246875
-5.080e-02,-0.00026875
-5.040e-02,0.000721875
-5.000e-02,0.00534375
-4.960e-02,0.00900313
-4.920e-02,0.0177406
-4.880e-02,0.011075
-4.840e-02,-0.000140625
-4.800e-02,-0.00059375
-4.760e-02,-0.0002375
-4.720e-02,2.5e-05
-4.680e-02,-0.000475
-4.640e-02,-0.00036875
-4.600e-02,-0.0002375
-4.560e-02,-0.000190625
-4.520e-02,-0.000115625
-4.480e-02,-0.0004875
-4.440e-02,0.000196875
-4.400e-02,-0.00010625
-4.360e-02,-3.4375e-05
-4.320e-02,-0.000128125
-4.280e-02,5e-05
-4.240e-02,-0.0003
-4.200e-02,0.00192188
-4.160e-02,3.4375e-05
-4.120e-02,0.000203125
-4.080e-02,7.8125e-05
-4.040e-02,-0.0003875
-4.000e-02,9.375e-06
-3.960e-02,3.125e-05
-3.920e-02,-0.000490625
-3.880e-02,-0.000265625
-3.840e-02,-0.000296875
-3.800e-02,-6.875e-05
-3.760e-02,-0.00030625
-3.720e-02,-0.000365625
-3.680e-02,-0.000353125
-3.640e-02,0
-3.600e-02,-9.375e-05
-3.560e-02,-0.000171875
-3.520e-02,0
-3.480e-02,-0.000140625
-3.440e-02,-0.000159375
-3.400e-02,-0.000421875
-3.360e-02,5e-05
-3.320e-02,-0.000115625
-3.280e-02,4.6875e-05
-3.240e-02,-7.5e-05
-3.200e-02,-8.75e-05
-3.160e-02,0.000265625
-3.120e-02,0.00177812
-3.080e-02,-0.000315625
-3.040e-02,3.75e-05
-3.000e-02,-0.000334375
-2.960e-02,-8.125e-05
-2.920e-02,-0.00049375
-2.880e-02,-0.000175
-2.840e-02,9.0625e-05
-2.800e-02,0.0017625
-2.760e-02,-1.875e-05
-2.720e-02,0.0001625
-2.680e-02,-6.5625e-05
-2.640e-02,-0.000134375
-2.600e-02,-6.875e-05
-2.560e-02,-0.000146875
-2.520e-02,0.0047
-2.480e-02,0.00965937
-2.440e-02,0.0135094
-2.400e-02,0.0194406
-2.360e-02,-7.8125e-05
-2.320e-02,-7.1875e-05
-2.280e-02,-0.000134375
-2.240e-02,-0.000115625
-2.200e-02,-0.000253125
-2.160e-02,-2.8125e-05
-2.120e-02,-0.000134375
-2.080e-02,0.00126562
-2.040e-02,0.000125
-2.000e-02,0.000190625
-1.960e-02,-2.8125e-05
-1.920e-02,-8.4375e-05
-1.880e-02,0.000215625
-1.840e-02,-0.000115625
-1.800e-02,-0.00050625
-1.760e-02,-5.625e-05
-1.720e-02,-0.000134375
-1.680e-02,-2.5e-05
-1.640e-02,0.000215625
-1.600e-02,-0.0003375
-1.560e-02,-0.00020625
-1.520e-02,-0.00031875
-1.480e-02,-0.0002625
-1.440e-02,-0.000196875
-1.400e-02,-0.00020625
-1.360e-02,-0.00020625
-1.320e-02,-5.9375e-05
-1.280e-02,-0.00039375
-1.240e-02,3.125e-05
-1.200e-02,1.5625e-05
-1.160e-02,-0.00021875
-1.120e-02,-0.000171875
-1.080e-02,-0.0001125
-1.040e-02,-0.000578125
-1.000e-02,-0.000228125
-9.600e-03,-5.625e-05
-9.200e-03,-0.000165625
-8.800e-03,0.0001625
-8.400e-03,-0.00031875
-8.000e-03,-0.000334375
-7.600e-03,6.5625e-05
-7.200e-03,1.5625e-05
-6.800e-03,1.875e-05
-6.400e-03,-0.000121875
-6.000e-03,-0.0002
-5.600e-03,-0.0002375
-5.200e-03,-0.0002
-4.800e-03,-0.000125
-4.400e-03,-8.125e-05
-4.000e-03,-0.000196875
-3.600e-03,-0.00020625
-3.200e-03,-1.875e-05
-2.800e-03,-0.00051875
-2.400e-03,-0.00025
-2.000e-03,-0.0005
-1.600e-03,-0.00059375
-1.200e-03,-0.0003125
-8.000e-04,-0.00041875
-4.000e-04,0.00137812
2.000e-15,0.0100781
4.000e-04,0.00918437
8.000e-04,0.0147469
1.200e-03,0.0143188
1.600e-03,-0.000109375
2.000e-03,-0.00023125
2.400e-03,-0.000209375
2.800e-03,-0.0001
3.200e-03,-0.0005625
3.600e-03,-0.000309375
4.000e-03,-9.6875e-05
4.400e-03,-0.0001
4.800e-03,-0.000284375
5.200e-03,-4.375e-05
5.600e-03,-0.00043125
6.000e-03,-0.0001125
6.400e-03,-0.00028125
6.800e-03,6.5625e-05
7.200e-03,-0.000175
7.600e-03,-0.000196875
8.000e-03,0.00025
8.400e-03,0.000128125
8.800e-03,3.4375e-05
9.200e-03,-0.000196875
9.600e-03,-0.000503125
1.000e-02,2.1875e-05
1.040e-02,-0.00046875
1.080e-02,-0.000425
1.120e-02,-6.875e-05
1.160e-02,-5.3125e-05
1.200e-02,8.125e-05
1.240e-02,0.0001375
1.280e-02,-0.000415625
1.320e-02,-0.000815625
1.360e-02,-0.00028125
1.400e-02,-0.0001375
1.440e-02,-0.0002625
1.480e-02,-0.00033125
1.520e-02,-7.1875e-05
1.560e-02,3.75e-05
1.600e-02,-0.000390625
1.640e-02,-0.000525
1.680e-02,-0.000259375
1.720e-02,-0.0003
1.760e-02,1.25e-05
1.800e-02,-4.375e-05
1.840e-02,0.00036875
1.880e-02,0.000240625
1.920e-02,-4.0625e-05
1.960e-02,-0.000275
2.000e-02,0.000190625
2.040e-02,-0.000403125
2.080e-02,9.375e-06
2.120e-02,0.0015
2.160e-02,-0.000265625
2.200e-02,6.25e-05
2.240e-02,0.000296875
2.280e-02,-0.00016875
2.320e-02,6.875e-05
2.360e-02,-0.000240625
2.400e-02,-0.000203125
2.440e-02,0.00138125
2.480e-02,0.0027875
2.520e-02,0.00943125
2.560e-02,0.0148156
2.600e-02,0.019025
2.640e-02,-0.000184375
2.680e-02,0.000296875
2.720e-02,-0.000196875
2.760e-02,-0.000228125
2.800e-02,-9.375e-06
2.840e-02,-0.000171875
2.880e-02,-0.00011875
2.920e-02,3.75e-05
2.960e-02,-5e-05
3.000e-02,-3.125e-05
3.040e-02,-0.000284375
3.080e-02,-0.00010625
3.120e-02,-0.00026875
3.160e-02,-4.0625e-05
3.200e-02,-0.000365625
3.240e-02,-0.00020625
3.280e-02,-9.375e-06
3.320e-02,-8.4375e-05
3.360e-02,0.000446875
3.400e-02,-0.00028125
3.440e-02,0.000140625
3.480e-02,-0.0003625
3.520e-02,-0.00046875
3.560e-02,-0.000165625
3.600e-02,-0.000165625
3.640e-02,-0.0002
3.680e-02,8.4375e-05
3.720e-02,3.75e-05
3.760e-02,-0.000428125
3.800e-02,1.25e-05
3.840e-02,-0.000309375
3.880e-02,-0.00038125
3.920e-02,-0.000125
3.960e-02,-0.00068125
4.000e-02,-0.000209375
4.040e-02,-0.0005625
4.080e-02,-0.000309375
4.120e-02,-0.000290625
4.160e-02,-0.00024375
4.200e-02,-0.000375
4.240e-02,0.0001125
4.280e-02,-3.4375e-05
4.320e-02,-7.8125e-05
4.360e-02,0.0001625
4.400e-02,-0.0004125
4.440e-02,-0.000209375
4.480e-02,-0.0004
4.520e-02,-0.000340625
4.560e-02,-0.00035625
4.600e-02,-0.000159375
4.640e-02,-0.00015
4.680e-02,-0.000171875
4.720e-02,-0.000528125
4.760e-02,5.9375e-05
4.800e-02,-0.000275
4.840e-02,-8.4375e-05
4.880e-02,-0.000303125
4.920e-02,-0.0005375
4.960e-02,0.00179688
5.000e-02,0.0117781
5.040e-02,0.009025
5.080e-02,0.01245
5.120e-02,0.00699063
5.160e-02,-0.000303125
5.200e-02,-0.0002125
5.240e-02,-0.0001125
5.280e-02,-0.0004125
5.320e-02,-0.000340625
5.360e-02,0.00015625
5.400e-02,-0.00018125
5.440e-02,-0.000278125
5.480e-02,-7.5e-05
5.520e-02,-0.00045625
5.560e-02,-0.00046875
5.600e-02,-0.000334375
5.640e-02,-1.875e-05
5.680e-02,-0.00016875
5.720e-02,-8.4375e-05
5.760e-02,0.00109687
5.800e-02,0.000203125
5.840e-02,-8.75e-05
5.880e-02,0.00105
5.920e-02,-2.5e-05
5.960e-02,-0.00020625
6.000e-02,-0.000259375
6.040e-02,-0.00039375
6.080e-02,-0.00023125
6.120e-02,-0.000225
6.160e-02,-0.000328125
6.200e-02,-0.0003375
6.240e-02,0.000259375
6.280e-02,-0.0001
6.320e-02,-0.000225
6.360e-02,-0.000171875
6.400e-02,-0.000384375
6.440e-02,-0.00054375
6.480e-02,-0.0002125
6.520e-02,-0.000484375
6.560e-02,-9.0625e-05
6.600e-02,5e-05
6.640e-02,-0.00038125
6.680e-02,-0.000203125
6.720e-02,-0.00015625
6.760e-02,0.000125
6.800e-02,0
6.840e-02,-0.000234375
6.880e-02,0.000171875
6.920e-02,-2.5e-05
6.960e-02,-0.0003125
7.000e-02,0.00014375
7.040e-02,0.00169375
7.080e-02,-0.000240625
7.120e-02,7.8125e-05
7.160e-02,-0.000190625
7.200e-02,0.000203125
7.240e-02,0.000203125
7.280e-02,-0.000190625
7.320e-02,-0.000134375
7.360e-02,0.0014
7.400e-02,-0.00039375
7.440e-02,-0.00034375
7.480e-02,0.00440312
7.520e-02,0.00925313
7.560e-02,0.0143469
7.600e-02,0.0158781
7.640e-02,-0.000209375
7.680e-02,-9.375e-05
7.720e-02,-0.00030625
7.760e-02,4.6875e-05
7.800e-02,-0.000196875
7.840e-02,-0.0003875
7.880e-02,-0.00026875
7.920e-02,-8.4375e-05
7.960e-02,-0.000159375
8.000e-02,-0.000128125
8.040e-02,-0.000175
8.080e-02,9.375e-05
8.120e-02,-0.000153125
8.160e-02,-0.00015625
8.200e-02,-0.000234375
8.240e-02,0.000225
8.280e-02,-0.000196875
8.320e-02,9.0625e-05
8.360e-02,-0.000171875
8.400e-02,-5.9375e-05
8.440e-02,-0.0002625
8.480e-02,3.75e-05
8.520e-02,-0.000240625
8.560e-02,-0.000215625
8.600e-02,-0.0003
8.640e-02,6.25e-06
8.680e-02,-0.000496875
8.720e-02,-3.4375e-05
8.760e-02,-0.000103125
8.800e-02,-0.00063125
8.840e-02,-0.000121875
8.880e-02,-0.00046875
8.920e-02,-9.375e-05
8.960e-02,-0.0001
9.000e-02,-0.000440625
9.040e-02,-0.000503125
9.080e-02,3.125e-06
9.120e-02,-0.00024375
9.160e-02,4.0625e-05
9.200e-02,-6.25e-05
9.240e-02,-0.00016875
9.280e-02,-7.1875e-05
9.320e-02,0.0001625
9.360e-02,-0.00010625
9.400e-02,-0.00020625
9.440e-02,-0.0003625
9.480e-02,8.125e-05
9.520e-02,-0.000321875
9.560e-02,-0.000346875
9.600e-02,-0.00051875
9.640e-02,-0.00049375
9.680e-02,-0.0005125
9.720e-02,-0.000175
9.760e-02,-0.000221875
9.800e-02,0.00025
9.840e-02,-0.00028125
9.880e-02,3.125e-06
9.920e-02,-0.00021875
9.960e-02,0.00355625
1.000e-01,0.0115563
1.004e-01,0.0093875
1.008e-01,0.0119875
1.012e-01,0.0018
1.016e-01,-0.0001625
1.020e-01,0.00021875
1.024e-01,-7.8125e-05
1.028e-01,-0.000171875
1.032e-01,-0.000259375
1.036e-01,-0.0002375
1.040e-01,-0.00028125
1.044e-01,-0.0003125
1.048e-01,-0.00034375
1.052e-01,-0.0002375
1.056e-01,-0.0003625
1.060e-01,-0.000465625
1.064e-01,-0.0001125
1.068e-01,-0.00026875
1.072e-01,7.1875e-05
1.076e-01,0.00014375
1.080e-01,0.00105
1.084e-01,-4.375e-05
1.088e-01,0.000675
1.092e-01,1.875e-05
1.096e-01,-0.000396875
1.100e-01,0.00159062
1.104e-01,-0.000234375
1.108e-01,-0.000175
1.112e-01,-8.75e-05
1.116e-01,-0.000121875
1.120e-01,-0.000478125
1.124e-01,-8.4375e-05
1.128e-01,-0.000309375
1.132e-01,-0.0001875
1.136e-01,4.375e-05
1.140e-01,-0.0002625
1.144e-01,-0.000134375
1.148e-01,-0.000159375
1.152e-01,-5.3125e-05
1.156e-01,-0.000375
1.160e-01,-0.00018125
1.164e-01,-0.00055
1.168e-01,-0.000221875
1.172e-01,-0.00033125
1.176e-01,-1.875e-05
1.180e-01,0.00020625
1.184e-01,9.0625e-05
1.188e-01,2.1875e-05
1.192e-01,-3.4375e-05
1.196e-01,0.00170312
1.200e-01,-0.00025625
1.204e-01,-5.3125e-05
1.208e-01,-0.0002375
1.212e-01,-4.375e-05
1.216e-01,-0.000265625
1.220e-01,-0.000246875
1.224e-01,-0.000240625
1.228e-01,0.00164687
1.232e-01,-0.00046875
1.236e-01,0.0001375
1.240e-01,-8.75e-05
1.244e-01,1.875e-05
1.248e-01,0.00383438
1.252e-01,0.00885
1.256e-01,0.0139656
1.260e-01,0.0136469
1.264e-01,-0.000121875
1.268e-01,-0.0004625
1.272e-01,0.00190625
1.276e-01,0.000940625
1.280e-01,0.0002875
1.284e-01,0.000328125
1.288e-01,-0.0002
1.292e-01,-6.875e-05
1.296e-01,-0.00020625
1.300e-01,0.00023125
1.304e-01,-0.000221875
1.308e-01,-5.3125e-05
1.312e-01,-0.00034375
1.316e-01,-0.000321875
1.320e-01,0.00100937
1.324e-01,-0.000290625
1.328e-01,-0.0003625
1.332e-01,-0.0001125
1.336e-01,-0.000375
1.340e-01,-0.000453125
1.344e-01,-0.000278125
1.348e-01,-0.00035625
1.352e-01,5e-05
1.356e-01,-0.000121875
1.360e-01,6.25e-06
1.364e-01,-0.00031875
1.368e-01,-0.000284375
1.372e-01,-0.000153125
1.376e-01,-0.00024375
1.380e-01,-0.000159375
1.384e-01,-0.000340625
1.388e-01,-0.0002375
1.392e-01,-0.0002125
1.396e-01,-9.0625e-05
1.400e-01,-0.000315625
1.404e-01,-0.0003375
1.408e-01,-0.000428125
1.412e-01,-0.00034375
1.416e-01,-0.00035625
1.420e-01,3.75e-05
1.424e-01,0.000253125
1.428e-01,8.75e-05
1.432e-01,-1.5625e-05
1.436e-01,0.00010625
1.440e-01,-0.000171875
1.444e-01,-0.00019375
1.448e-01,-0.000175
1.452e-01,-0.0002125
1.456e-01,-0.00014375
1.460e-01,-0.000203125
1.464e-01,-0.000121875
1.468e-01,1.875e-05
1.472e-01,-0.000271875
1.476e-01,-0.000384375
1.480e-01,-0.000503125
1.484e-01,-0.000190625
1.488e-01,-0.000353125
1.492e-01,-0.000303125
1.496e-01,0.00353437
1.500e-01,0.0100969
1.504e-01,0.00970625
1.508e-01,0.0114094
1.512e-01,0.00125625
1.516e-01,0.00015625
1.520e-01,-0.000584375
1.524e-01,-0.00020625
1.528e-01,-0.000309375
1.532e-01,-0.00029375
1.536e-01,-0.00061875
1.540e-01,-0.000284375
1.544e-01,-0.000184375
1.548e-01,-0.0002875
1.552e-01,-0.00016875
1.556e-01,-0.0004125
1.560e-01,-0.000275
1.564e-01,-0.00045
1.568e-01,-0.000284375
1.572e-01,-0.000371875
1.576e-01,-0.000140625
1.580e-01,0.0018625
1.584e-01,-1.25e-05
1.588e-01,-0.000275
1.592e-01,-0.00024375
