Exponential decay data/tek0053.csv

Model,DPO4054
Firmware Version,2.68

Waveform Type,ANALOG
Point Format,Y
Horizontal Units,s
Horizontal Scale,4e-05
Horizontal Delay,0.0007592
Sample Interval,4e-07
Record Length,1000
Gating,0.0% to 100.0%
Probe Attenuation,10
Vertical Units,V
Vertical Offset,0
Vertical Scale,0.01
Vertical Position,0
,
,
,
Label,
TIME,CH3
5.592e-04,0.0173703
5.596e-04,0.0174313
5.600e-04,0.0173859
5.604e-04,0.0172453
5.608e-04,0.01725
5.612e-04,0.0171359
5.616e-04,0.0171344
5.620e-04,0.0170281
5.624e-04,0.0171609
5.628e-04,0.0172031
5.632e-04,0.0170203
5.636e-04,0.0169797
5.640e-04,0.0169422
5.644e-04,0.0168562
5.648e-04,0.0167312
5.652e-04,0.0168313
5.656e-04,0.0166406
5.660e-04,0.0167766
5.664e-04,0.0165563
5.668e-04,0.0166516
5.672e-04,0.0165375
5.676e-04,0.0165813
5.680e-04,0.0164531
5.684e-04,0.0165188
5.688e-04,0.0163859
5.692e-04,0.0164438
5.696e-04,0.0163766
5.700e-04,0.0164063
5.704e-04,0.0163734
5.708e-04,0.0162031
5.712e-04,0.0164094
5.716e-04,0.0164641
5.720e-04,0.0161344
5.724e-04,0.0160781
5.728e-04,0.0160031
5.732e-04,0.0160516
5.736e-04,0.0161047
5.740e-04,0.0159156
5.744e-04,0.0160078
5.748e-04,0.0159188
5.752e-04,0.0158484
5.756e-04,0.0157578
5.760e-04,0.0158984
5.764e-04,0.0155531
5.768e-04,0.0157859
5.772e-04,0.0157344
5.776e-04,0.0156047
5.780e-04,0.0155672
5.784e-04,0.0157156
5.788e-04,0.0155125
5.792e-04,0.0155625
5.796e-04,0.0153813
5.800e-04,0.0154953
5.804e-04,0.0154656
5.808e-04,0.0154297
5.812e-04,0.0154109
5.816e-04,0.0152219
5.820e-04,0.0152703
5.824e-04,0.0152078
5.828e-04,0.0151234
5.832e-04,0.0151719
5.836e-04,0.0150172
5.840e-04,0.0151016
5.844e-04,0.0150422
5.848e-04,0.0149219
5.852e-04,0.0148984
5.856e-04,0.0151219
5.860e-04,0.0146453
5.864e-04,0.0148813
5.868e-04,0.01495
5.872e-04,0.0148719
5.876e-04,0.0146438
5.880e-04,0.0148094
5.884e-04,0.0147219
5.888e-04,0.0147391
5.892e-04,0.0148703
5.896e-04,0.0145984
5.900e-04,0.0147063
5.904e-04,0.0145891
5.908e-04,0.0146812
5.912e-04,0.0146375
5.916e-04,0.0145141
5.920e-04,0.0143594
5.924e-04,0.0145219
5.928e-04,0.0144
5.932e-04,0.0144594
5.936e-04,0.0143375
5.940e-04,0.0142234
5.944e-04,0.0141984
5.948e-04,0.0142891
5.952e-04,0.0143266
5.956e-04,0.0139688
5.960e-04,0.0140656
5.964e-04,0.0140922
5.968e-04,0.0141281
5.972e-04,0.0138859
5.976e-04,0.0139797
5.980e-04,0.0140969
5.984e-04,0.0138281
5.988e-04,0.0140125
5.992e-04,0.0138469
5.996e-04,0.0138875
6.000e-04,0.0138188
6.004e-04,0.0137281
6.008e-04,0.0138188
6.012e-04,0.0137547
6.016e-04,0.0136078
6.020e-04,0.0136797
6.024e-04,0.0136391
6.028e-04,0.0132984
6.032e-04,0.0135672
6.036e-04,0.0132906
6.040e-04,0.0134859
6.044e-04,0.0134219
6.048e-04,0.0132688
6.052e-04,0.0134922
6.056e-04,0.0131734
6.060e-04,0.0132281
6.064e-04,0.0134438
6.068e-04,0.0134828
6.072e-04,0.0132703
6.076e-04,0.0131594
6.080e-04,0.0133328
6.084e-04,0.0131828
6.088e-04,0.0130516
6.092e-04,0.0131516
6.096e-04,0.0131047
6.100e-04,0.0131672
6.104e-04,0.0130906
6.108e-04,0.0129422
6.112e-04,0.0130094
6.116e-04,0.0129625
6.120e-04,0.0130531
6.124e-04,0.0128281
6.128e-04,0.0129047
6.132e-04,0.0127203
6.136e-04,0.0128781
6.140e-04,0.0128172
6.144e-04,0.0127813
6.148e-04,0.0127656
6.152e-04,0.0128
6.156e-04,0.0125391
6.160e-04,0.0126797
6.164e-04,0.0126297
6.168e-04,0.0124703
6.172e-04,0.0125906
6.176e-04,0.0124781
6.180e-04,0.0124875
6.184e-04,0.0124875
6.188e-04,0.0123563
6.192e-04,0.0122063
6.196e-04,0.0123
6.200e-04,0.0123703
6.204e-04,0.01235
6.208e-04,0.0124266
6.212e-04,0.0123344
6.216e-04,0.0122984
6.220e-04,0.0121578
6.224e-04,0.0122766
6.228e-04,0.0120797
6.232e-04,0.0123203
6.236e-04,0.0120219
6.240e-04,0.0121609
6.244e-04,0.0120063
6.248e-04,0.0119672
6.252e-04,0.0121219
6.256e-04,0.0120063
6.260e-04,0.0120016
6.264e-04,0.0119188
6.268e-04,0.0119453
6.272e-04,0.0118297
6.276e-04,0.0118906
6.280e-04,0.0118922
6.284e-04,0.0117828
6.288e-04,0.0118234
6.292e-04,0.0119188
6.296e-04,0.0116375
6.300e-04,0.0118203
6.304e-04,0.0116438
6.308e-04,0.0116938
6.312e-04,0.0118031
6.316e-04,0.0116672
6.320e-04,0.0116047
6.324e-04,0.0115016
6.328e-04,0.0114328
6.332e-04,0.0115641
6.336e-04,0.0115641
6.340e-04,0.0115891
6.344e-04,0.0115063
6.348e-04,0.0113813
6.352e-04,0.0115188
6.356e-04,0.0113125
6.360e-04,0.0113406
6.364e-04,0.011225
6.368e-04,0.0112609
6.372e-04,0.0111234
6.376e-04,0.0110922
6.380e-04,0.0112719
6.384e-04,0.0112984
6.388e-04,0.0110344
6.392e-04,0.0110406
6.396e-04,0.0111813
6.400e-04,0.0111859
6.404e-04,0.0111125
6.408e-04,0.0111719
6.412e-04,0.0109438
6.416e-04,0.0109
6.420e-04,0.0109594
6.424e-04,0.0110406
6.428e-04,0.0108453
6.432e-04,0.0108266
6.436e-04,0.0110109
6.440e-04,0.0109563
6.444e-04,0.010825
6.448e-04,0.0107703
6.452e-04,0.0107688
6.456e-04,0.0107125
6.460e-04,0.0108422
6.464e-04,0.0108656
6.468e-04,0.0107922
6.472e-04,0.0105594
6.476e-04,0.0105422
6.480e-04,0.0105828
6.484e-04,0.0106266
6.488e-04,0.0105469
6.492e-04,0.0105266
6.496e-04,0.0104125
6.500e-04,0.01045
6.504e-04,0.0105234
6.508e-04,0.0102906
6.512e-04,0.0104156
6.516e-04,0.0103406
6.520e-04,0.0101734
6.524e-04,0.0104125
6.528e-04,0.0102
6.532e-04,0.0102547
6.536e-04,0.0102484
6.540e-04,0.0101937
6.544e-04,0.0101391
6.548e-04,0.0101797
6.552e-04,0.0102469
6.556e-04,0.0102547
6.560e-04,0.0101266
6.564e-04,0.0100438
6.568e-04,0.0101281
6.572e-04,0.00994375
6.576e-04,0.00998906
6.580e-04,0.0100641
6.584e-04,0.00994531
6.588e-04,0.0100656
6.592e-04,0.0100609
6.596e-04,0.00984687
6.600e-04,0.00972656
6.604e-04,0.00993438
6.608e-04,0.00999844
6.612e-04,0.00995313
6.616e-04,0.00983438
6.620e-04,0.00980781
6.624e-04,0.0100063
6.628e-04,0.00977344
6.632e-04,0.00967187
6.636e-04,0.00976406
6.640e-04,0.00970156
6.644e-04,0.0097375
6.648e-04,0.00962656
6.652e-04,0.00968125
6.656e-04,0.00945
6.660e-04,0.00943125
6.664e-04,0.00952813
6.668e-04,0.0094375
6.672e-04,0.00951562
6.676e-04,0.00946563
6.680e-04,0.00944063
6.684e-04,0.00942031
6.688e-04,0.0094375
6.692e-04,0.00929063
6.696e-04,0.00942656
6.700e-04,0.00941719
6.704e-04,0.00925469
6.708e-04,0.00944375
6.712e-04,0.00939375
6.716e-04,0.00909844
6.720e-04,0.00921875
6.724e-04,0.00909844
6.728e-04,0.00908438
6.732e-04,0.00908906
6.736e-04,0.00905
6.740e-04,0.00921406
6.744e-04,0.00923906
6.748e-04,0.00920313
6.752e-04,0.00917656
6.756e-04,0.00899375
6.760e-04,0.00885156
6.764e-04,0.00918906
6.768e-04,0.00893594
6.772e-04,0.00895938
6.776e-04,0.00894063
6.780e-04,0.00896875
6.784e-04,0.00881875
6.788e-04,0.00891719
6.792e-04,0.0089
6.796e-04,0.00873594
6.800e-04,0.00884844
6.804e-04,0.00887656
6.808e-04,0.00865938
6.812e-04,0.00867188
6.816e-04,0.00866875
6.820e-04,0.00879219
6.824e-04,0.00875625
6.828e-04,0.00856406
6.832e-04,0.00872188
6.836e-04,0.00866094
6.840e-04,0.00871719
6.844e-04,0.00859844
6.848e-04,0.00868125
6.852e-04,0.00848438
6.856e-04,0.00841719
6.860e-04,0.00872656
6.864e-04,0.00847031
6.868e-04,0.00855938
6.872e-04,0.00852813
6.876e-04,0.00835313
6.880e-04,0.0083125
6.884e-04,0.00835625
6.888e-04,0.00837656
6.892e-04,0.00844219
6.896e-04,0.00838594
6.900e-04,0.00837344
6.904e-04,0.008375
6.908e-04,0.008175
6.912e-04,0.00836094
6.916e-04,0.00825469
6.920e-04,0.00822031
6.924e-04,0.00807188
6.928e-04,0.00816719
6.932e-04,0.00816406
6.936e-04,0.00817031
6.940e-04,0.00831719
6.944e-04,0.00812656
6.948e-04,0.00808906
6.952e-04,0.00827969
6.956e-04,0.00806875
6.960e-04,0.00808281
6.964e-04,0.00801094
6.968e-04,0.00802656
6.972e-04,0.00802188
6.976e-04,0.00802031
6.980e-04,0.00787344
6.984e-04,0.00780625
6.988e-04,0.00783906
6.992e-04,0.00802969
6.996e-04,0.00778594
7.000e-04,0.007875
7.004e-04,0.00785
7.008e-04,0.00780156
7.012e-04,0.00774375
7.016e-04,0.00783281
7.020e-04,0.00772969
7.024e-04,0.0077125
7.028e-04,0.00775938
7.032e-04,0.00769219
7.036e-04,0.00763125
7.040e-04,0.00773281
7.044e-04,0.00765
7.048e-04,0.00775625
7.052e-04,0.00763125
7.056e-04,0.0077125
7.060e-04,0.00759219
7.064e-04,0.00752344
7.068e-04,0.00758594
7.072e-04,0.00758281
7.076e-04,0.00747031
7.080e-04,0.00753125
7.084e-04,0.00730938
7.088e-04,0.00749844
7.092e-04,0.00753281
7.096e-04,0.00742969
7.100e-04,0.00751875
7.104e-04,0.00755
7.108e-04,0.00733281
7.112e-04,0.00753125
7.116e-04,0.00734688
7.120e-04,0.00735
7.124e-04,0.00747031
7.128e-04,0.00731094
7.132e-04,0.00745625
7.136e-04,0.00723125
7.140e-04,0.00735938
7.144e-04,0.00725781
7.148e-04,0.00734375
7.152e-04,0.00718281
7.156e-04,0.00725313
7.160e-04,0.00719844
7.164e-04,0.00709844
7.168e-04,0.00707813
7.172e-04,0.00716719
7.176e-04,0.00714375
7.180e-04,0.00708125
7.184e-04,0.00711406
7.188e-04,0.00715156
7.192e-04,0.00707344
7.196e-04,0.00702656
7.200e-04,0.00709844
7.204e-04,0.00698594
7.208e-04,0.00705625
7.212e-04,0.00703438
7.216e-04,0.00701094
7.220e-04,0.00677344
7.224e-04,0.0069
7.228e-04,0.00677344
7.232e-04,0.00692969
7.236e-04,0.00672031
7.240e-04,0.00682344
7.244e-04,0.00683125
7.248e-04,0.00677969
7.252e-04,0.00684219
7.256e-04,0.00664688
7.260e-04,0.00674063
7.264e-04,0.00695313
7.268e-04,0.00675625
7.272e-04,0.00668125
7.276e-04,0.00667813
7.280e-04,0.00676094
7.284e-04,0.00676406
7.288e-04,0.00665781
7.292e-04,0.0067375
7.296e-04,0.00655625
7.300e-04,0.00654688
7.304e-04,0.00653438
7.308e-04,0.00670781
7.312e-04,0.00655625
7.316e-04,0.00654531
7.320e-04,0.00665156
7.324e-04,0.00656563
7.328e-04,0.00658437
7.332e-04,0.0066875
7.336e-04,0.00626094
7.340e-04,0.00639688
7.344e-04,0.00655625
7.348e-04,0.00641719
7.352e-04,0.00639219
7.356e-04,0.00640781
7.360e-04,0.00653594
7.364e-04,0.00627969
7.368e-04,0.00637031
7.372e-04,0.00633906
7.376e-04,0.00635469
7.380e-04,0.00635
7.384e-04,0.00620156
7.388e-04,0.00634219
7.392e-04,0.00631563
7.396e-04,0.00643594
7.400e-04,0.00628438
7.404e-04,0.00624063
7.408e-04,0.00622813
7.412e-04,0.00639531
7.416e-04,0.00615781
7.420e-04,0.00608125
7.424e-04,0.00604688
7.428e-04,0.00617969
7.432e-04,0.00639531
7.436e-04,0.00609063
7.440e-04,0.00609219
7.444e-04,0.0060125
7.448e-04,0.00593594
7.452e-04,0.00612812
7.456e-04,0.00610313
7.460e-04,0.005975
7.464e-04,0.00607813
7.468e-04,0.00617188
7.472e-04,0.00600625
7.476e-04,0.00595313
7.480e-04,0.00595781
7.484e-04,0.005825
7.488e-04,0.00585781
7.492e-04,0.0059375
7.496e-04,0.00596875
7.500e-04,0.00590156
7.504e-04,0.00580313
7.508e-04,0.00575156
7.512e-04,0.00584531
7.516e-04,0.00588594
7.520e-04,0.00568281
7.524e-04,0.00578281
7.528e-04,0.0058125
7.532e-04,0.00572031
7.536e-04,0.00568281
7.540e-04,0.00593438
7.544e-04,0.00577188
7.548e-04,0.00574375
7.552e-04,0.00574063
7.556e-04,0.00564844
7.560e-04,0.00592344
7.564e-04,0.00574063
7.568e-04,0.00565781
7.572e-04,0.00568281
7.576e-04,0.00537969
7.580e-04,0.00571094
7.584e-04,0.00565313
7.588e-04,0.00544531
7.592e-04,0.0057375
7.596e-04,0.00558281
7.600e-04,0.00550313
7.604e-04,0.00538125
7.608e-04,0.00548125
7.612e-04,0.00559219
7.616e-04,0.00531875
7.620e-04,0.005475
7.624e-04,0.00559531
7.628e-04,0.00543594
7.632e-04,0.00558437
7.636e-04,0.00552656
7.640e-04,0.00547656
7.644e-04,0.00552031
7.648e-04,0.00527812
7.652e-04,0.00547813
7.656e-04,0.00532813
7.660e-04,0.00558906
7.664e-04,0.00530313
7.668e-04,0.00537656
7.672e-04,0.00536875
7.676e-04,0.00522813
7.680e-04,0.00536563
7.684e-04,0.00535938
7.688e-04,0.00522344
7.692e-04,0.00522969
7.696e-04,0.0053625
7.700e-04,0.00519375
7.704e-04,0.00522813
7.708e-04,0.00517344
7.712e-04,0.00529844
7.716e-04,0.004975
7.720e-04,0.00525469
7.724e-04,0.00516875
7.728e-04,0.00515937
7.732e-04,0.00525938
7.736e-04,0.00509219
7.740e-04,0.005125
7.744e-04,0.00506562
7.748e-04,0.00509844
7.752e-04,0.00504375
7.756e-04,0.00500625
7.760e-04,0.00505781
7.764e-04,0.00513906
7.768e-04,0.00515
7.772e-04,0.00499219
7.776e-04,0.0051
7.780e-04,0.00500313
7.784e-04,0.00496406
7.788e-04,0.0050375
7.792e-04,0.00502031
7.796e-04,0.0048125
7.800e-04,0.00491719
7.804e-04,0.00511719
7.808e-04,0.00469688
7.812e-04,0.00481875
7.816e-04,0.00495469
7.820e-04,0.00489688
7.824e-04,0.00479375
7.828e-04,0.00498125
7.832e-04,0.00487969
7.836e-04,0.00481094
7.840e-04,0.00485
7.844e-04,0.00462188
7.848e-04,0.00480156
7.852e-04,0.0048375
7.856e-04,0.00477031
7.860e-04,0.00472813
7.864e-04,0.00473125
7.868e-04,0.00486719
7.872e-04,0.00497969
7.876e-04,0.00450313
7.880e-04,0.00467344
7.884e-04,0.00464531
7.888e-04,0.00463281
7.892e-04,0.00480469
7.896e-04,0.0046375
7.900e-04,0.00445469
7.904e-04,0.0045625
7.908e-04,0.00452187
7.912e-04,0.00454531
7.916e-04,0.00463906
7.920e-04,0.00452656
7.924e-04,0.00468125
7.928e-04,0.0046125
7.932e-04,0.00446094
7.936e-04,0.00442813
7.940e-04,0.00460781
7.944e-04,0.00459531
7.948e-04,0.00446875
7.952e-04,0.00457188
7.956e-04,0.00443594
7.960e-04,0.00444375
7.964e-04,0.00450156
7.968e-04,0.00444063
7.972e-04,0.00449688
7.976e-04,0.00431719
7.980e-04,0.00461719
7.984e-04,0.00447031
7.988e-04,0.00444219
7.992e-04,0.0042875
7.996e-04,0.00437813
8.000e-04,0.00451875
8.004e-04,0.00421094
8.008e-04,0.00421719
8.012e-04,0.00450156
8.016e-04,0.00429375
8.020e-04,0.00430781
8.024e-04,0.00430781
8.028e-04,0.00432813
8.032e-04,0.00418281
8.036e-04,0.00425625
8.040e-04,0.00424219
8.044e-04,0.00431406
8.048e-04,0.00417344
8.052e-04,0.00435313
8.056e-04,0.00411406
8.060e-04,0.00419844
8.064e-04,0.00403125
8.068e-04,0.00425156
8.072e-04,0.00426406
8.076e-04,0.00417969
8.080e-04,0.004325
8.084e-04,0.00412188
8.088e-04,0.00424219
8.092e-04,0.00406562
8.096e-04,0.00409375
8.100e-04,0.00413438
8.104e-04,0.00433125
8.108e-04,0.00397969
8.112e-04,0.00429531
8.116e-04,0.00404062
8.120e-04,0.0041375
8.124e-04,0.00399375
8.128e-04,0.00419531
8.132e-04,0.00403594
8.136e-04,0.0041125
8.140e-04,0.00396719
8.144e-04,0.00398594
8.148e-04,0.00398906
8.152e-04,0.0039875
8.156e-04,0.00406562
8.160e-04,0.00400313
8.164e-04,0.00405625
8.168e-04,0.00385625
8.172e-04,0.00404219
8.176e-04,0.00393125
8.180e-04,0.0038625
8.184e-04,0.00390938
8.188e-04,0.00393125
8.192e-04,0.00382813
8.196e-04,0.00382969
8.200e-04,0.00385469
8.204e-04,0.0038625
8.208e-04,0.00400625
8.212e-04,0.00392031
8.216e-04,0.00395781
8.220e-04,0.0039625
8.224e-04,0.00362031
8.228e-04,0.00389844
8.232e-04,0.00382344
8.236e-04,0.00366719
8.240e-04,0.00380625
8.244e-04,0.00391406
8.248e-04,0.00378125
8.252e-04,0.00385781
8.256e-04,0.00377344
8.260e-04,0.00375781
8.264e-04,0.00357969
8.268e-04,0.00387188
8.272e-04,0.00384219
8.276e-04,0.00377031
8.280e-04,0.0037625
8.284e-04,0.00382813
8.288e-04,0.00347188
8.292e-04,0.00359531
8.296e-04,0.00373594
8.300e-04,0.00367031
8.304e-04,0.0036625
8.308e-04,0.00359844
8.312e-04,0.00376719
8.316e-04,0.00360312
8.320e-04,0.00374063
8.324e-04,0.00351094
8.328e-04,0.00366406
8.332e-04,0.00348281
8.336e-04,0.00357187
8.340e-04,0.0035875
8.344e-04,0.00343438
8.348e-04,0.00348906
8.352e-04,0.00370781
8.356e-04,0.00350313
8.360e-04,0.00347031
8.364e-04,0.00343125
8.368e-04,0.00355625
8.372e-04,0.00353594
8.376e-04,0.00336563
8.380e-04,0.0036875
8.384e-04,0.00355938
8.388e-04,0.00330938
8.392e-04,0.00358281
8.396e-04,0.0034875
8.400e-04,0.00342031
8.404e-04,0.00335625
8.408e-04,0.00351563
8.412e-04,0.00353438
8.416e-04,0.00343906
8.420e-04,0.0033875
8.424e-04,0.00332344
8.428e-04,0.003225
8.432e-04,0.00321563
8.436e-04,0.00353125
8.440e-04,0.00332344
8.444e-04,0.00332969
8.448e-04,0.00335625
8.452e-04,0.00341719
8.456e-04,0.00341094
8.460e-04,0.0032625
8.464e-04,0.00328437
8.468e-04,0.00313281
8.472e-04,0.00329219
8.476e-04,0.00343594
8.480e-04,0.00324688
8.484e-04,0.00325938
8.488e-04,0.00320469
8.492e-04,0.00339375
8.496e-04,0.003175
8.500e-04,0.0031125
8.504e-04,0.00334219
8.508e-04,0.00326094
8.512e-04,0.00334531
8.516e-04,0.00312188
8.520e-04,0.003225
8.524e-04,0.00295469
8.528e-04,0.00313125
8.532e-04,0.00315625
8.536e-04,0.00304375
8.540e-04,0.00312656
8.544e-04,0.00321406
8.548e-04,0.00310938
8.552e-04,0.00316094
8.556e-04,0.00308125
8.560e-04,0.00319063
8.564e-04,0.00312969
8.568e-04,0.00314375
8.572e-04,0.00315625
8.576e-04,0.00310156
8.580e-04,0.00323906
8.584e-04,0.00300469
8.588e-04,0.003125
8.592e-04,0.00305781
8.596e-04,0.00290156
8.600e-04,0.00304063
8.604e-04,0.00297813
8.608e-04,0.00305313
8.612e-04,0.00296562
8.616e-04,0.0032
8.620e-04,0.00295938
8.624e-04,0.00295781
8.628e-04,0.00300156
8.632e-04,0.00289219
8.636e-04,0.00304688
8.640e-04,0.00318281
8.644e-04,0.00300313
8.648e-04,0.00283438
8.652e-04,0.00310625
8.656e-04,0.00286563
8.660e-04,0.00300313
8.664e-04,0.0028625
8.668e-04,0.00312813
8.672e-04,0.00299531
8.676e-04,0.00286094
8.680e-04,0.0028875
8.684e-04,0.00288281
8.688e-04,0.00282969
8.692e-04,0.00290156
8.696e-04,0.00294063
8.700e-04,0.00282344
8.704e-04,0.00291719
8.708e-04,0.00292187
8.712e-04,0.00282969
8.716e-04,0.00274688
8.720e-04,0.002925
8.724e-04,0.00278594
8.728e-04,0.00272344
8.732e-04,0.00294063
8.736e-04,0.00272031
8.740e-04,0.0026875
8.744e-04,0.00272031
8.748e-04,0.00287344
8.752e-04,0.00284063
8.756e-04,0.00274063
8.760e-04,0.00279063
8.764e-04,0.00275156
8.768e-04,0.00267969
8.772e-04,0.00269063
8.776e-04,0.00277188
8.780e-04,0.00260781
8.784e-04,0.00285
8.788e-04,0.00273906
8.792e-04,0.00284688
8.796e-04,0.002725
8.800e-04,0.00277969
8.804e-04,0.00270781
8.808e-04,0.00261563
8.812e-04,0.00273125
8.816e-04,0.00275625
8.820e-04,0.0026625
8.824e-04,0.00260156
8.828e-04,0.00278594
8.832e-04,0.00251875
8.836e-04,0.00257031
8.840e-04,0.00258594
8.844e-04,0.00249687
8.848e-04,0.00263594
8.852e-04,0.00259844
8.856e-04,0.0025125
8.860e-04,0.00251719
8.864e-04,0.00261094
8.868e-04,0.00250781
8.872e-04,0.00260312
8.876e-04,0.00264375
8.880e-04,0.00249063
8.884e-04,0.00248281
8.888e-04,0.00252031
8.892e-04,0.00250469
8.896e-04,0.00250938
8.900e-04,0.0024625
8.904e-04,0.00250625
8.908e-04,0.00247344
8.912e-04,0.00270781
8.916e-04,0.00247813
8.920e-04,0.00246406
8.924e-04,0.0024125
8.928e-04,0.00231562
8.932e-04,0.00248906
8.936e-04,0.00242031
8.940e-04,0.00250781
8.944e-04,0.00239844
8.948e-04,0.00236406
8.952e-04,0.00253125
8.956e-04,0.00245313
8.960e-04,0.00247969
8.964e-04,0.00243125
8.968e-04,0.00264844
8.972e-04,0.00235156
8.976e-04,0.00229375
8.980e-04,0.00222187
8.984e-04,0.00237344
8.988e-04,0.00237813
8.992e-04,0.0023625
8.996e-04,0.00236406
9.000e-04,0.00237969
9.004e-04,0.00224219
9.008e-04,0.00236719
9.012e-04,0.0024625
9.016e-04,0.00210938
9.020e-04,0.00235
9.024e-04,0.00222344
9.028e-04,0.00220937
9.032e-04,0.00236875
9.036e-04,0.00255
9.040e-04,0.00226406
9.044e-04,0.00234688
9.048e-04,0.00230781
9.052e-04,0.00231875
9.056e-04,0.00219844
9.060e-04,0.00224375
9.064e-04,0.00219219
9.068e-04,0.00228437
9.072e-04,0.00222031
9.076e-04,0.00221094
9.080e-04,0.00229688
9.084e-04,0.00221563
9.088e-04,0.00223906
9.092e-04,0.002225
9.096e-04,0.00239531
9.100e-04,0.00220781
9.104e-04,0.00229844
9.108e-04,0.00203906
9.112e-04,0.00230156
9.116e-04,0.002225
9.120e-04,0.0021625
9.124e-04,0.00223438
9.128e-04,0.00213125
9.132e-04,0.00205469
9.136e-04,0.00201563
9.140e-04,0.0020625
9.144e-04,0.00208594
9.148e-04,0.00206406
9.152e-04,0.0020625
9.156e-04,0.00204375
9.160e-04,0.00224531
9.164e-04,0.00203125
9.168e-04,0.00215469
9.172e-04,0.00219063
9.176e-04,0.00196094
9.180e-04,0.00213594
9.184e-04,0.00214063
9.188e-04,0.0020625
9.192e-04,0.00214219
9.196e-04,0.00198594
9.200e-04,0.00214063
9.204e-04,0.00192344
9.208e-04,0.00202969
9.212e-04,0.00203594
9.216e-04,0.00189063
9.220e-04,0.00213437
9.224e-04,0.0020875
9.228e-04,0.00195
9.232e-04,0.00203281
9.236e-04,0.00216094
9.240e-04,0.00187813
9.244e-04,0.00205313
9.248e-04,0.00221094
9.252e-04,0.00202656
9.256e-04,0.001975
9.260e-04,0.00189531
9.264e-04,0.001875
9.268e-04,0.00204062
9.272e-04,0.00191719
9.276e-04,0.00206406
9.280e-04,0.00195
9.284e-04,0.00193906
9.288e-04,0.00175469
9.292e-04,0.00195312
9.296e-04,0.00198125
9.300e-04,0.00187813
9.304e-04,0.00188906
9.308e-04,0.00199063
9.312e-04,0.00187813
9.316e-04,0.00188125
9.320e-04,0.00183281
9.324e-04,0.00193438
9.328e-04,0.00192031
9.332e-04,0.00186719
9.336e-04,0.00188594
9.340e-04,0.00192656
9.344e-04,0.00195625
9.348e-04,0.00181406
9.352e-04,0.00193438
9.356e-04,0.001875
9.360e-04,0.00190313
9.364e-04,0.00197344
9.368e-04,0.00197188
9.372e-04,0.00195469
9.376e-04,0.00173125
9.380e-04,0.00178906
9.384e-04,0.00175
9.388e-04,0.00183438
9.392e-04,0.00181094
9.396e-04,0.00184219
9.400e-04,0.0017125
9.404e-04,0.0019125
9.408e-04,0.00189375
9.412e-04,0.00174688
9.416e-04,0.00170938
