Exponential decay data/tek0032.csv

Model,DPO4054
Firmware Version,2.68

Waveform Type,ANALOG
Point Format,Y
Horizontal Units,s
Horizontal Scale,4e-05
Horizontal Delay,0.000218
Sample Interval,4e-08
Record Length,10000
Gating,0.0% to 100.0%
Probe Attenuation,10
Vertical Units,V
Vertical Offset,0
Vertical Scale,0.02
Vertical Position,0
,
,
,
Label,
TIME,CH3
1.8000e-05,0.0675188
1.8040e-05,0.0676875
1.8080e-05,0.0677281
1.8120e-05,0.0675687
1.8160e-05,0.0675156
1.8200e-05,0.06755
1.8240e-05,0.0675656
1.8280e-05,0.0676031
1.8320e-05,0.0676188
1.8360e-05,0.0675313
1.8400e-05,0.0673313
1.8440e-05,0.0673625
1.8480e-05,0.0676125
1.8520e-05,0.0673688
1.8560e-05,0.0673719
1.8600e-05,0.06735
1.8640e-05,0.0673062
1.8680e-05,0.0672719
1.8720e-05,0.067425
1.8760e-05,0.0674781
1.8800e-05,0.06765
1.8840e-05,0.0674844
1.8880e-05,0.0674625
1.8920e-05,0.0676188
1.8960e-05,0.0675875
1.9000e-05,0.0674875
1.9040e-05,0.0676219
1.9080e-05,0.0673281
1.9120e-05,0.0675437
1.9160e-05,0.0672969
1.9200e-05,0.0676094
1.9240e-05,0.0675313
1.9280e-05,0.0675375
1.9320e-05,0.0673344
1.9360e-05,0.067375
1.9400e-05,0.0675813
1.9440e-05,0.0673406
1.9480e-05,0.0673938
1.9520e-05,0.0674875
1.9560e-05,0.0675469
1.9600e-05,0.0673281
1.9640e-05,0.0673344
1.9680e-05,0.0672781
1.9720e-05,0.0674031
1.9760e-05,0.0675625
1.9800e-05,0.0671125
1.9840e-05,0.0672125
1.9880e-05,0.0673313
1.9920e-05,0.0673094
1.9960e-05,0.0674031
2.0000e-05,0.0674563
2.0040e-05,0.0670562
2.0080e-05,0.067275
2.0120e-05,0.06745
2.0160e-05,0.0673313
2.0200e-05,0.0673438
2.0240e-05,0.067075
2.0280e-05,0.0672563
2.0320e-05,0.0673219
2.0360e-05,0.0674437
2.0400e-05,0.0674625
2.0440e-05,0.0672625
2.0480e-05,0.0672188
2.0520e-05,0.067475
2.0560e-05,0.067275
2.0600e-05,0.0674219
2.0640e-05,0.0672
2.0680e-05,0.0675188
2.0720e-05,0.0673062
2.0760e-05,0.0672125
2.0800e-05,0.0674156
2.0840e-05,0.0672375
2.0880e-05,0.0672875
2.0920e-05,0.06735
2.0960e-05,0.0670656
2.1000e-05,0.0671781
2.1040e-05,0.0672469
2.1080e-05,0.0672563
2.1120e-05,0.0672188
2.1160e-05,0.0674875
2.1200e-05,0.0672625
2.1240e-05,0.0672594
2.1280e-05,0.0672438
2.1320e-05,0.0673625
2.1360e-05,0.0672406
2.1400e-05,0.067175
2.1440e-05,0.0674437
2.1480e-05,0.0672531
2.1520e-05,0.0671094
2.1560e-05,0.0669938
2.1600e-05,0.06715
2.1640e-05,0.0672875
2.1680e-05,0.0672188
2.1720e-05,0.0672094
2.1760e-05,0.06715
2.1800e-05,0.0672156
2.1840e-05,0.0671469
2.1880e-05,0.0670375
2.1920e-05,0.067275
2.1960e-05,0.0672719
2.2000e-05,0.0672094
2.2040e-05,0.067
2.2080e-05,0.0670594
2.2120e-05,0.0671313
2.2160e-05,0.0671125
2.2200e-05,0.067275
2.2240e-05,0.0671344
2.2280e-05,0.0671937
2.2320e-05,0.0671344
2.2360e-05,0.0672
2.2400e-05,0.0672094
2.2440e-05,0.0670219
2.2480e-05,0.0670406
2.2520e-05,0.0668344
2.2560e-05,0.0669906
2.2600e-05,0.0670625
2.2640e-05,0.0670844
2.2680e-05,0.0669219
2.2720e-05,0.0668656
2.2760e-05,0.0671656
2.2800e-05,0.0670375
2.2840e-05,0.0671625
2.2880e-05,0.0673187
2.2920e-05,0.0670125
2.2960e-05,0.0669656
2.3000e-05,0.067075
2.3040e-05,0.0671594
2.3080e-05,0.0669531
2.3120e-05,0.0671031
2.3160e-05,0.0671094
2.3200e-05,0.0669156
2.3240e-05,0.066925
2.3280e-05,0.0670656
2.3320e-05,0.0667969
2.3360e-05,0.0668844
2.3400e-05,0.0670875
2.3440e-05,0.0671375
2.3480e-05,0.067025
2.3520e-05,0.0668156
2.3560e-05,0.0670156
2.3600e-05,0.0671063
2.3640e-05,0.0671531
2.3680e-05,0.0667875
2.3720e-05,0.0670906
2.3760e-05,0.0668594
2.3800e-05,0.067075
2.3840e-05,0.067
2.3880e-05,0.0670375
2.3920e-05,0.066875
2.3960e-05,0.0667281
2.4000e-05,0.0669844
2.4040e-05,0.0669656
2.4080e-05,0.0669219
2.4120e-05,0.0667875
2.4160e-05,0.0669125
2.4200e-05,0.0667125
2.4240e-05,0.0670031
2.4280e-05,0.0667813
2.4320e-05,0.0669437
2.4360e-05,0.0668156
2.4400e-05,0.067025
2.4440e-05,0.0669938
2.4480e-05,0.0670531
2.4520e-05,0.067
2.4560e-05,0.0668563
2.4600e-05,0.0670687
2.4640e-05,0.0668281
2.4680e-05,0.0668469
2.4720e-05,0.0668219
2.4760e-05,0.0666
2.4800e-05,0.0667844
2.4840e-05,0.0666219
2.4880e-05,0.0668156
2.4920e-05,0.0667937
2.4960e-05,0.0666188
2.5000e-05,0.0667719
2.5040e-05,0.0667625
2.5080e-05,0.0667438
2.5120e-05,0.0668125
2.5160e-05,0.0665375
2.5200e-05,0.06705
2.5240e-05,0.0667313
2.5280e-05,0.0666656
2.5320e-05,0.066625
2.5360e-05,0.0666531
2.5400e-05,0.0669031
2.5440e-05,0.0668969
2.5480e-05,0.0666063
2.5520e-05,0.0667594
2.5560e-05,0.0669875
2.5600e-05,0.0669063
2.5640e-05,0.0668062
2.5680e-05,0.0665719
2.5720e-05,0.0668938
2.5760e-05,0.0667937
2.5800e-05,0.0668125
2.5840e-05,0.0667969
2.5880e-05,0.0667906
2.5920e-05,0.0667813
2.5960e-05,0.0665656
2.6000e-05,0.0667188
2.6040e-05,0.0665969
2.6080e-05,0.0666
2.6120e-05,0.0665469
2.6160e-05,0.0666594
2.6200e-05,0.0666969
2.6240e-05,0.0665375
2.6280e-05,0.0663313
2.6320e-05,0.0667156
2.6360e-05,0.0668
2.6400e-05,0.0666969
2.6440e-05,0.0667531
2.6480e-05,0.0669031
2.6520e-05,0.0667344
2.6560e-05,0.0668344
2.6600e-05,0.0668031
2.6640e-05,0.0667813
2.6680e-05,0.0666281
2.6720e-05,0.0665406
2.6760e-05,0.0665813
2.6800e-05,0.0667625
2.6840e-05,0.0667063
2.6880e-05,0.066575
2.6920e-05,0.066825
2.6960e-05,0.0666563
2.7000e-05,0.0667719
2.7040e-05,0.0665594
2.7080e-05,0.0665938
2.7120e-05,0.0664219
2.7160e-05,0.0668
2.7200e-05,0.0666094
2.7240e-05,0.0666156
2.7280e-05,0.0667531
2.7320e-05,0.066675
2.7360e-05,0.0665875
2.7400e-05,0.0665
2.7440e-05,0.06675
2.7480e-05,0.0665688
2.7520e-05,0.0663188
2.7560e-05,0.0665375
2.7600e-05,0.0668438
2.7640e-05,0.0667531
2.7680e-05,0.0664625
2.7720e-05,0.0664625
2.7760e-05,0.0666031
2.7800e-05,0.0667375
2.7840e-05,0.0663938
2.7880e-05,0.0664906
2.7920e-05,0.0663969
2.7960e-05,0.0666125
2.8000e-05,0.0665656
2.8040e-05,0.0664312
2.8080e-05,0.0665656
2.8120e-05,0.0664844
2.8160e-05,0.0666031
2.8200e-05,0.06655
2.8240e-05,0.0665281
2.8280e-05,0.0665375
2.8320e-05,0.0665125
2.8360e-05,0.0665813
2.8400e-05,0.0664312
2.8440e-05,0.0664969
2.8480e-05,0.0665969
2.8520e-05,0.0663375
2.8560e-05,0.0665
2.8600e-05,0.0663719
2.8640e-05,0.0664375
2.8680e-05,0.0665688
2.8720e-05,0.0666906
2.8760e-05,0.06635
2.8800e-05,0.0668
2.8840e-05,0.0665906
2.8880e-05,0.0665188
2.8920e-05,0.0665313
2.8960e-05,0.0663719
2.9000e-05,0.0664781
2.9040e-05,0.0664656
2.9080e-05,0.0664844
2.9120e-05,0.0663375
2.9160e-05,0.0663344
2.9200e-05,0.0663688
2.9240e-05,0.0663406
2.9280e-05,0.0665094
2.9320e-05,0.0662094
2.9360e-05,0.0664062
2.9400e-05,0.0664125
2.9440e-05,0.06665
2.9480e-05,0.0663656
2.9520e-05,0.0661469
2.9560e-05,0.0664563
2.9600e-05,0.0664938
2.9640e-05,0.0665
2.9680e-05,0.0662281
2.9720e-05,0.0663313
2.9760e-05,0.0665188
2.9800e-05,0.0663
2.9840e-05,0.0662563
2.9880e-05,0.0661687
2.9920e-05,0.0662
2.9960e-05,0.0662438
3.0000e-05,0.0665719
3.0040e-05,0.0661594
3.0080e-05,0.0663219
3.0120e-05,0.0663594
3.0160e-05,0.0663094
3.0200e-05,0.0662906
3.0240e-05,0.0661063
3.0280e-05,0.0661188
3.0320e-05,0.0662719
3.0360e-05,0.0661531
3.0400e-05,0.0661469
3.0440e-05,0.066325
3.0480e-05,0.0663719
3.0520e-05,0.0661594
3.0560e-05,0.0663844
3.0600e-05,0.066175
3.0640e-05,0.0661406
3.0680e-05,0.0662844
3.0720e-05,0.0664688
3.0760e-05,0.0662438
3.0800e-05,0.0663875
3.0840e-05,0.0664125
3.0880e-05,0.0661469
3.0920e-05,0.0662
3.0960e-05,0.0662313
3.1000e-05,0.0662219
3.1040e-05,0.0662844
3.1080e-05,0.0661687
3.1120e-05,0.0662531
3.1160e-05,0.06635
3.1200e-05,0.0663313
3.1240e-05,0.0663344
3.1280e-05,0.0662219
3.1320e-05,0.0661594
3.1360e-05,0.0662
3.1400e-05,0.0661344
3.1440e-05,0.0662188
3.1480e-05,0.0662875
3.1520e-05,0.0662219
3.1560e-05,0.0660906
3.1600e-05,0.0662719
3.1640e-05,0.0662781
3.1680e-05,0.0662625
3.1720e-05,0.0661719
3.1760e-05,0.0660063
3.1800e-05,0.0662313
3.1840e-05,0.0662719
3.1880e-05,0.0660562
3.1920e-05,0.0660531
3.1960e-05,0.0661687
3.2000e-05,0.0662125
3.2040e-05,0.0661313
3.2080e-05,0.0659844
3.2120e-05,0.0660281
3.2160e-05,0.0661125
3.2200e-05,0.0662063
3.2240e-05,0.0661063
3.2280e-05,0.0659344
3.2320e-05,0.0660938
3.2360e-05,0.0661812
3.2400e-05,0.0661656
3.2440e-05,0.0660875
3.2480e-05,0.0661313
3.2520e-05,0.0660813
3.2560e-05,0.0661188
3.2600e-05,0.0660656
3.2640e-05,0.0658938
3.2680e-05,0.06605
3.2720e-05,0.0659531
3.2760e-05,0.0659187
3.2800e-05,0.06585
3.2840e-05,0.0660281
3.2880e-05,0.0660406
3.2920e-05,0.065925
3.2960e-05,0.0658219
3.3000e-05,0.0659344
3.3040e-05,0.0659688
3.3080e-05,0.0659375
3.3120e-05,0.0660344
3.3160e-05,0.065975
3.3200e-05,0.0660344
3.3240e-05,0.0661469
3.3280e-05,0.0662406
3.3320e-05,0.0659125
3.3360e-05,0.0661156
3.3400e-05,0.0659469
3.3440e-05,0.0659219
3.3480e-05,0.0660031
3.3520e-05,0.0658969
3.3560e-05,0.0660531
3.3600e-05,0.0659219
3.3640e-05,0.0658125
3.3680e-05,0.0659625
3.3720e-05,0.0658813
3.3760e-05,0.0658906
3.3800e-05,0.065875
3.3840e-05,0.0660781
3.3880e-05,0.0660688
3.3920e-05,0.0658938
3.3960e-05,0.0660031
3.4000e-05,0.0658563
3.4040e-05,0.0659688
3.4080e-05,0.0660469
3.4120e-05,0.0662438
3.4160e-05,0.0658813
3.4200e-05,0.0659
3.4240e-05,0.0658281
3.4280e-05,0.0657969
3.4320e-05,0.0660219
3.4360e-05,0.0660688
3.4400e-05,0.0659594
3.4440e-05,0.0659875
3.4480e-05,0.0661438
3.4520e-05,0.065675
3.4560e-05,0.0658344
3.4600e-05,0.0658688
3.4640e-05,0.0658656
3.4680e-05,0.0659688
3.4720e-05,0.0657281
3.4760e-05,0.06575
3.4800e-05,0.0658156
3.4840e-05,0.0657656
3.4880e-05,0.0657781
3.4920e-05,0.0657188
3.4960e-05,0.0658531
3.5000e-05,0.0656438
3.5040e-05,0.0658844
3.5080e-05,0.0657844
3.5120e-05,0.0658344
3.5160e-05,0.0656625
3.5200e-05,0.0658188
3.5240e-05,0.0656969
3.5280e-05,0.065675
3.5320e-05,0.0658781
3.5360e-05,0.0659219
3.5400e-05,0.0657063
3.5440e-05,0.0658844
3.5480e-05,0.0657406
3.5520e-05,0.0657344
3.5560e-05,0.0655625
3.5600e-05,0.0659844
3.5640e-05,0.0657063
3.5680e-05,0.0656594
3.5720e-05,0.065475
3.5760e-05,0.0655906
3.5800e-05,0.0655344
3.5840e-05,0.0657469
3.5880e-05,0.0657125
3.5920e-05,0.0656625
3.5960e-05,0.0657875
3.6000e-05,0.0658938
3.6040e-05,0.0656812
3.6080e-05,0.0655
3.6120e-05,0.0656844
3.6160e-05,0.0655531
3.6200e-05,0.0655594
3.6240e-05,0.0656531
3.6280e-05,0.0656313
3.6320e-05,0.0656156
3.6360e-05,0.0654625
3.6400e-05,0.0657719
3.6440e-05,0.0656812
3.6480e-05,0.0657531
3.6520e-05,0.0656156
3.6560e-05,0.0658406
3.6600e-05,0.0656438
3.6640e-05,0.0655844
3.6680e-05,0.0655844
3.6720e-05,0.0658313
3.6760e-05,0.0654563
3.6800e-05,0.0655719
3.6840e-05,0.0656875
3.6880e-05,0.0656
3.6920e-05,0.0656719
3.6960e-05,0.06555
3.7000e-05,0.0653344
3.7040e-05,0.0655
3.7080e-05,0.0653594
3.7120e-05,0.0654906
3.7160e-05,0.065575
3.7200e-05,0.065625
3.7240e-05,0.0656562
3.7280e-05,0.0652906
3.7320e-05,0.0655562
3.7360e-05,0.0655344
3.7400e-05,0.0654406
3.7440e-05,0.0655125
3.7480e-05,0.0654187
3.7520e-05,0.0656063
3.7560e-05,0.0654906
3.7600e-05,0.0653656
3.7640e-05,0.0655719
3.7680e-05,0.0655969
3.7720e-05,0.0653906
3.7760e-05,0.0654844
3.7800e-05,0.0655188
3.7840e-05,0.0656031
3.7880e-05,0.0657375
3.7920e-05,0.0654219
3.7960e-05,0.0654531
3.8000e-05,0.0655719
3.8040e-05,0.0654688
3.8080e-05,0.0655969
3.8120e-05,0.0655781
3.8160e-05,0.0654406
3.8200e-05,0.0653344
3.8240e-05,0.0653969
3.8280e-05,0.0653313
3.8320e-05,0.0655312
3.8360e-05,0.0653188
3.8400e-05,0.0654281
3.8440e-05,0.0654219
3.8480e-05,0.0653281
3.8520e-05,0.06545
3.8560e-05,0.0654375
3.8600e-05,0.0655219
3.8640e-05,0.0653062
3.8680e-05,0.0654281
3.8720e-05,0.0654031
3.8760e-05,0.0652094
3.8800e-05,0.0654688
3.8840e-05,0.065525
3.8880e-05,0.0652438
3.8920e-05,0.0654688
3.8960e-05,0.0654688
3.9000e-05,0.0655375
3.9040e-05,0.0654281
3.9080e-05,0.0653844
3.9120e-05,0.0652406
3.9160e-05,0.0654875
3.9200e-05,0.0653719
3.9240e-05,0.0655219
3.9280e-05,0.0655781
3.9320e-05,0.0654187
3.9360e-05,0.06535
3.9400e-05,0.0655219
3.9440e-05,0.0652844
3.9480e-05,0.0653094
3.9520e-05,0.0655375
3.9560e-05,0.0653438
3.9600e-05,0.0652094
3.9640e-05,0.0653094
3.9680e-05,0.0655125
3.9720e-05,0.065425
3.9760e-05,0.0652812
3.9800e-05,0.0652406
3.9840e-05,0.0651562
3.9880e-05,0.06535
3.9920e-05,0.0653094
3.9960e-05,0.0654219
4.0000e-05,0.065225
4.0040e-05,0.0653625
4.0080e-05,0.0654625
4.0120e-05,0.065225
4.0160e-05,0.0651406
4.0200e-05,0.0651281
4.0240e-05,0.0651313
4.0280e-05,0.0653594
4.0320e-05,0.0655063
4.0360e-05,0.0652094
4.0400e-05,0.0652906
4.0440e-05,0.065275
4.0480e-05,0.0651594
4.0520e-05,0.0652156
4.0560e-05,0.0651438
4.0600e-05,0.0651719
4.0640e-05,0.0653531
4.0680e-05,0.0652563
4.0720e-05,0.0653219
4.0760e-05,0.0652438
4.0800e-05,0.065225
4.0840e-05,0.0653062
4.0880e-05,0.0651063
4.0920e-05,0.0653094
4.0960e-05,0.0653656
4.1000e-05,0.06525
4.1040e-05,0.0651875
4.1080e-05,0.0653625
4.1120e-05,0.0651375
4.1160e-05,0.0652406
4.1200e-05,0.0653406
4.1240e-05,0.0651719
4.1280e-05,0.0651594
4.1320e-05,0.0651875
4.1360e-05,0.0652219
4.1400e-05,0.0652094
4.1440e-05,0.0652188
4.1480e-05,0.065
4.1520e-05,0.0651625
4.1560e-05,0.0651656
4.1600e-05,0.0652281
4.1640e-05,0.0652406
4.1680e-05,0.0651375
4.1720e-05,0.0651469
4.1760e-05,0.0652313
4.1800e-05,0.0652313
4.1840e-05,0.0651531
4.1880e-05,0.0649875
4.1920e-05,0.0649
4.1960e-05,0.0649344
4.2000e-05,0.0651906
4.2040e-05,0.0649781
4.2080e-05,0.0653813
4.2120e-05,0.0650844
4.2160e-05,0.065075
4.2200e-05,0.0649438
4.2240e-05,0.0650188
4.2280e-05,0.06525
4.2320e-05,0.0650906
4.2360e-05,0.0653719
4.2400e-05,0.0651219
4.2440e-05,0.0652563
4.2480e-05,0.0653344
4.2520e-05,0.0650469
4.2560e-05,0.0649875
4.2600e-05,0.0649563
4.2640e-05,0.0649938
4.2680e-05,0.0647969
4.2720e-05,0.064875
4.2760e-05,0.0648063
4.2800e-05,0.0650719
4.2840e-05,0.0650188
4.2880e-05,0.0649125
4.2920e-05,0.0648813
4.2960e-05,0.0648813
4.3000e-05,0.0650938
4.3040e-05,0.0651156
4.3080e-05,0.0648813
4.3120e-05,0.0650781
4.3160e-05,0.0649656
4.3200e-05,0.0649844
4.3240e-05,0.0649313
4.3280e-05,0.0649406
4.3320e-05,0.0649656
4.3360e-05,0.0650813
4.3400e-05,0.0645875
4.3440e-05,0.0647594
4.3480e-05,0.0647812
4.3520e-05,0.0647812
4.3560e-05,0.0649656
4.3600e-05,0.0650531
4.3640e-05,0.0649313
4.3680e-05,0.0648719
4.3720e-05,0.0649688
4.3760e-05,0.0648875
4.3800e-05,0.0650781
4.3840e-05,0.0647281
4.3880e-05,0.0648
4.3920e-05,0.0650594
4.3960e-05,0.0650469
4.4000e-05,0.06475
4.4040e-05,0.0647719
4.4080e-05,0.0651656
4.4120e-05,0.0648313
4.4160e-05,0.0648063
4.4200e-05,0.0647812
4.4240e-05,0.0649938
4.4280e-05,0.0647531
4.4320e-05,0.0648781
4.4360e-05,0.0649531
4.4400e-05,0.0649719
4.4440e-05,0.0650688
4.4480e-05,0.0650969
4.4520e-05,0.0649813
4.4560e-05,0.0648375
4.4600e-05,0.0649031
4.4640e-05,0.0647781
4.4680e-05,0.0645875
4.4720e-05,0.0647844
4.4760e-05,0.0647219
4.4800e-05,0.0649344
4.4840e-05,0.0648094
4.4880e-05,0.0650437
4.4920e-05,0.0647063
4.4960e-05,0.0648563
4.5000e-05,0.064825
4.5040e-05,0.0648281
4.5080e-05,0.0647812
4.5120e-05,0.0646656
4.5160e-05,0.0648094
4.5200e-05,0.0649
4.5240e-05,0.0646562
4.5280e-05,0.0645125
4.5320e-05,0.064975
4.5360e-05,0.0648094
4.5400e-05,0.0645312
4.5440e-05,0.0647875
4.5480e-05,0.0648469
4.5520e-05,0.06465
4.5560e-05,0.0647844
4.5600e-05,0.0647125
4.5640e-05,0.0648281
4.5680e-05,0.0649313
4.5720e-05,0.0648125
4.5760e-05,0.0649031
4.5800e-05,0.0647906
4.5840e-05,0.0644656
4.5880e-05,0.0647219
4.5920e-05,0.0648219
4.5960e-05,0.0644844
4.6000e-05,0.0646813
4.6040e-05,0.0646
4.6080e-05,0.0645844
4.6120e-05,0.0647969
4.6160e-05,0.0646687
4.6200e-05,0.0649062
4.6240e-05,0.0647812
4.6280e-05,0.0648813
4.6320e-05,0.0648281
4.6360e-05,0.0646531
4.6400e-05,0.0646531
4.6440e-05,0.0647969
4.6480e-05,0.0645094
4.6520e-05,0.0646031
4.6560e-05,0.0645688
4.6600e-05,0.0646687
4.6640e-05,0.0646594
4.6680e-05,0.0646656
4.6720e-05,0.0648781
4.6760e-05,0.0645594
4.6800e-05,0.0645656
4.6840e-05,0.0647313
4.6880e-05,0.0645344
4.6920e-05,0.0645
4.6960e-05,0.0647781
4.7000e-05,0.0646313
4.7040e-05,0.06475
4.7080e-05,0.0647
4.7120e-05,0.0644094
4.7160e-05,0.0644938
4.7200e-05,0.0646906
4.7240e-05,0.0646094
4.7280e-05,0.0645875
4.7320e-05,0.0645688
4.7360e-05,0.0644531
4.7400e-05,0.0647188
4.7440e-05,0.0646687
4.7480e-05,0.0646656
4.7520e-05,0.0644906
4.7560e-05,0.0643688
4.7600e-05,0.0644563
4.7640e-05,0.0646125
4.7680e-05,0.0644813
4.7720e-05,0.0644594
4.7760e-05,0.064475
4.7800e-05,0.0645719
4.7840e-05,0.0643813
4.7880e-05,0.0645469
4.7920e-05,0.06455
4.7960e-05,0.0645094
4.8000e-05,0.0643438
4.8040e-05,0.0646
4.8080e-05,0.0645375
4.8120e-05,0.0646562
4.8160e-05,0.0642563
4.8200e-05,0.0644563
4.8240e-05,0.0646437
4.8280e-05,0.0643438
4.8320e-05,0.0644344
4.8360e-05,0.0644094
4.8400e-05,0.0644844
4.8440e-05,0.0645187
4.8480e-05,0.0643438
4.8520e-05,0.0642781
4.8560e-05,0.0644313
4.8600e-05,0.0643438
4.8640e-05,0.0644438
4.8680e-05,0.0645719
4.8720e-05,0.0644625
4.8760e-05,0.0644219
4.8800e-05,0.0644219
4.8840e-05,0.0645094
4.8880e-05,0.0643031
4.8920e-05,0.0641594
4.8960e-05,0.0643188
4.9000e-05,0.0644219
4.9040e-05,0.0642281
4.9080e-05,0.0641875
4.9120e-05,0.0643937
4.9160e-05,0.0646031
4.9200e-05,0.0644219
4.9240e-05,0.0644187
4.9280e-05,0.0642844
4.9320e-05,0.0642438
4.9360e-05,0.0643594
4.9400e-05,0.06445
4.9440e-05,0.0644719
4.9480e-05,0.0642906
4.9520e-05,0.0642906
4.9560e-05,0.0643313
4.9600e-05,0.0643969
4.9640e-05,0.0644969
4.9680e-05,0.0644156
4.9720e-05,0.0641
4.9760e-05,0.0643219
4.9800e-05,0.0642812
4.9840e-05,0.0642687
4.9880e-05,0.0643813
4.9920e-05,0.0642406
4.9960e-05,0.0642969
5.0000e-05,0.0644594
5.0040e-05,0.0641375
5.0080e-05,0.0643438
5.0120e-05,0.0643563
5.0160e-05,0.0642188
5.0200e-05,0.0642
5.0240e-05,0.0643156
5.0280e-05,0.0643
5.0320e-05,0.0642625
5.0360e-05,0.0642656
5.0400e-05,0.0642063
5.0440e-05,0.0643563
5.0480e-05,0.0643688
5.0520e-05,0.0641469
5.0560e-05,0.0641875
5.0600e-05,0.0639656
5.0640e-05,0.0640406
5.0680e-05,0.0640625
5.0720e-05,0.0642156
5.0760e-05,0.0641625
5.0800e-05,0.0641813
5.0840e-05,0.0641687
5.0880e-05,0.0642438
5.0920e-05,0.0642344
5.0960e-05,0.0643375
5.1000e-05,0.0641156
5.1040e-05,0.0640719
5.1080e-05,0.0640625
5.1120e-05,0.0640656
5.1160e-05,0.0640688
5.1200e-05,0.0640906
5.1240e-05,0.0642969
5.1280e-05,0.0640688
5.1320e-05,0.0641687
5.1360e-05,0.0638906
5.1400e-05,0.0640594
5.1440e-05,0.0641625
5.1480e-05,0.0640875
5.1520e-05,0.0641219
5.1560e-05,0.0644313
5.1600e-05,0.0640344
5.1640e-05,0.0640281
5.1680e-05,0.0638219
5.1720e-05,0.0638313
5.1760e-05,0.0640781
5.1800e-05,0.0641344
5.1840e-05,0.06415
5.1880e-05,0.0640781
5.1920e-05,0.0639656
5.1960e-05,0.0639375
5.2000e-05,0.0640156
5.2040e-05,0.0639438
5.2080e-05,0.0640406
5.2120e-05,0.0639031
5.2160e-05,0.0639781
5.2200e-05,0.0639813
5.2240e-05,0.0639813
5.2280e-05,0.064175
5.2320e-05,0.0640844
5.2360e-05,0.0639844
5.2400e-05,0.0640625
5.2440e-05,0.0639781
5.2480e-05,0.0641906
5.2520e-05,0.0640656
5.2560e-05,0.0641875
5.2600e-05,0.0641594
5.2640e-05,0.0638063
5.2680e-05,0.0642219
5.2720e-05,0.0641781
5.2760e-05,0.0641094
5.2800e-05,0.0638719
5.2840e-05,0.0638594
5.2880e-05,0.0641094
5.2920e-05,0.0638719
5.2960e-05,0.06385
5.3000e-05,0.0640187
5.3040e-05,0.0640688
5.3080e-05,0.0639875
5.3120e-05,0.0638531
5.3160e-05,0.0637344
5.3200e-05,0.0638344
5.3240e-05,0.0640688
5.3280e-05,0.0640531
5.3320e-05,0.0640594
5.3360e-05,0.0638813
5.3400e-05,0.0638313
5.3440e-05,0.0636406
5.3480e-05,0.0639281
5.3520e-05,0.0637344
5.3560e-05,0.0639563
5.3600e-05,0.0637094
5.3640e-05,0.0637844
5.3680e-05,0.0639344
5.3720e-05,0.0636625
5.3760e-05,0.063875
5.3800e-05,0.0639719
5.3840e-05,0.06395
5.3880e-05,0.0639719
5.3920e-05,0.0639187
5.3960e-05,0.0638063
5.4000e-05,0.0637563
5.4040e-05,0.0638313
5.4080e-05,0.0638344
5.4120e-05,0.0639469
5.4160e-05,0.06375
5.4200e-05,0.0639625
5.4240e-05,0.0638438
5.4280e-05,0.0637719
5.4320e-05,0.0638625
5.4360e-05,0.0640563
5.4400e-05,0.0639531
5.4440e-05,0.0637188
5.4480e-05,0.0639438
5.4520e-05,0.063775
5.4560e-05,0.0637656
5.4600e-05,0.0639125
5.4640e-05,0.0638188
5.4680e-05,0.0637781
5.4720e-05,0.0638406
5.4760e-05,0.0638531
5.4800e-05,0.0638063
5.4840e-05,0.0637812
5.4880e-05,0.0640125
5.4920e-05,0.0637937
5.4960e-05,0.0637344
5.5000e-05,0.0637781
5.5040e-05,0.0637344
5.5080e-05,0.0637781
5.5120e-05,0.0637563
5.5160e-05,0.0638063
5.5200e-05,0.0636531
5.5240e-05,0.0634969
5.5280e-05,0.0636094
5.5320e-05,0.0637469
5.5360e-05,0.0637875
5.5400e-05,0.0637188
5.5440e-05,0.0636687
5.5480e-05,0.0636594
5.5520e-05,0.0635719
5.5560e-05,0.0636625
5.5600e-05,0.0637344
5.5640e-05,0.0638875
5.5680e-05,0.0636687
5.5720e-05,0.0638531
5.5760e-05,0.0636906
5.5800e-05,0.0635469
